(module TO3 (layer F.Cu)
  (at 0 0)
  (descr "Transistor TO3")
  (tags "TR TO3")
  (fp_text reference 7805-TO3 (at -13.716 -11.176) (layer F.SilkS)
    (effects (font (size 1.016 1.016) (thickness 0.2032)))
  )
  (fp_text value U*** (at -14.351 -9.144) (layer F.SilkS)
    (effects (font (size 1.016 1.016) (thickness 0.2032)))
  )
  (fp_line (start -20.32 -2.54) (end -21.336 0) (layer F.SilkS) (width 0.3048))
  (fp_line (start -21.336 0) (end -20.32 2.54) (layer F.SilkS) (width 0.3048))
  (fp_line (start 20.32 -2.54) (end 21.844 0) (layer F.SilkS) (width 0.3048))
  (fp_line (start 21.844 0) (end 20.32 2.54) (layer F.SilkS) (width 0.3048))
  (fp_line (start -4.572 -12.192) (end 0 -13.208) (layer F.SilkS) (width 0.3048))
  (fp_line (start 0 -13.208) (end 4.572 -12.192) (layer F.SilkS) (width 0.3048))
  (fp_line (start -4.572 -12.192) (end -20.32 -2.54) (layer F.SilkS) (width 0.3048))
  (fp_line (start 4.572 -12.192) (end 20.32 -2.54) (layer F.SilkS) (width 0.3048))
  (fp_line (start 4.572 12.192) (end 20.32 2.54) (layer F.SilkS) (width 0.3048))
  (fp_line (start -4.572 12.192) (end -20.32 2.54) (layer F.SilkS) (width 0.3048))
  (fp_line (start 4.572 12.192) (end -0.508 13.208) (layer F.SilkS) (width 0.3048))
  (fp_line (start -0.508 13.208) (end -4.572 12.192) (layer F.SilkS) (width 0.3048))
  (fp_circle (center 0 0) (end 10.16 0.635) (layer F.SilkS) (width 0.3048))
  (pad 1 thru_hole circle (at -15.24 0) (size 6.35 6.35) (drill 3.937)
    (layers *.Cu *.Mask F.SilkS)
  )
  (pad 1 thru_hole circle (at 15.24 0) (size 6.35 6.35) (drill 3.937)
    (layers *.Cu *.Mask F.SilkS)
  )
  (pad 2 thru_hole circle (at -2.54 -5.08) (size 2.54 2.54) (drill 1.3208)
    (layers *.Cu *.Mask F.SilkS)
  )
  (pad 3 thru_hole circle (at -2.54 5.08) (size 2.54 2.54) (drill 1.3208)
    (layers *.Cu *.Mask F.SilkS)
  )
  (model discret/to3.wrl
    (at (xyz 0 0 0))
    (scale (xyz 1 1 1))
    (rotate (xyz 0 0 0))
  )
)
