PCBNEW-LibModule-V1  07/12/2015 15:50:02
# encoding utf-8
Units mm
$INDEX
SOT323
$EndINDEX
$MODULE SOT323
Po 0 0 0 15 56661AE2 00000000 ~~
Li SOT323
Kw SMD SOT
Sc 0
AR /566461D9
Op 0 0 0
At SMD
T0 0.08128 -2.27584 0.762 0.762 0 0.09906 N V 21 N "Q3"
T1 0.00508 2.19456 0.381 0.381 0 0.09525 N V 21 N "DMG1012T"
DS 0.254 0.508 0.889 0.508 0.127 21
DS 0.889 0.508 0.889 -0.508 0.127 21
DS -0.889 -0.508 -0.889 0.508 0.127 21
DS -0.889 0.508 -0.254 0.508 0.127 21
DS 0.254 0.635 0.254 0.508 0.127 21
DS -0.254 0.508 -0.254 0.635 0.127 21
DS 0.889 -0.508 -0.889 -0.508 0.127 21
DS -0.254 0.635 0.254 0.635 0.127 21
$PAD
Sh "2" R 0.59944 2.032 0 0 0
Dr 0 0 0
At SMD N 00808000
Ne 2 "N-0000012"
Po -0.65 -1.45
$EndPAD
$PAD
Sh "1" R 0.59944 2.032 0 0 0
Dr 0 0 0
At SMD N 00808000
Ne 1 "/EMMC_DISABLE_N"
Po 0.625 -1.5
$EndPAD
$PAD
Sh "3" R 0.59944 2.032 0 0 0
Dr 0 0 0
At SMD N 00808000
Ne 3 "N-0000014"
Po -0.05 1.45
$EndPAD
$SHAPE3D
Na "smd/SOT323.wrl"
Sc 0.3937 0.3937 0.3937
Of 0 0 0.001
Ro 0 0 0
$EndSHAPE3D
$EndMODULE SOT323
$EndLIBRARY
