PCBNEW-LibModule-V1  27/02/2017 10:15:14
# encoding utf-8
Units mm
$INDEX
PGA120+4
$EndINDEX
$MODULE PGA120+4
Po 0 0 0 15 58B46C4F 00000000 ~~
Li PGA120+4
Cd Support PGA 120 pins
Kw PGA
Sc 0
AR /58B24F1A
Op 0 0 0
T0 -16.21282 -20.21586 2.54 2.032 900 0.2032 N V 21 N "U1"
T1 -20.21586 -20.61718 2.54 1.5748 900 0.2032 N V 21 N "68030"
DS 16.51 15.24 15.24 16.51 0.3048 21
DS 16.51 15.24 16.51 -16.51 0.3048 21
DS 16.51 -16.51 -16.51 -16.51 0.3048 21
DS -16.51 -16.51 -16.51 16.51 0.3048 21
DS -16.51 16.51 15.24 16.51 0.3048 21
$PAD
Sh "N1" C 1.397 1.397 0 0 0
Dr 0.7874 0 0
At STD N 00E0FFFF
Ne 48 "/D31"
Po 15.24 -15.24
$EndPAD
$PAD
Sh "N2" C 1.397 1.397 0 0 0
Dr 0.7874 0 0
At STD N 00E0FFFF
Ne 44 "/D28"
Po 12.7 -15.24
$EndPAD
$PAD
Sh "N3" C 1.397 1.397 0 0 0
Dr 0.7874 0 0
At STD N 00E0FFFF
Ne 42 "/D26"
Po 10.16 -15.24
$EndPAD
$PAD
Sh "M1" C 1.397 1.397 0 0 0
Dr 0.7874 0 0
At STD N 00E0FFFF
Ne 7 "/CPU_DBEN*"
Po 15.24 -12.7
$EndPAD
$PAD
Sh "M2" C 1.397 1.397 0 0 0
Dr 0.7874 0 0
At STD N 00E0FFFF
Ne 11 "/CPU_ECS*"
Po 12.7 -12.7
$EndPAD
$PAD
Sh "M3" C 1.397 1.397 0 0 0
Dr 0.7874 0 0
At STD N 00E0FFFF
Ne 45 "/D29"
Po 10.16 -12.7
$EndPAD
$PAD
Sh "L1" C 1.397 1.397 0 0 0
Dr 0.7874 0 0
At STD N 00E0FFFF
Ne 91 "N-00000358"
Po 15.24 -10.16
$EndPAD
$PAD
Sh "L2" C 1.397 1.397 0 0 0
Dr 0.7874 0 0
At STD N 00E0FFFF
Ne 21 "/CPU_SIZ0"
Po 12.7 -10.16
$EndPAD
$PAD
Sh "L3" C 1.397 1.397 0 0 0
Dr 0.7874 0 0
At STD N 00E0FFFF
Ne 20 "/CPU_RW*"
Po 10.16 -10.16
$EndPAD
$PAD
Sh "K1" C 1.397 1.397 0 0 0
Dr 0.7874 0 0
At STD N 00E0FFFF
Ne 0 ""
Po 15.24 -7.62
$EndPAD
$PAD
Sh "K2" C 1.397 1.397 0 0 0
Dr 0.7874 0 0
At STD N 00E0FFFF
Ne 8 "/CPU_DS*"
Po 12.7 -7.62
$EndPAD
$PAD
Sh "K3" C 1.397 1.397 0 0 0
Dr 0.7874 0 0
At STD N 00E0FFFF
Ne 22 "/CPU_SIZ1"
Po 10.16 -7.62
$EndPAD
$PAD
Sh "J1" C 1.397 1.397 0 0 0
Dr 0.7874 0 0
At STD N 00E0FFFF
Ne 92 "N-00000359"
Po 15.24 -5.08
$EndPAD
$PAD
Sh "J2" C 1.397 1.397 0 0 0
Dr 0.7874 0 0
At STD N 00E0FFFF
Ne 1 "/CPU_AS*"
Po 12.7 -5.08
$EndPAD
$PAD
Sh "J3" C 1.397 1.397 0 0 0
Dr 0.7874 0 0
At STD N 00E0FFFF
Ne 88 "GND"
Po 10.16 -5.08
$EndPAD
$PAD
Sh "H1" C 1.397 1.397 0 0 0
Dr 0.7874 0 0
At STD N 00E0FFFF
Ne 2 "/CPU_BERR*"
Po 15.24 -2.54
$EndPAD
$PAD
Sh "H2" C 1.397 1.397 0 0 0
Dr 0.7874 0 0
At STD N 00E0FFFF
Ne 89 "N-00000356"
Po 12.7 -2.54
$EndPAD
$PAD
Sh "H3" C 1.397 1.397 0 0 0
Dr 0.7874 0 0
At STD N 00E0FFFF
Ne 94 "VCC"
Po 10.16 -2.54
$EndPAD
$PAD
Sh "G1" C 1.397 1.397 0 0 0
Dr 0.7874 0 0
At STD N 00E0FFFF
Ne 93 "N-00000377"
Po 15.24 0
$EndPAD
$PAD
Sh "G2" C 1.397 1.397 0 0 0
Dr 0.7874 0 0
At STD N 00E0FFFF
Ne 10 "/CPU_DSACK1"
Po 12.7 0
$EndPAD
$PAD
Sh "G3" C 1.397 1.397 0 0 0
Dr 0.7874 0 0
At STD N 00E0FFFF
Ne 88 "GND"
Po 10.16 0
$EndPAD
$PAD
Sh "F1" C 1.397 1.397 0 0 0
Dr 0.7874 0 0
At STD N 00E0FFFF
Ne 9 "/CPU_DSACK0"
Po 15.24 2.54
$EndPAD
$PAD
Sh "F2" C 1.397 1.397 0 0 0
Dr 0.7874 0 0
At STD N 00E0FFFF
Ne 94 "VCC"
Po 12.7 2.54
$EndPAD
$PAD
Sh "F3" C 1.397 1.397 0 0 0
Dr 0.7874 0 0
At STD N 00E0FFFF
Ne 88 "GND"
Po 10.16 2.54
$EndPAD
$PAD
Sh "E1" C 1.397 1.397 0 0 0
Dr 0.7874 0 0
At STD N 00E0FFFF
Ne 6 "/CPU_CLK"
Po 15.24 5.08
$EndPAD
$PAD
Sh "E2" C 1.397 1.397 0 0 0
Dr 0.7874 0 0
At STD N 00E0FFFF
Ne 55 "/RR2_8"
Po 12.7 5.08
$EndPAD
$PAD
Sh "E3" C 1.397 1.397 0 0 0
Dr 0.7874 0 0
At STD N 00E0FFFF
Ne 88 "GND"
Po 10.16 5.08
$EndPAD
$PAD
Sh "D1" C 1.397 1.397 0 0 0
Dr 0.7874 0 0
At STD N 00E0FFFF
Ne 14 "/CPU_FC2"
Po 15.24 7.62
$EndPAD
$PAD
Sh "D2" C 1.397 1.397 0 0 0
Dr 0.7874 0 0
At STD N 00E0FFFF
Ne 0 ""
Po 12.7 7.62
$EndPAD
$PAD
Sh "D3" C 1.397 1.397 0 0 0
Dr 0.7874 0 0
At STD N 00E0FFFF
Ne 12 "/CPU_FC0"
Po 10.16 7.62
$EndPAD
$PAD
Sh "C1" C 1.397 1.397 0 0 0
Dr 0.7874 0 0
At STD N 00E0FFFF
Ne 13 "/CPU_FC1"
Po 15.24 10.16
$EndPAD
$PAD
Sh "C2" C 1.397 1.397 0 0 0
Dr 0.7874 0 0
At STD N 00E0FFFF
Ne 0 ""
Po 12.7 10.16
$EndPAD
$PAD
Sh "C3" C 1.397 1.397 0 0 0
Dr 0.7874 0 0
At STD N 00E0FFFF
Ne 4 "/CPU_BGACK*"
Po 10.16 10.16
$EndPAD
$PAD
Sh "C4" C 1.397 1.397 0 0 0
Dr 0.7874 0 0
At STD N 00E0FFFF
Ne 57 "/mA1"
Po 7.62 10.16
$EndPAD
$PAD
Sh "C5" C 1.397 1.397 0 0 0
Dr 0.7874 0 0
At STD N 00E0FFFF
Ne 88 "GND"
Po 5.08 10.16
$EndPAD
$PAD
Sh "C6" C 1.397 1.397 0 0 0
Dr 0.7874 0 0
At STD N 00E0FFFF
Ne 94 "VCC"
Po 2.54 10.16
$EndPAD
$PAD
Sh "C7" C 1.397 1.397 0 0 0
Dr 0.7874 0 0
At STD N 00E0FFFF
Ne 88 "GND"
Po 0 10.16
$EndPAD
$PAD
Sh "C8" C 1.397 1.397 0 0 0
Dr 0.7874 0 0
At STD N 00E0FFFF
Ne 66 "/mA18"
Po -2.54 10.16
$EndPAD
$PAD
Sh "C9" C 1.397 1.397 0 0 0
Dr 0.7874 0 0
At STD N 00E0FFFF
Ne 88 "GND"
Po -5.08 10.16
$EndPAD
$PAD
Sh "C10" C 1.397 1.397 0 0 0
Dr 0.7874 0 0
At STD N 00E0FFFF
Ne 59 "/mA11"
Po -7.62 10.16
$EndPAD
$PAD
Sh "C11" C 1.397 1.397 0 0 0
Dr 0.7874 0 0
At STD N 00E0FFFF
Ne 87 "/mA9"
Po -10.16 10.16
$EndPAD
$PAD
Sh "C12" C 1.397 1.397 0 0 0
Dr 0.7874 0 0
At STD N 00E0FFFF
Ne 83 "/mA5"
Po -12.7 10.16
$EndPAD
$PAD
Sh "C13" C 1.397 1.397 0 0 0
Dr 0.7874 0 0
At STD N 00E0FFFF
Ne 82 "/mA4"
Po -15.24 10.16
$EndPAD
$PAD
Sh "B1" C 1.397 1.397 0 0 0
Dr 0.7874 0 0
At STD N 00E0FFFF
Ne 19 "/CPU_RMC*"
Po 15.24 12.7
$EndPAD
$PAD
Sh "B2" C 1.397 1.397 0 0 0
Dr 0.7874 0 0
At STD N 00E0FFFF
Ne 3 "/CPU_BG*"
Po 12.7 12.7
$EndPAD
$PAD
Sh "B3" C 1.397 1.397 0 0 0
Dr 0.7874 0 0
At STD N 00E0FFFF
Ne 81 "/mA31"
Po 10.16 12.7
$EndPAD
$PAD
Sh "B4" C 1.397 1.397 0 0 0
Dr 0.7874 0 0
At STD N 00E0FFFF
Ne 78 "/mA29"
Po 7.62 12.7
$EndPAD
$PAD
Sh "B5" C 1.397 1.397 0 0 0
Dr 0.7874 0 0
At STD N 00E0FFFF
Ne 76 "/mA27"
Po 5.08 12.7
$EndPAD
$PAD
Sh "B6" C 1.397 1.397 0 0 0
Dr 0.7874 0 0
At STD N 00E0FFFF
Ne 74 "/mA25"
Po 2.54 12.7
$EndPAD
$PAD
Sh "B7" C 1.397 1.397 0 0 0
Dr 0.7874 0 0
At STD N 00E0FFFF
Ne 71 "/mA22"
Po 0 12.7
$EndPAD
$PAD
Sh "B8" C 1.397 1.397 0 0 0
Dr 0.7874 0 0
At STD N 00E0FFFF
Ne 69 "/mA20"
Po -2.54 12.7
$EndPAD
$PAD
Sh "B9" C 1.397 1.397 0 0 0
Dr 0.7874 0 0
At STD N 00E0FFFF
Ne 64 "/mA16"
Po -5.08 12.7
$EndPAD
$PAD
Sh "B10" C 1.397 1.397 0 0 0
Dr 0.7874 0 0
At STD N 00E0FFFF
Ne 62 "/mA14"
Po -7.62 12.7
$EndPAD
$PAD
Sh "B11" C 1.397 1.397 0 0 0
Dr 0.7874 0 0
At STD N 00E0FFFF
Ne 60 "/mA12"
Po -10.16 12.7
$EndPAD
$PAD
Sh "B12" C 1.397 1.397 0 0 0
Dr 0.7874 0 0
At STD N 00E0FFFF
Ne 86 "/mA8"
Po -12.7 12.7
$EndPAD
$PAD
Sh "B13" C 1.397 1.397 0 0 0
Dr 0.7874 0 0
At STD N 00E0FFFF
Ne 85 "/mA7"
Po -15.24 12.7
$EndPAD
$PAD
Sh "A1" R 1.397 1.397 0 0 0
Dr 0.7874 0 0
At STD N 00E0FFFF
Ne 5 "/CPU_BR*"
Po 15.24 15.24
$EndPAD
$PAD
Sh "A2" C 1.397 1.397 0 0 0
Dr 0.7874 0 0
At STD N 00E0FFFF
Ne 56 "/mA0"
Po 12.7 15.24
$EndPAD
$PAD
Sh "A3" C 1.397 1.397 0 0 0
Dr 0.7874 0 0
At STD N 00E0FFFF
Ne 80 "/mA30"
Po 10.16 15.24
$EndPAD
$PAD
Sh "A4" C 1.397 1.397 0 0 0
Dr 0.7874 0 0
At STD N 00E0FFFF
Ne 77 "/mA28"
Po 7.62 15.24
$EndPAD
$PAD
Sh "A5" C 1.397 1.397 0 0 0
Dr 0.7874 0 0
At STD N 00E0FFFF
Ne 75 "/mA26"
Po 5.08 15.24
$EndPAD
$PAD
Sh "A6" C 1.397 1.397 0 0 0
Dr 0.7874 0 0
At STD N 00E0FFFF
Ne 73 "/mA24"
Po 2.54 15.24
$EndPAD
$PAD
Sh "A7" C 1.397 1.397 0 0 0
Dr 0.7874 0 0
At STD N 00E0FFFF
Ne 72 "/mA23"
Po 0 15.24
$EndPAD
$PAD
Sh "A8" C 1.397 1.397 0 0 0
Dr 0.7874 0 0
At STD N 00E0FFFF
Ne 70 "/mA21"
Po -2.54 15.24
$EndPAD
$PAD
Sh "A9" C 1.397 1.397 0 0 0
Dr 0.7874 0 0
At STD N 00E0FFFF
Ne 67 "/mA19"
Po -5.08 15.24
$EndPAD
$PAD
Sh "A10" C 1.397 1.397 0 0 0
Dr 0.7874 0 0
At STD N 00E0FFFF
Ne 65 "/mA17"
Po -7.62 15.24
$EndPAD
$PAD
Sh "A11" C 1.397 1.397 0 0 0
Dr 0.7874 0 0
At STD N 00E0FFFF
Ne 63 "/mA15"
Po -10.16 15.24
$EndPAD
$PAD
Sh "A12" C 1.397 1.397 0 0 0
Dr 0.7874 0 0
At STD N 00E0FFFF
Ne 61 "/mA13"
Po -12.7 15.24
$EndPAD
$PAD
Sh "A13" C 1.397 1.397 0 0 0
Dr 0.7874 0 0
At STD N 00E0FFFF
Ne 58 "/mA10"
Po -15.24 15.24
$EndPAD
$PAD
Sh "N4" C 1.397 1.397 0 0 0
Dr 0.7874 0 0
At STD N 00E0FFFF
Ne 41 "/D25"
Po 7.62 -15.24
$EndPAD
$PAD
Sh "N5" C 1.397 1.397 0 0 0
Dr 0.7874 0 0
At STD N 00E0FFFF
Ne 39 "/D23"
Po 5.08 -15.24
$EndPAD
$PAD
Sh "N6" C 1.397 1.397 0 0 0
Dr 0.7874 0 0
At STD N 00E0FFFF
Ne 37 "/D21"
Po 2.54 -15.24
$EndPAD
$PAD
Sh "N7" C 1.397 1.397 0 0 0
Dr 0.7874 0 0
At STD N 00E0FFFF
Ne 34 "/D19"
Po 0 -15.24
$EndPAD
$PAD
Sh "N8" C 1.397 1.397 0 0 0
Dr 0.7874 0 0
At STD N 00E0FFFF
Ne 33 "/D18"
Po -2.54 -15.24
$EndPAD
$PAD
Sh "N9" C 1.397 1.397 0 0 0
Dr 0.7874 0 0
At STD N 00E0FFFF
Ne 31 "/D16"
Po -5.08 -15.24
$EndPAD
$PAD
Sh "N10" C 1.397 1.397 0 0 0
Dr 0.7874 0 0
At STD N 00E0FFFF
Ne 30 "/D15"
Po -7.62 -15.24
$EndPAD
$PAD
Sh "N11" C 1.397 1.397 0 0 0
Dr 0.7874 0 0
At STD N 00E0FFFF
Ne 28 "/D13"
Po -10.16 -15.24
$EndPAD
$PAD
Sh "N12" C 1.397 1.397 0 0 0
Dr 0.7874 0 0
At STD N 00E0FFFF
Ne 26 "/D11"
Po -12.7 -15.24
$EndPAD
$PAD
Sh "N13" C 1.397 1.397 0 0 0
Dr 0.7874 0 0
At STD N 00E0FFFF
Ne 53 "/D8"
Po -15.24 -15.24
$EndPAD
$PAD
Sh "M4" C 1.397 1.397 0 0 0
Dr 0.7874 0 0
At STD N 00E0FFFF
Ne 43 "/D27"
Po 7.62 -12.7
$EndPAD
$PAD
Sh "M5" C 1.397 1.397 0 0 0
Dr 0.7874 0 0
At STD N 00E0FFFF
Ne 40 "/D24"
Po 5.08 -12.7
$EndPAD
$PAD
Sh "M6" C 1.397 1.397 0 0 0
Dr 0.7874 0 0
At STD N 00E0FFFF
Ne 38 "/D22"
Po 2.54 -12.7
$EndPAD
$PAD
Sh "M7" C 1.397 1.397 0 0 0
Dr 0.7874 0 0
At STD N 00E0FFFF
Ne 36 "/D20"
Po 0 -12.7
$EndPAD
$PAD
Sh "M8" C 1.397 1.397 0 0 0
Dr 0.7874 0 0
At STD N 00E0FFFF
Ne 32 "/D17"
Po -2.54 -12.7
$EndPAD
$PAD
Sh "M9" C 1.397 1.397 0 0 0
Dr 0.7874 0 0
At STD N 00E0FFFF
Ne 29 "/D14"
Po -5.08 -12.7
$EndPAD
$PAD
Sh "M10" C 1.397 1.397 0 0 0
Dr 0.7874 0 0
At STD N 00E0FFFF
Ne 27 "/D12"
Po -7.62 -12.7
$EndPAD
$PAD
Sh "M11" C 1.397 1.397 0 0 0
Dr 0.7874 0 0
At STD N 00E0FFFF
Ne 54 "/D9"
Po -10.16 -12.7
$EndPAD
$PAD
Sh "M12" C 1.397 1.397 0 0 0
Dr 0.7874 0 0
At STD N 00E0FFFF
Ne 51 "/D6"
Po -12.7 -12.7
$EndPAD
$PAD
Sh "M13" C 1.397 1.397 0 0 0
Dr 0.7874 0 0
At STD N 00E0FFFF
Ne 46 "/D3"
Po -15.24 -12.7
$EndPAD
$PAD
Sh "L4" C 1.397 1.397 0 0 0
Dr 0.7874 0 0
At STD N 00E0FFFF
Ne 47 "/D30"
Po 7.62 -10.16
$EndPAD
$PAD
Sh "L5" C 1.397 1.397 0 0 0
Dr 0.7874 0 0
At STD N 00E0FFFF
Ne 88 "GND"
Po 5.08 -10.16
$EndPAD
$PAD
Sh "L6" C 1.397 1.397 0 0 0
Dr 0.7874 0 0
At STD N 00E0FFFF
Ne 94 "VCC"
Po 2.54 -10.16
$EndPAD
$PAD
Sh "L7" C 1.397 1.397 0 0 0
Dr 0.7874 0 0
At STD N 00E0FFFF
Ne 88 "GND"
Po 0 -10.16
$EndPAD
$PAD
Sh "L8" C 1.397 1.397 0 0 0
Dr 0.7874 0 0
At STD N 00E0FFFF
Ne 88 "GND"
Po -2.54 -10.16
$EndPAD
$PAD
Sh "L9" C 1.397 1.397 0 0 0
Dr 0.7874 0 0
At STD N 00E0FFFF
Ne 88 "GND"
Po -5.08 -10.16
$EndPAD
$PAD
Sh "L10" C 1.397 1.397 0 0 0
Dr 0.7874 0 0
At STD N 00E0FFFF
Ne 25 "/D10"
Po -7.62 -10.16
$EndPAD
$PAD
Sh "L11" C 1.397 1.397 0 0 0
Dr 0.7874 0 0
At STD N 00E0FFFF
Ne 52 "/D7"
Po -10.16 -10.16
$EndPAD
$PAD
Sh "L12" C 1.397 1.397 0 0 0
Dr 0.7874 0 0
At STD N 00E0FFFF
Ne 49 "/D4"
Po -12.7 -10.16
$EndPAD
$PAD
Sh "L13" C 1.397 1.397 0 0 0
Dr 0.7874 0 0
At STD N 00E0FFFF
Ne 35 "/D2"
Po -15.24 -10.16
$EndPAD
$PAD
Sh "K11" C 1.397 1.397 0 0 0
Dr 0.7874 0 0
At STD N 00E0FFFF
Ne 50 "/D5"
Po -10.16 -7.62
$EndPAD
$PAD
Sh "K12" C 1.397 1.397 0 0 0
Dr 0.7874 0 0
At STD N 00E0FFFF
Ne 24 "/D1"
Po -12.7 -7.62
$EndPAD
$PAD
Sh "K13" C 1.397 1.397 0 0 0
Dr 0.7874 0 0
At STD N 00E0FFFF
Ne 23 "/D0"
Po -15.24 -7.62
$EndPAD
$PAD
Sh "J11" C 1.397 1.397 0 0 0
Dr 0.7874 0 0
At STD N 00E0FFFF
Ne 88 "GND"
Po -10.16 -5.08
$EndPAD
$PAD
Sh "J12" C 1.397 1.397 0 0 0
Dr 0.7874 0 0
At STD N 00E0FFFF
Ne 0 ""
Po -12.7 -5.08
$EndPAD
$PAD
Sh "J13" C 1.397 1.397 0 0 0
Dr 0.7874 0 0
At STD N 00E0FFFF
Ne 0 ""
Po -15.24 -5.08
$EndPAD
$PAD
Sh "H11" C 1.397 1.397 0 0 0
Dr 0.7874 0 0
At STD N 00E0FFFF
Ne 94 "VCC"
Po -10.16 -2.54
$EndPAD
$PAD
Sh "H12" C 1.397 1.397 0 0 0
Dr 0.7874 0 0
At STD N 00E0FFFF
Ne 0 ""
Po -12.7 -2.54
$EndPAD
$PAD
Sh "H13" C 1.397 1.397 0 0 0
Dr 0.7874 0 0
At STD N 00E0FFFF
Ne 15 "/CPU_IPL0*"
Po -15.24 -2.54
$EndPAD
$PAD
Sh "G11" C 1.397 1.397 0 0 0
Dr 0.7874 0 0
At STD N 00E0FFFF
Ne 88 "GND"
Po -10.16 0
$EndPAD
$PAD
Sh "G12" C 1.397 1.397 0 0 0
Dr 0.7874 0 0
At STD N 00E0FFFF
Ne 17 "/CPU_IPL2*"
Po -12.7 0
$EndPAD
$PAD
Sh "G13" C 1.397 1.397 0 0 0
Dr 0.7874 0 0
At STD N 00E0FFFF
Ne 16 "/CPU_IPL1*"
Po -15.24 0
$EndPAD
$PAD
Sh "F11" C 1.397 1.397 0 0 0
Dr 0.7874 0 0
At STD N 00E0FFFF
Ne 94 "VCC"
Po -10.16 2.54
$EndPAD
$PAD
Sh "F12" C 1.397 1.397 0 0 0
Dr 0.7874 0 0
At STD N 00E0FFFF
Ne 18 "/CPU_RESET*"
Po -12.7 2.54
$EndPAD
$PAD
Sh "F13" C 1.397 1.397 0 0 0
Dr 0.7874 0 0
At STD N 00E0FFFF
Ne 90 "N-00000357"
Po -15.24 2.54
$EndPAD
$PAD
Sh "E11" C 1.397 1.397 0 0 0
Dr 0.7874 0 0
At STD N 00E0FFFF
Ne 88 "GND"
Po -10.16 5.08
$EndPAD
$PAD
Sh "E12" C 1.397 1.397 0 0 0
Dr 0.7874 0 0
At STD N 00E0FFFF
Ne 0 ""
Po -12.7 5.08
$EndPAD
$PAD
Sh "E13" C 1.397 1.397 0 0 0
Dr 0.7874 0 0
At STD N 00E0FFFF
Ne 0 ""
Po -15.24 5.08
$EndPAD
$PAD
Sh "D11" C 1.397 1.397 0 0 0
Dr 0.7874 0 0
At STD N 00E0FFFF
Ne 84 "/mA6"
Po -10.16 7.62
$EndPAD
$PAD
Sh "D12" C 1.397 1.397 0 0 0
Dr 0.7874 0 0
At STD N 00E0FFFF
Ne 79 "/mA3"
Po -12.7 7.62
$EndPAD
$PAD
Sh "D13" C 1.397 1.397 0 0 0
Dr 0.7874 0 0
At STD N 00E0FFFF
Ne 68 "/mA2"
Po -15.24 7.62
$EndPAD
$PAD
Sh "K10" C 1.397 1.397 0 0 0
Dr 0.7874 0 0
At STD N 00E0FFFF
Ne 94 "VCC"
Po -7.75462 -7.62
$EndPAD
$PAD
Sh "K4" C 1.397 1.397 0 0 0
Dr 0.7874 0 0
At STD N 00E0FFFF
Ne 94 "VCC"
Po 7.63524 -7.61746
$EndPAD
$PAD
Sh "D10" C 1.397 1.397 0 0 0
Dr 0.7874 0 0
At STD N 00E0FFFF
Ne 94 "VCC"
Po -7.79526 7.62
$EndPAD
$PAD
Sh "D4" C 1.397 1.397 0 0 0
Dr 0.7874 0 0
At STD N 00E0FFFF
Ne 94 "VCC"
Po 7.62 7.62
$EndPAD
$PAD
Sh "F4" C 1.397 1.397 0 0 0
Dr 0.9652 0 0
At STD N 00E0FFFF
Ne 0 ""
Po 7.58444 2.54
$EndPAD
$PAD
Sh "D5" C 1.397 1.397 0 0 0
Dr 0.9652 0 0
At STD N 00E0FFFF
Ne 0 ""
Po 5.08 7.62
$EndPAD
$PAD
Sh "F10" C 1.397 1.397 0 0 0
Dr 0.9652 0 0
At STD N 00E0FFFF
Ne 0 ""
Po -7.77494 2.54
$EndPAD
$PAD
Sh "K5" C 1.397 1.397 0 0 0
Dr 0.9652 0 0
At STD N 00E0FFFF
Ne 0 ""
Po 5.08 -7.62
$EndPAD
$SHAPE3D
Na "support/supp_pga120.wrl"
Sc 1 1 1
Of 0 0 0
Ro 0 0 0
$EndSHAPE3D
$EndMODULE PGA120+4
$EndLIBRARY
