PCBNEW-LibModule-V1  11/08/2017 23:03:17
# encoding utf-8
Units mm
$INDEX
PIN_ARRAY_30X2
$EndINDEX
$MODULE PIN_ARRAY_30X2
Po 0 0 0 15 58F1B5C2 00000000 ~~
Li PIN_ARRAY_30X2
Cd Double rangee de contacts 2 x 12 pins
Kw CONN
Sc 0
AR 
Op 0 0 0
T0 -7.89686 -3.88112 1.016 1.016 0 0.27432 N V 21 N "REF*"
T1 -7.8486 3.92684 1.016 1.016 0 0.2032 N V 21 N "PIN_ARRAY_25X2"
DS 12.55268 2.60858 25.33904 2.60858 0.381 21
DS 12.6492 -2.56286 25.48636 -2.56286 0.381 21
DS 12.7 2.54 -38.1 2.54 0.3048 21
DS 12.7 -2.54 -38.1 -2.54 0.3048 21
DS 25.654 -2.49174 25.654 2.58826 0.3048 21
DS -38.1 -2.54 -38.1 2.54 0.3048 21
$PAD
Sh "1" R 1.524 1.524 0 0 0
Dr 1.016 0 0
At STD N 00E0FFFF
Ne 0 ""
Po -36.83 1.27
$EndPAD
$PAD
Sh "2" C 1.524 1.524 0 0 0
Dr 1.016 0 0
At STD N 00E0FFFF
Ne 1 "GND"
Po -36.83 -1.27
$EndPAD
$PAD
Sh "11" C 1.524 1.524 0 0 0
Dr 1.016 0 0
At STD N 00E0FFFF
Ne 18 "PA8_1"
Po -24.13 1.27
$EndPAD
$PAD
Sh "4" C 1.524 1.524 0 0 0
Dr 1.016 0 0
At STD N 00E0FFFF
Ne 11 "PA1_1"
Po -34.29 -1.27
$EndPAD
$PAD
Sh "13" C 1.524 1.524 0 0 0
Dr 1.016 0 0
At STD N 00E0FFFF
Ne 5 "PA10_1"
Po -21.59 1.27
$EndPAD
$PAD
Sh "6" C 1.524 1.524 0 0 0
Dr 1.016 0 0
At STD N 00E0FFFF
Ne 13 "PA3_1"
Po -31.75 -1.27
$EndPAD
$PAD
Sh "15" C 1.524 1.524 0 0 0
Dr 1.016 0 0
At STD N 00E0FFFF
Ne 7 "PA12_1"
Po -19.05 1.27
$EndPAD
$PAD
Sh "8" C 1.524 1.524 0 0 0
Dr 1.016 0 0
At STD N 00E0FFFF
Ne 15 "PA5_1"
Po -29.21 -1.27
$EndPAD
$PAD
Sh "17" C 1.524 1.524 0 0 0
Dr 1.016 0 0
At STD N 00E0FFFF
Ne 9 "PA14_1"
Po -16.51 1.27
$EndPAD
$PAD
Sh "10" C 1.524 1.524 0 0 0
Dr 1.016 0 0
At STD N 00E0FFFF
Ne 17 "PA7_1"
Po -26.67 -1.27
$EndPAD
$PAD
Sh "19" C 1.524 1.524 0 0 0
Dr 1.016 0 0
At STD N 00E0FFFF
Ne 0 ""
Po -13.97 1.27
$EndPAD
$PAD
Sh "12" C 1.524 1.524 0 0 0
Dr 1.016 0 0
At STD N 00E0FFFF
Ne 19 "PA9_1"
Po -24.13 -1.27
$EndPAD
$PAD
Sh "21" C 1.524 1.524 0 0 0
Dr 1.016 0 0
At STD N 00E0FFFF
Ne 0 ""
Po -11.43 1.27
$EndPAD
$PAD
Sh "14" C 1.524 1.524 0 0 0
Dr 1.016 0 0
At STD N 00E0FFFF
Ne 6 "PA11_1"
Po -21.59 -1.27
$EndPAD
$PAD
Sh "23" C 1.524 1.524 0 0 0
Dr 1.016 0 0
At STD N 00E0FFFF
Ne 2 "INT1_1"
Po -8.89 1.27
$EndPAD
$PAD
Sh "16" C 1.524 1.524 0 0 0
Dr 1.016 0 0
At STD N 00E0FFFF
Ne 8 "PA13_1"
Po -19.05 -1.27
$EndPAD
$PAD
Sh "25" C 1.524 1.524 0 0 0
Dr 1.016 0 0
At STD N 00E0FFFF
Ne 0 ""
Po -6.35 1.27
$EndPAD
$PAD
Sh "18" C 1.524 1.524 0 0 0
Dr 1.016 0 0
At STD N 00E0FFFF
Ne 10 "PA15_1"
Po -16.51 -1.27
$EndPAD
$PAD
Sh "27" C 1.524 1.524 0 0 0
Dr 1.016 0 0
At STD N 00E0FFFF
Ne 0 ""
Po -3.81 1.27
$EndPAD
$PAD
Sh "20" C 1.524 1.524 0 0 0
Dr 1.016 0 0
At STD N 00E0FFFF
Ne 0 ""
Po -13.97 -1.27
$EndPAD
$PAD
Sh "29" C 1.524 1.524 0 0 0
Dr 1.016 0 0
At STD N 00E0FFFF
Ne 22 "VCC"
Po -1.27 1.27
$EndPAD
$PAD
Sh "22" C 1.524 1.524 0 0 0
Dr 1.016 0 0
At STD N 00E0FFFF
Ne 0 ""
Po -11.43 -1.27
$EndPAD
$PAD
Sh "31" C 1.524 1.524 0 0 0
Dr 1.016 0 0
At STD N 00E0FFFF
Ne 22 "VCC"
Po 1.27 1.27
$EndPAD
$PAD
Sh "24" C 1.524 1.524 0 0 0
Dr 1.016 0 0
At STD N 00E0FFFF
Ne 3 "INT2_1"
Po -8.89 -1.27
$EndPAD
$PAD
Sh "26" C 1.524 1.524 0 0 0
Dr 1.016 0 0
At STD N 00E0FFFF
Ne 0 ""
Po -6.35 -1.27
$EndPAD
$PAD
Sh "33" C 1.524 1.524 0 0 0
Dr 1.016 0 0
At STD N 00E0FFFF
Ne 21 "Tin1_cold_1"
Po 3.81 1.27
$EndPAD
$PAD
Sh "28" C 1.524 1.524 0 0 0
Dr 1.016 0 0
At STD N 00E0FFFF
Ne 10 "PA15_1"
Po -3.81 -1.27
$EndPAD
$PAD
Sh "32" C 1.524 1.524 0 0 0
Dr 1.016 0 0
At STD N 00E0FFFF
Ne 1 "GND"
Po 1.27 -1.27
$EndPAD
$PAD
Sh "34" C 1.524 1.524 0 0 0
Dr 1.016 0 0
At STD N 00E0FFFF
Ne 0 ""
Po 3.81 -1.27
$EndPAD
$PAD
Sh "36" C 1.524 1.524 0 0 0
Dr 1.016 0 0
At STD N 00E0FFFF
Ne 0 ""
Po 6.35 -1.27
$EndPAD
$PAD
Sh "38" C 1.524 1.524 0 0 0
Dr 1.016 0 0
At STD N 00E0FFFF
Ne 0 ""
Po 8.89 -1.27
$EndPAD
$PAD
Sh "35" C 1.524 1.524 0 0 0
Dr 1.016 0 0
At STD N 00E0FFFF
Ne 0 ""
Po 6.35 1.27
$EndPAD
$PAD
Sh "37" C 1.524 1.524 0 0 0
Dr 1.016 0 0
At STD N 00E0FFFF
Ne 20 "PB4_1"
Po 8.89 1.27
$EndPAD
$PAD
Sh "3" C 1.524 1.524 0 0 0
Dr 1.016 0 0
At STD N 00E0FFFF
Ne 4 "PA0_1"
Po -34.29 1.27
$EndPAD
$PAD
Sh "5" C 1.524 1.524 0 0 0
Dr 1.016 0 0
At STD N 00E0FFFF
Ne 12 "PA2_1"
Po -31.75 1.27
$EndPAD
$PAD
Sh "7" C 1.524 1.524 0 0 0
Dr 1.016 0 0
At STD N 00E0FFFF
Ne 14 "PA4_1"
Po -29.21 1.27
$EndPAD
$PAD
Sh "9" C 1.524 1.524 0 0 0
Dr 1.016 0 0
At STD N 00E0FFFF
Ne 16 "PA6_1"
Po -26.67 1.27
$EndPAD
$PAD
Sh "39" C 1.524 1.524 0 0 0
Dr 1.016 0 0
At STD N 00E0FFFF
Ne 0 ""
Po 11.43 1.27
$EndPAD
$PAD
Sh "40" C 1.524 1.524 0 0 0
Dr 1.016 0 0
At STD N 00E0FFFF
Ne 0 ""
Po 11.43 -1.27
$EndPAD
$PAD
Sh "30" C 1.524 1.524 0 0 0
Dr 1.016 0 0
At STD N 00E0FFFF
Ne 1 "GND"
Po -1.27 -1.27
$EndPAD
$PAD
Sh "41" C 1.524 1.524 0 0 0
Dr 1.016 0 0
At STD N 00E0FFFF
Ne 0 ""
Po 13.97 1.27
$EndPAD
$PAD
Sh "42" C 1.524 1.524 0 0 0
Dr 1.016 0 0
At STD N 00E0FFFF
Ne 0 ""
Po 13.97 -1.27
$EndPAD
$PAD
Sh "43" C 1.524 1.524 0 0 0
Dr 1.016 0 0
At STD N 00E0FFFF
Ne 0 ""
Po 16.51 1.27
$EndPAD
$PAD
Sh "44" C 1.524 1.524 0 0 0
Dr 1.016 0 0
At STD N 00E0FFFF
Ne 0 ""
Po 16.51 -1.27
$EndPAD
$PAD
Sh "45" C 1.524 1.524 0 0 0
Dr 1.016 0 0
At STD N 00E0FFFF
Ne 0 ""
Po 19.05 1.27
$EndPAD
$PAD
Sh "46" C 1.524 1.524 0 0 0
Dr 1.016 0 0
At STD N 00E0FFFF
Ne 0 ""
Po 19.05 -1.27
$EndPAD
$PAD
Sh "47" C 1.524 1.524 0 0 0
Dr 1.016 0 0
At STD N 00E0FFFF
Ne 0 ""
Po 21.59 1.27
$EndPAD
$PAD
Sh "48" C 1.524 1.524 0 0 0
Dr 1.016 0 0
At STD N 00E0FFFF
Ne 0 ""
Po 21.59 -1.27
$EndPAD
$PAD
Sh "49" C 1.524 1.524 0 0 0
Dr 1.016 0 0
At STD N 00E0FFFF
Ne 0 ""
Po 24.13 1.27
$EndPAD
$PAD
Sh "50" C 1.524 1.524 0 0 0
Dr 1.016 0 0
At STD N 00E0FFFF
Ne 0 ""
Po 24.13 -1.27
$EndPAD
$SHAPE3D
Na "pin_array/pins_array_30x2.wrl"
Sc 1 1 1
Of 0 0 0
Ro 0 0 0
$EndSHAPE3D
$EndMODULE PIN_ARRAY_30X2
$EndLIBRARY
