(module PQFP160 (layer F.Cu)
  (at 0 0)
  (descr "Module CMS Pqfp 160 pins")
  (tags "CMS PQFP")
  (path /547F14FF)
  (attr smd)
  (fp_text reference U104 (at -9.37514 -18.97634) (layer F.SilkS)
    (effects (font (size 2.032 1.524) (thickness 0.3048)))
  )
  (fp_text value TVGA9000I (at 0 2.54) (layer F.SilkS)
    (effects (font (size 2.032 1.524) (thickness 0.3048)))
  )
  (fp_text user 1 (at 13.589 -15.494) (layer F.SilkS)
    (effects (font (size 1.524 1.016) (thickness 0.3048)))
  )
  (fp_line (start 12.827 -13.97) (end 14.097 -12.7) (layer F.SilkS) (width 0.3048))
  (fp_line (start -14.0462 14.1732) (end 14.097 14.1732) (layer F.SilkS) (width 0.3048))
  (fp_line (start 12.827 -13.97) (end -14.0462 -13.97) (layer F.SilkS) (width 0.3048))
  (fp_line (start -14.0462 -13.97) (end -14.0462 14.1732) (layer F.SilkS) (width 0.3048))
  (fp_line (start 14.097 14.1732) (end 14.097 -12.7) (layer F.SilkS) (width 0.3048))
  (fp_circle (center 12.192 -12.065) (end 12.192 -11.303) (layer F.SilkS) (width 0.3048))
  (pad 1 smd rect (at 12.7 -15.494) (size 0.381 3.81)
    (layers F.Cu F.Paste F.Mask)
  )
  (pad 2 smd rect (at 12.065 -15.494) (size 0.381 3.81)
    (layers F.Cu F.Paste F.Mask)
  )
  (pad 3 smd rect (at 11.4046 -15.494) (size 0.381 3.81)
    (layers F.Cu F.Paste F.Mask)
  )
  (pad 4 smd rect (at 10.7696 -15.494) (size 0.381 3.81)
    (layers F.Cu F.Paste F.Mask)
  )
  (pad 5 smd rect (at 10.1092 -15.494) (size 0.381 3.81)
    (layers F.Cu F.Paste F.Mask)
  )
  (pad 6 smd rect (at 9.4488 -15.494) (size 0.381 3.81)
    (layers F.Cu F.Paste F.Mask)
  )
  (pad 7 smd rect (at 8.8138 -15.494) (size 0.381 3.81)
    (layers F.Cu F.Paste F.Mask)
  )
  (pad 8 smd rect (at 8.1534 -15.494) (size 0.381 3.81)
    (layers F.Cu F.Paste F.Mask)
  )
  (pad 9 smd rect (at 7.5184 -15.494) (size 0.381 3.81)
    (layers F.Cu F.Paste F.Mask)
  )
  (pad 10 smd rect (at 6.858 -15.494) (size 0.381 3.81)
    (layers F.Cu F.Paste F.Mask)
  )
  (pad 11 smd rect (at 6.1976 -15.494) (size 0.381 3.81)
    (layers F.Cu F.Paste F.Mask)
  )
  (pad 12 smd rect (at 5.5626 -15.494) (size 0.381 3.81)
    (layers F.Cu F.Paste F.Mask)
  )
  (pad 13 smd rect (at 4.9022 -15.494) (size 0.381 3.81)
    (layers F.Cu F.Paste F.Mask)
  )
  (pad 14 smd rect (at 4.2672 -15.494) (size 0.381 3.81)
    (layers F.Cu F.Paste F.Mask)
  )
  (pad 15 smd rect (at 3.6068 -15.494) (size 0.381 3.81)
    (layers F.Cu F.Paste F.Mask)
  )
  (pad 16 smd rect (at 2.9464 -15.494) (size 0.381 3.81)
    (layers F.Cu F.Paste F.Mask)
  )
  (pad 17 smd rect (at 2.3114 -15.494) (size 0.381 3.81)
    (layers F.Cu F.Paste F.Mask)
  )
  (pad 18 smd rect (at 1.651 -15.494) (size 0.381 3.81)
    (layers F.Cu F.Paste F.Mask)
  )
  (pad 19 smd rect (at 1.016 -15.494) (size 0.381 3.81)
    (layers F.Cu F.Paste F.Mask)
  )
  (pad 20 smd rect (at 0.3556 -15.494) (size 0.381 3.81)
    (layers F.Cu F.Paste F.Mask)
  )
  (pad 21 smd rect (at -0.3048 -15.494) (size 0.381 3.81)
    (layers F.Cu F.Paste F.Mask)
  )
  (pad 22 smd rect (at -0.9398 -15.494) (size 0.381 3.81)
    (layers F.Cu F.Paste F.Mask)
  )
  (pad 23 smd rect (at -1.6002 -15.494) (size 0.381 3.81)
    (layers F.Cu F.Paste F.Mask)
  )
  (pad 24 smd rect (at -2.2352 -15.494) (size 0.381 3.81)
    (layers F.Cu F.Paste F.Mask)
  )
  (pad 25 smd rect (at -2.8956 -15.494) (size 0.381 3.81)
    (layers F.Cu F.Paste F.Mask)
  )
  (pad 26 smd rect (at -3.556 -15.494) (size 0.381 3.81)
    (layers F.Cu F.Paste F.Mask)
  )
  (pad 27 smd rect (at -4.191 -15.494) (size 0.381 3.81)
    (layers F.Cu F.Paste F.Mask)
  )
  (pad 28 smd rect (at -4.8514 -15.494) (size 0.381 3.81)
    (layers F.Cu F.Paste F.Mask)
  )
  (pad 29 smd rect (at -5.4864 -15.494) (size 0.381 3.81)
    (layers F.Cu F.Paste F.Mask)
  )
  (pad 30 smd rect (at -6.1468 -15.494) (size 0.381 3.81)
    (layers F.Cu F.Paste F.Mask)
  )
  (pad 31 smd rect (at -6.8072 -15.494) (size 0.381 3.81)
    (layers F.Cu F.Paste F.Mask)
  )
  (pad 32 smd rect (at -7.4422 -15.494) (size 0.381 3.81)
    (layers F.Cu F.Paste F.Mask)
  )
  (pad 33 smd rect (at -8.1026 -15.494) (size 0.381 3.81)
    (layers F.Cu F.Paste F.Mask)
  )
  (pad 34 smd rect (at -8.7376 -15.494) (size 0.381 3.81)
    (layers F.Cu F.Paste F.Mask)
  )
  (pad 35 smd rect (at -9.398 -15.494) (size 0.381 3.81)
    (layers F.Cu F.Paste F.Mask)
  )
  (pad 36 smd rect (at -10.0584 -15.494) (size 0.381 3.81)
    (layers F.Cu F.Paste F.Mask)
  )
  (pad 37 smd rect (at -10.6934 -15.494) (size 0.381 3.81)
    (layers F.Cu F.Paste F.Mask)
  )
  (pad 38 smd rect (at -11.3538 -15.494) (size 0.381 3.81)
    (layers F.Cu F.Paste F.Mask)
  )
  (pad 39 smd rect (at -11.9888 -15.494) (size 0.381 3.81)
    (layers F.Cu F.Paste F.Mask)
  )
  (pad 40 smd rect (at -12.6492 -15.494) (size 0.381 3.81)
    (layers F.Cu F.Paste F.Mask)
  )
  (pad 41 smd rect (at -15.5702 -12.573) (size 3.81 0.381)
    (layers F.Cu F.Paste F.Mask)
  )
  (pad 42 smd rect (at -15.5702 -11.938) (size 3.81 0.381)
    (layers F.Cu F.Paste F.Mask)
  )
  (pad 43 smd rect (at -15.5702 -11.2776) (size 3.81 0.381)
    (layers F.Cu F.Paste F.Mask)
  )
  (pad 44 smd rect (at -15.5702 -10.6426) (size 3.81 0.381)
    (layers F.Cu F.Paste F.Mask)
  )
  (pad 45 smd rect (at -15.5702 -9.9822) (size 3.81 0.381)
    (layers F.Cu F.Paste F.Mask)
  )
  (pad 46 smd rect (at -15.5702 -9.3218) (size 3.81 0.381)
    (layers F.Cu F.Paste F.Mask)
  )
  (pad 47 smd rect (at -15.5702 -8.6868) (size 3.81 0.381)
    (layers F.Cu F.Paste F.Mask)
  )
  (pad 48 smd rect (at -15.5702 -8.0264) (size 3.81 0.381)
    (layers F.Cu F.Paste F.Mask)
  )
  (pad 49 smd rect (at -15.5702 -7.3914) (size 3.81 0.381)
    (layers F.Cu F.Paste F.Mask)
  )
  (pad 50 smd rect (at -15.5702 -6.731) (size 3.81 0.381)
    (layers F.Cu F.Paste F.Mask)
  )
  (pad 51 smd rect (at -15.5702 -6.0706) (size 3.81 0.381)
    (layers F.Cu F.Paste F.Mask)
  )
  (pad 52 smd rect (at -15.5702 -5.4356) (size 3.81 0.381)
    (layers F.Cu F.Paste F.Mask)
  )
  (pad 53 smd rect (at -15.5702 -4.7752) (size 3.81 0.381)
    (layers F.Cu F.Paste F.Mask)
  )
  (pad 54 smd rect (at -15.5702 -4.1402) (size 3.81 0.381)
    (layers F.Cu F.Paste F.Mask)
  )
  (pad 55 smd rect (at -15.5702 -3.4798) (size 3.81 0.381)
    (layers F.Cu F.Paste F.Mask)
  )
  (pad 56 smd rect (at -15.5702 -2.8194) (size 3.81 0.381)
    (layers F.Cu F.Paste F.Mask)
  )
  (pad 57 smd rect (at -15.5702 -2.1844) (size 3.81 0.381)
    (layers F.Cu F.Paste F.Mask)
  )
  (pad 58 smd rect (at -15.5702 -1.524) (size 3.81 0.381)
    (layers F.Cu F.Paste F.Mask)
  )
  (pad 59 smd rect (at -15.5702 -0.889) (size 3.81 0.381)
    (layers F.Cu F.Paste F.Mask)
  )
  (pad 60 smd rect (at -15.5702 -0.2286) (size 3.81 0.381)
    (layers F.Cu F.Paste F.Mask)
  )
  (pad 61 smd rect (at -15.5702 0.4318) (size 3.81 0.381)
    (layers F.Cu F.Paste F.Mask)
  )
  (pad 62 smd rect (at -15.5702 1.0668) (size 3.81 0.381)
    (layers F.Cu F.Paste F.Mask)
  )
  (pad 63 smd rect (at -15.5702 1.7272) (size 3.81 0.381)
    (layers F.Cu F.Paste F.Mask)
  )
  (pad 64 smd rect (at -15.5702 2.3622) (size 3.81 0.381)
    (layers F.Cu F.Paste F.Mask)
  )
  (pad 65 smd rect (at -15.5702 3.0226) (size 3.81 0.381)
    (layers F.Cu F.Paste F.Mask)
  )
  (pad 66 smd rect (at -15.5702 3.683) (size 3.81 0.381)
    (layers F.Cu F.Paste F.Mask)
  )
  (pad 67 smd rect (at -15.5702 4.318) (size 3.81 0.381)
    (layers F.Cu F.Paste F.Mask)
  )
  (pad 68 smd rect (at -15.5702 4.9784) (size 3.81 0.381)
    (layers F.Cu F.Paste F.Mask)
  )
  (pad 69 smd rect (at -15.5702 5.6134) (size 3.81 0.381)
    (layers F.Cu F.Paste F.Mask)
  )
  (pad 70 smd rect (at -15.5702 6.2738) (size 3.81 0.381)
    (layers F.Cu F.Paste F.Mask)
  )
  (pad 71 smd rect (at -15.5702 6.9342) (size 3.81 0.381)
    (layers F.Cu F.Paste F.Mask)
  )
  (pad 72 smd rect (at -15.5702 7.5692) (size 3.81 0.381)
    (layers F.Cu F.Paste F.Mask)
  )
  (pad 73 smd rect (at -15.5702 8.2296) (size 3.81 0.381)
    (layers F.Cu F.Paste F.Mask)
  )
  (pad 74 smd rect (at -15.5702 8.8646) (size 3.81 0.381)
    (layers F.Cu F.Paste F.Mask)
  )
  (pad 75 smd rect (at -15.5702 9.525) (size 3.81 0.381)
    (layers F.Cu F.Paste F.Mask)
  )
  (pad 76 smd rect (at -15.5702 10.1854) (size 3.81 0.381)
    (layers F.Cu F.Paste F.Mask)
  )
  (pad 77 smd rect (at -15.5702 10.8204) (size 3.81 0.381)
    (layers F.Cu F.Paste F.Mask)
  )
  (pad 78 smd rect (at -15.5702 11.4808) (size 3.81 0.381)
    (layers F.Cu F.Paste F.Mask)
  )
  (pad 79 smd rect (at -15.5702 12.1158) (size 3.81 0.381)
    (layers F.Cu F.Paste F.Mask)
  )
  (pad 80 smd rect (at -15.5702 12.7762) (size 3.81 0.381)
    (layers F.Cu F.Paste F.Mask)
  )
  (pad 121 smd rect (at 15.621 12.7762) (size 3.81 0.381)
    (layers F.Cu F.Paste F.Mask)
  )
  (pad 122 smd rect (at 15.621 12.1158) (size 3.81 0.381)
    (layers F.Cu F.Paste F.Mask)
  )
  (pad 123 smd rect (at 15.621 11.4808) (size 3.81 0.381)
    (layers F.Cu F.Paste F.Mask)
  )
  (pad 124 smd rect (at 15.621 10.8204) (size 3.81 0.381)
    (layers F.Cu F.Paste F.Mask)
  )
  (pad 125 smd rect (at 15.621 10.1854) (size 3.81 0.381)
    (layers F.Cu F.Paste F.Mask)
  )
  (pad 126 smd rect (at 15.621 9.525) (size 3.81 0.381)
    (layers F.Cu F.Paste F.Mask)
  )
  (pad 127 smd rect (at 15.621 8.8646) (size 3.81 0.381)
    (layers F.Cu F.Paste F.Mask)
  )
  (pad 128 smd rect (at 15.621 8.2296) (size 3.81 0.381)
    (layers F.Cu F.Paste F.Mask)
  )
  (pad 129 smd rect (at 15.621 7.5692) (size 3.81 0.381)
    (layers F.Cu F.Paste F.Mask)
  )
  (pad 130 smd rect (at 15.621 6.9342) (size 3.81 0.381)
    (layers F.Cu F.Paste F.Mask)
  )
  (pad 131 smd rect (at 15.621 6.2738) (size 3.81 0.381)
    (layers F.Cu F.Paste F.Mask)
  )
  (pad 132 smd rect (at 15.621 5.6134) (size 3.81 0.381)
    (layers F.Cu F.Paste F.Mask)
  )
  (pad 133 smd rect (at 15.621 4.9784) (size 3.81 0.381)
    (layers F.Cu F.Paste F.Mask)
  )
  (pad 134 smd rect (at 15.621 4.318) (size 3.81 0.381)
    (layers F.Cu F.Paste F.Mask)
  )
  (pad 135 smd rect (at 15.621 3.683) (size 3.81 0.381)
    (layers F.Cu F.Paste F.Mask)
  )
  (pad 136 smd rect (at 15.621 3.0226) (size 3.81 0.381)
    (layers F.Cu F.Paste F.Mask)
  )
  (pad 137 smd rect (at 15.621 2.3622) (size 3.81 0.381)
    (layers F.Cu F.Paste F.Mask)
  )
  (pad 138 smd rect (at 15.621 1.7272) (size 3.81 0.381)
    (layers F.Cu F.Paste F.Mask)
  )
  (pad 139 smd rect (at 15.621 1.0668) (size 3.81 0.381)
    (layers F.Cu F.Paste F.Mask)
  )
  (pad 140 smd rect (at 15.621 0.4318) (size 3.81 0.381)
    (layers F.Cu F.Paste F.Mask)
  )
  (pad 141 smd rect (at 15.621 -0.2286) (size 3.81 0.381)
    (layers F.Cu F.Paste F.Mask)
  )
  (pad 142 smd rect (at 15.621 -0.889) (size 3.81 0.381)
    (layers F.Cu F.Paste F.Mask)
  )
  (pad 143 smd rect (at 15.621 -1.524) (size 3.81 0.381)
    (layers F.Cu F.Paste F.Mask)
  )
  (pad 144 smd rect (at 15.621 -2.1844) (size 3.81 0.381)
    (layers F.Cu F.Paste F.Mask)
  )
  (pad 145 smd rect (at 15.621 -2.8194) (size 3.81 0.381)
    (layers F.Cu F.Paste F.Mask)
  )
  (pad 146 smd rect (at 15.621 -3.4798) (size 3.81 0.381)
    (layers F.Cu F.Paste F.Mask)
  )
  (pad 147 smd rect (at 15.621 -4.1402) (size 3.81 0.381)
    (layers F.Cu F.Paste F.Mask)
  )
  (pad 148 smd rect (at 15.621 -4.7752) (size 3.81 0.381)
    (layers F.Cu F.Paste F.Mask)
  )
  (pad 149 smd rect (at 15.621 -5.4356) (size 3.81 0.381)
    (layers F.Cu F.Paste F.Mask)
  )
  (pad 150 smd rect (at 15.621 -6.0706) (size 3.81 0.381)
    (layers F.Cu F.Paste F.Mask)
  )
  (pad 151 smd rect (at 15.621 -6.731) (size 3.81 0.381)
    (layers F.Cu F.Paste F.Mask)
  )
  (pad 152 smd rect (at 15.621 -7.3914) (size 3.81 0.381)
    (layers F.Cu F.Paste F.Mask)
  )
  (pad 153 smd rect (at 15.621 -8.0264) (size 3.81 0.381)
    (layers F.Cu F.Paste F.Mask)
  )
  (pad 154 smd rect (at 15.621 -8.6868) (size 3.81 0.381)
    (layers F.Cu F.Paste F.Mask)
  )
  (pad 155 smd rect (at 15.621 -9.3218) (size 3.81 0.381)
    (layers F.Cu F.Paste F.Mask)
  )
  (pad 156 smd rect (at 15.621 -9.9822) (size 3.81 0.381)
    (layers F.Cu F.Paste F.Mask)
  )
  (pad 157 smd rect (at 15.621 -10.6426) (size 3.81 0.381)
    (layers F.Cu F.Paste F.Mask)
  )
  (pad 158 smd rect (at 15.621 -11.2776) (size 3.81 0.381)
    (layers F.Cu F.Paste F.Mask)
  )
  (pad 159 smd rect (at 15.621 -11.938) (size 3.81 0.381)
    (layers F.Cu F.Paste F.Mask)
  )
  (pad 160 smd rect (at 15.621 -12.573) (size 3.81 0.381)
    (layers F.Cu F.Paste F.Mask)
  )
  (pad 81 smd rect (at -12.6492 15.6972) (size 0.381 3.81)
    (layers F.Cu F.Paste F.Mask)
  )
  (pad 82 smd rect (at -11.9888 15.6972) (size 0.381 3.81)
    (layers F.Cu F.Paste F.Mask)
  )
  (pad 83 smd rect (at -11.3538 15.6972) (size 0.381 3.81)
    (layers F.Cu F.Paste F.Mask)
  )
  (pad 84 smd rect (at -10.6934 15.6972) (size 0.381 3.81)
    (layers F.Cu F.Paste F.Mask)
  )
  (pad 85 smd rect (at -10.0584 15.6972) (size 0.381 3.81)
    (layers F.Cu F.Paste F.Mask)
  )
  (pad 86 smd rect (at -9.398 15.6972) (size 0.381 3.81)
    (layers F.Cu F.Paste F.Mask)
  )
  (pad 87 smd rect (at -8.7376 15.6972) (size 0.381 3.81)
    (layers F.Cu F.Paste F.Mask)
  )
  (pad 88 smd rect (at -8.1026 15.6972) (size 0.381 3.81)
    (layers F.Cu F.Paste F.Mask)
  )
  (pad 89 smd rect (at -7.4422 15.6972) (size 0.381 3.81)
    (layers F.Cu F.Paste F.Mask)
  )
  (pad 90 smd rect (at -6.8072 15.6972) (size 0.381 3.81)
    (layers F.Cu F.Paste F.Mask)
  )
  (pad 91 smd rect (at -6.1468 15.6972) (size 0.381 3.81)
    (layers F.Cu F.Paste F.Mask)
  )
  (pad 92 smd rect (at -5.4864 15.6972) (size 0.381 3.81)
    (layers F.Cu F.Paste F.Mask)
  )
  (pad 93 smd rect (at -4.8514 15.6972) (size 0.381 3.81)
    (layers F.Cu F.Paste F.Mask)
  )
  (pad 94 smd rect (at -4.191 15.6972) (size 0.381 3.81)
    (layers F.Cu F.Paste F.Mask)
  )
  (pad 95 smd rect (at -3.556 15.6972) (size 0.381 3.81)
    (layers F.Cu F.Paste F.Mask)
  )
  (pad 96 smd rect (at -2.8956 15.6972) (size 0.381 3.81)
    (layers F.Cu F.Paste F.Mask)
  )
  (pad 97 smd rect (at -2.2352 15.6972) (size 0.381 3.81)
    (layers F.Cu F.Paste F.Mask)
  )
  (pad 98 smd rect (at -1.6002 15.6972) (size 0.381 3.81)
    (layers F.Cu F.Paste F.Mask)
  )
  (pad 99 smd rect (at -0.9398 15.6972) (size 0.381 3.81)
    (layers F.Cu F.Paste F.Mask)
  )
  (pad 100 smd rect (at -0.3048 15.6972) (size 0.381 3.81)
    (layers F.Cu F.Paste F.Mask)
  )
  (pad 101 smd rect (at 0.3556 15.6972) (size 0.381 3.81)
    (layers F.Cu F.Paste F.Mask)
  )
  (pad 102 smd rect (at 1.016 15.6972) (size 0.381 3.81)
    (layers F.Cu F.Paste F.Mask)
  )
  (pad 103 smd rect (at 1.651 15.6972) (size 0.381 3.81)
    (layers F.Cu F.Paste F.Mask)
  )
  (pad 104 smd rect (at 2.3114 15.6972) (size 0.381 3.81)
    (layers F.Cu F.Paste F.Mask)
  )
  (pad 105 smd rect (at 2.9464 15.6972) (size 0.381 3.81)
    (layers F.Cu F.Paste F.Mask)
  )
  (pad 106 smd rect (at 3.6068 15.6972) (size 0.381 3.81)
    (layers F.Cu F.Paste F.Mask)
  )
  (pad 107 smd rect (at 4.2672 15.6972) (size 0.381 3.81)
    (layers F.Cu F.Paste F.Mask)
  )
  (pad 108 smd rect (at 4.9022 15.6972) (size 0.381 3.81)
    (layers F.Cu F.Paste F.Mask)
  )
  (pad 109 smd rect (at 5.5626 15.6972) (size 0.381 3.81)
    (layers F.Cu F.Paste F.Mask)
  )
  (pad 110 smd rect (at 6.1976 15.6972) (size 0.381 3.81)
    (layers F.Cu F.Paste F.Mask)
  )
  (pad 111 smd rect (at 6.858 15.6972) (size 0.381 3.81)
    (layers F.Cu F.Paste F.Mask)
  )
  (pad 112 smd rect (at 7.5184 15.6972) (size 0.381 3.81)
    (layers F.Cu F.Paste F.Mask)
  )
  (pad 113 smd rect (at 8.1534 15.6972) (size 0.381 3.81)
    (layers F.Cu F.Paste F.Mask)
  )
  (pad 114 smd rect (at 8.8138 15.6972) (size 0.381 3.81)
    (layers F.Cu F.Paste F.Mask)
  )
  (pad 115 smd rect (at 9.4488 15.6972) (size 0.381 3.81)
    (layers F.Cu F.Paste F.Mask)
  )
  (pad 116 smd rect (at 10.1092 15.6972) (size 0.381 3.81)
    (layers F.Cu F.Paste F.Mask)
  )
  (pad 117 smd rect (at 10.7696 15.6972) (size 0.381 3.81)
    (layers F.Cu F.Paste F.Mask)
  )
  (pad 118 smd rect (at 11.4046 15.6972) (size 0.381 3.81)
    (layers F.Cu F.Paste F.Mask)
  )
  (pad 119 smd rect (at 12.065 15.6972) (size 0.381 3.81)
    (layers F.Cu F.Paste F.Mask)
  )
  (pad 120 smd rect (at 12.7 15.6972) (size 0.381 3.81)
    (layers F.Cu F.Paste F.Mask)
  )
  (model smd/pqfp160.wrl
    (at (xyz 0 0 0))
    (scale (xyz 0.512 0.512 0.5))
    (rotate (xyz 0 0 0))
  )
)
