PCBNEW-LibModule-V1  08/12/2016 18:38:13
# encoding utf-8
Units mm
$INDEX
SW_PUSH_SMALL
$EndINDEX
$MODULE SW_PUSH_SMALL
Po 0 0 0 15 4C13B97F 00000000 ~~
Li SW_PUSH_SMALL
Sc 0
AR /4BCB1BE9
Op 0 0 0
T0 0 -0.762 1.016 1.016 0 0.2032 N V 21 N "SW1"
T1 0 1.016 1.016 1.016 0 0.2032 N V 21 N "SW_PUSH"
DC 0 0 0 -2.54 0.127 21
DS -3.81 -3.81 3.81 -3.81 0.127 21
DS 3.81 -3.81 3.81 3.81 0.127 21
DS 3.81 3.81 -3.81 3.81 0.127 21
DS -3.81 -3.81 -3.81 3.81 0.127 21
$PAD
Sh "1" C 1.524 1.524 0 0 0
Dr 1.016 0 0
At STD N 00E0FFFF
Ne 2 "N-000085"
Po 3.81 -2.54
$EndPAD
$PAD
Sh "2" C 1.524 1.524 0 0 0
Dr 1.016 0 0
At STD N 00E0FFFF
Ne 1 "/RESET*"
Po 3.81 2.54
$EndPAD
$PAD
Sh "1" C 1.524 1.524 0 0 0
Dr 1.016 0 0
At STD N 00E0FFFF
Ne 2 "N-000085"
Po -3.81 -2.54
$EndPAD
$PAD
Sh "2" C 1.524 1.524 0 0 0
Dr 1.016 0 0
At STD N 00E0FFFF
Ne 1 "/RESET*"
Po -3.81 2.54
$EndPAD
$EndMODULE SW_PUSH_SMALL
$EndLIBRARY
