PCBNEW-LibModule-V1  18/08/2017 12:57:24
# encoding utf-8
Units mm
$INDEX
TO92-CBE
$EndINDEX
$MODULE TO92-CBE
Po 0 0 0 15 5997467B 00000000 ~~
Li TO92-CBE
Cd Transistor TO92 brochage type BC237
Kw TR TO92
Sc 0
AR /59974779
Op 0 0 0
T0 0.01016 -4.32816 1.016 1.016 0 0.2032 N V 21 N "Q2"
T1 0.22606 2.01676 0.508 0.508 0 0.127 N V 21 N "TIP30A (NPN)"
T2 -2.40792 0.98044 0.254 0.254 0 0.0635 N V 21 N "B"
T2 -0.08636 1.02616 0.254 0.254 0 0.0635 N V 21 N "C"
T2 2.22758 1.03632 0.254 0.254 0 0.0635 N V 21 N "E"
DS 2.41808 -3.048 2.4257 -2.6416 0.381 21
DS -0.05842 -3.07594 -0.06858 -2.52476 0.381 21
DS -2.34442 -2.96672 -2.33426 -2.5146 0.381 21
DS -3.86334 -2.34442 -3.88112 0.37592 0.381 21
DS -3.88112 0.37592 4.07162 0.37592 0.381 21
DS 4.07162 0.37592 4.05384 -2.48666 0.381 21
DS 4.05384 -2.48666 -3.86334 -2.47904 0.381 21
$PAD
Sh "E" R 1.397 1.397 0 0 0
Dr 0.8128 0 0
At STD N 00E0FFFF
Ne 3 "VCC"
Po 2.30886 -0.87884
$EndPAD
$PAD
Sh "B" C 1.397 1.397 0 0 0
Dr 0.8128 0 0
At STD N 00E0FFFF
Ne 2 "N-00000222"
Po -2.25298 -0.79756
$EndPAD
$PAD
Sh "C" C 1.397 1.397 0 0 0
Dr 0.8128 0 0
At STD N 00E0FFFF
Ne 1 "/CPU_VCC"
Po -0.05842 -0.8255
$EndPAD
$SHAPE3D
Na "discret/to98.wrl"
Sc 1 1 1
Of 0 0 0
Ro 0 0 0
$EndSHAPE3D
$EndMODULE TO92-CBE
$EndLIBRARY
