Drill report for C:/Documents and Settings/Sysop/Desktop/S100 Backplane V4/S100-Backplane.brd
Created on 5/2/2015 8:59:22 PM
Drill report for plated through holes :
T1  0.81mm  0.032"  (89 holes)
T2  1.02mm  0.040"  (1119 holes)
T3  1.14mm  0.045"  (9 holes)
T4  1.52mm  0.060"  (6 holes)
T5  1.65mm  0.065"  (6 holes)
T6  3.05mm  0.120"  (3 holes)
T7  3.51mm  0.138"  (30 holes)

Total plated holes count 1262


Drill report for unplated through holes :

Total unplated holes count 0


