PCBNEW-LibModule-V1  25/03/2018 00:41:50
# encoding utf-8
Units mm
$INDEX
TQFP_100
$EndINDEX
$MODULE TQFP_100
Po 0 0 0 15 5AB75263 00000000 ~~
Li TQFP_100
Cd Module SMD TQFP 100 Pins
Kw CMS TQFP
Sc 0
AR /5AB3B5AD
Op 0 0 0
At SMD
T0 -7.8105 -9.9822 1.524 1.016 0 0.2032 N V 21 N "U4"
T1 0.1016 10.7315 1.524 1.016 0 0.2032 N V 21 N "ATMEGA_2560"
DC 6.096 -6.477 6.096 -6.985 0.2032 21
DS 6.985 -6.35 6.35 -6.985 0.2032 21
DS -6.985 -6.731 -6.731 -6.985 0.2032 21
DS -6.985 6.731 -6.731 6.985 0.2032 21
DS 6.731 6.985 6.985 6.731 0.2032 21
DS 6.35 -6.985 -6.731 -6.985 0.2032 21
DS -6.985 -6.731 -6.985 6.731 0.2032 21
DS -6.731 6.985 6.731 6.985 0.2032 21
DS 6.985 6.731 6.985 -6.35 0.2032 21
$PAD
Sh "100" R 2.286 0.254 0 0 0
Dr 0 0 0
At SMD N 00888000
Ne 90 "N-00000187"
Po 7.747 -5.9944
$EndPAD
$PAD
Sh "76" R 2.286 0.254 0 0 0
Dr 0 0 0
At SMD N 00888000
Ne 15 "/PA2"
Po 7.747 5.9944
$EndPAD
$PAD
Sh "77" R 2.286 0.254 0 0 0
Dr 0 0 0
At SMD N 00888000
Ne 14 "/PA1"
Po 7.747 5.4864
$EndPAD
$PAD
Sh "78" R 2.286 0.254 0 0 0
Dr 0 0 0
At SMD N 00888000
Ne 13 "/PA0"
Po 7.747 5.0038
$EndPAD
$PAD
Sh "79" R 2.286 0.254 0 0 0
Dr 0 0 0
At SMD N 00888000
Ne 10 "/JP7"
Po 7.747 4.4958
$EndPAD
$PAD
Sh "80" R 2.286 0.254 0 0 0
Dr 0 0 0
At SMD N 00888000
Ne 0 ""
Po 7.747 3.9878
$EndPAD
$PAD
Sh "81" R 2.286 0.254 0 0 0
Dr 0 0 0
At SMD N 00888000
Ne 81 "GND"
Po 7.747 3.5052
$EndPAD
$PAD
Sh "82" R 2.286 0.254 0 0 0
Dr 0 0 0
At SMD N 00888000
Ne 70 "/PK7"
Po 7.747 2.9972
$EndPAD
$PAD
Sh "83" R 2.286 0.254 0 0 0
Dr 0 0 0
At SMD N 00888000
Ne 69 "/PK6"
Po 7.747 2.4892
$EndPAD
$PAD
Sh "84" R 2.286 0.254 0 0 0
Dr 0 0 0
At SMD N 00888000
Ne 68 "/PK5"
Po 7.747 2.0066
$EndPAD
$PAD
Sh "85" R 2.286 0.254 0 0 0
Dr 0 0 0
At SMD N 00888000
Ne 67 "/PK4"
Po 7.747 1.4986
$EndPAD
$PAD
Sh "86" R 2.286 0.254 0 0 0
Dr 0 0 0
At SMD N 00888000
Ne 66 "/PK3"
Po 7.747 0.9906
$EndPAD
$PAD
Sh "87" R 2.286 0.254 0 0 0
Dr 0 0 0
At SMD N 00888000
Ne 65 "/PK2"
Po 7.747 0.4826
$EndPAD
$PAD
Sh "88" R 2.286 0.254 0 0 0
Dr 0 0 0
At SMD N 00888000
Ne 64 "/PK1"
Po 7.747 0
$EndPAD
$PAD
Sh "89" R 2.286 0.254 0 0 0
Dr 0 0 0
At SMD N 00888000
Ne 63 "/PK0"
Po 7.747 -0.508
$EndPAD
$PAD
Sh "90" R 2.286 0.254 0 0 0
Dr 0 0 0
At SMD N 00888000
Ne 52 "/PF7"
Po 7.747 -1.016
$EndPAD
$PAD
Sh "91" R 2.286 0.254 0 0 0
Dr 0 0 0
At SMD N 00888000
Ne 51 "/PF6"
Po 7.747 -1.4986
$EndPAD
$PAD
Sh "92" R 2.286 0.254 0 0 0
Dr 0 0 0
At SMD N 00888000
Ne 50 "/PF5"
Po 7.747 -2.0066
$EndPAD
$PAD
Sh "93" R 2.286 0.254 0 0 0
Dr 0 0 0
At SMD N 00888000
Ne 49 "/PF4"
Po 7.747 -2.5146
$EndPAD
$PAD
Sh "94" R 2.286 0.254 0 0 0
Dr 0 0 0
At SMD N 00888000
Ne 48 "/PF3"
Po 7.747 -2.9972
$EndPAD
$PAD
Sh "95" R 2.286 0.254 0 0 0
Dr 0 0 0
At SMD N 00888000
Ne 47 "/PF2"
Po 7.747 -3.5052
$EndPAD
$PAD
Sh "96" R 2.286 0.254 0 0 0
Dr 0 0 0
At SMD N 00888000
Ne 46 "/PF1"
Po 7.747 -4.0132
$EndPAD
$PAD
Sh "97" R 2.286 0.254 0 0 0
Dr 0 0 0
At SMD N 00888000
Ne 45 "/PF0"
Po 7.747 -4.4958
$EndPAD
$PAD
Sh "98" R 2.286 0.254 0 0 0
Dr 0 0 0
At SMD N 00888000
Ne 1 "/AREF"
Po 7.747 -5.0038
$EndPAD
$PAD
Sh "99" R 2.286 0.254 0 0 0
Dr 0 0 0
At SMD N 00888000
Ne 81 "GND"
Po 7.747 -5.5118
$EndPAD
$PAD
Sh "75" R 0.254 2.286 0 0 0
Dr 0 0 0
At SMD N 00888000
Ne 16 "/PA3"
Po 5.9944 7.747
$EndPAD
$PAD
Sh "51" R 0.254 2.286 0 0 0
Dr 0 0 0
At SMD N 00888000
Ne 82 "N-00000115"
Po -5.9944 7.747
$EndPAD
$PAD
Sh "52" R 0.254 2.286 0 0 0
Dr 0 0 0
At SMD N 00888000
Ne 88 "N-00000125"
Po -5.4864 7.747
$EndPAD
$PAD
Sh "53" R 0.254 2.286 0 0 0
Dr 0 0 0
At SMD N 00888000
Ne 25 "/PC0"
Po -5.0038 7.747
$EndPAD
$PAD
Sh "54" R 0.254 2.286 0 0 0
Dr 0 0 0
At SMD N 00888000
Ne 26 "/PC1"
Po -4.4958 7.747
$EndPAD
$PAD
Sh "55" R 0.254 2.286 0 0 0
Dr 0 0 0
At SMD N 00888000
Ne 27 "/PC2"
Po -3.9878 7.747
$EndPAD
$PAD
Sh "56" R 0.254 2.286 0 0 0
Dr 0 0 0
At SMD N 00888000
Ne 28 "/PC3"
Po -3.5052 7.747
$EndPAD
$PAD
Sh "57" R 0.254 2.286 0 0 0
Dr 0 0 0
At SMD N 00888000
Ne 29 "/PC4"
Po -2.9972 7.747
$EndPAD
$PAD
Sh "58" R 0.254 2.286 0 0 0
Dr 0 0 0
At SMD N 00888000
Ne 30 "/PC5"
Po -2.4892 7.747
$EndPAD
$PAD
Sh "59" R 0.254 2.286 0 0 0
Dr 0 0 0
At SMD N 00888000
Ne 31 "/PC6"
Po -2.0066 7.747
$EndPAD
$PAD
Sh "60" R 0.254 2.286 0 0 0
Dr 0 0 0
At SMD N 00888000
Ne 32 "/PC7"
Po -1.4986 7.747
$EndPAD
$PAD
Sh "61" R 0.254 2.286 0 0 0
Dr 0 0 0
At SMD N 00888000
Ne 93 "VCC"
Po -0.9906 7.747
$EndPAD
$PAD
Sh "62" R 0.254 2.286 0 0 0
Dr 0 0 0
At SMD N 00888000
Ne 81 "GND"
Po -0.4826 7.747
$EndPAD
$PAD
Sh "63" R 0.254 2.286 0 0 0
Dr 0 0 0
At SMD N 00888000
Ne 3 "/JP0"
Po 0 7.747
$EndPAD
$PAD
Sh "64" R 0.254 2.286 0 0 0
Dr 0 0 0
At SMD N 00888000
Ne 4 "/JP1"
Po 0.508 7.747
$EndPAD
$PAD
Sh "65" R 0.254 2.286 0 0 0
Dr 0 0 0
At SMD N 00888000
Ne 5 "/JP2"
Po 1.016 7.747
$EndPAD
$PAD
Sh "66" R 0.254 2.286 0 0 0
Dr 0 0 0
At SMD N 00888000
Ne 6 "/JP3"
Po 1.4986 7.747
$EndPAD
$PAD
Sh "67" R 0.254 2.286 0 0 0
Dr 0 0 0
At SMD N 00888000
Ne 7 "/JP4"
Po 2.0066 7.747
$EndPAD
$PAD
Sh "68" R 0.254 2.286 0 0 0
Dr 0 0 0
At SMD N 00888000
Ne 8 "/JP5"
Po 2.5146 7.747
$EndPAD
$PAD
Sh "69" R 0.254 2.286 0 0 0
Dr 0 0 0
At SMD N 00888000
Ne 9 "/JP6"
Po 2.9972 7.747
$EndPAD
$PAD
Sh "70" R 0.254 2.286 0 0 0
Dr 0 0 0
At SMD N 00888000
Ne 87 "N-00000124"
Po 3.5052 7.747
$EndPAD
$PAD
Sh "71" R 0.254 2.286 0 0 0
Dr 0 0 0
At SMD N 00888000
Ne 20 "/PA7"
Po 4.0132 7.747
$EndPAD
$PAD
Sh "72" R 0.254 2.286 0 0 0
Dr 0 0 0
At SMD N 00888000
Ne 19 "/PA6"
Po 4.4958 7.747
$EndPAD
$PAD
Sh "73" R 0.254 2.286 0 0 0
Dr 0 0 0
At SMD N 00888000
Ne 18 "/PA5"
Po 5.0038 7.747
$EndPAD
$PAD
Sh "74" R 0.254 2.286 0 0 0
Dr 0 0 0
At SMD N 00888000
Ne 17 "/PA4"
Po 5.5118 7.747
$EndPAD
$PAD
Sh "1" R 0.254 2.286 0 0 0
Dr 0 0 0
At SMD N 00888000
Ne 54 "/PG6"
Po 5.9944 -7.747
$EndPAD
$PAD
Sh "2" R 0.254 2.286 0 0 0
Dr 0 0 0
At SMD N 00888000
Ne 41 "/PE0"
Po 5.4864 -7.747
$EndPAD
$PAD
Sh "3" R 0.254 2.286 0 0 0
Dr 0 0 0
At SMD N 00888000
Ne 42 "/PE1"
Po 5.0038 -7.747
$EndPAD
$PAD
Sh "4" R 0.254 2.286 0 0 0
Dr 0 0 0
At SMD N 00888000
Ne 86 "N-00000123"
Po 4.4958 -7.747
$EndPAD
$PAD
Sh "5" R 0.254 2.286 0 0 0
Dr 0 0 0
At SMD N 00888000
Ne 83 "N-00000119"
Po 3.9878 -7.747
$EndPAD
$PAD
Sh "6" R 0.254 2.286 0 0 0
Dr 0 0 0
At SMD N 00888000
Ne 43 "/PE3"
Po 3.5052 -7.747
$EndPAD
$PAD
Sh "7" R 0.254 2.286 0 0 0
Dr 0 0 0
At SMD N 00888000
Ne 44 "/PE5"
Po 2.9972 -7.747
$EndPAD
$PAD
Sh "8" R 0.254 2.286 0 0 0
Dr 0 0 0
At SMD N 00888000
Ne 85 "N-00000121"
Po 2.4892 -7.747
$EndPAD
$PAD
Sh "9" R 0.254 2.286 0 0 0
Dr 0 0 0
At SMD N 00888000
Ne 84 "N-00000120"
Po 2.0066 -7.747
$EndPAD
$PAD
Sh "10" R 0.254 2.286 0 0 0
Dr 0 0 0
At SMD N 00888000
Ne 93 "VCC"
Po 1.4986 -7.747
$EndPAD
$PAD
Sh "11" R 0.254 2.286 0 0 0
Dr 0 0 0
At SMD N 00888000
Ne 81 "GND"
Po 0.9906 -7.747
$EndPAD
$PAD
Sh "12" R 0.254 2.286 0 0 0
Dr 0 0 0
At SMD N 00888000
Ne 55 "/PH0"
Po 0.4826 -7.747
$EndPAD
$PAD
Sh "13" R 0.254 2.286 0 0 0
Dr 0 0 0
At SMD N 00888000
Ne 56 "/PH1"
Po 0 -7.747
$EndPAD
$PAD
Sh "14" R 0.254 2.286 0 0 0
Dr 0 0 0
At SMD N 00888000
Ne 57 "/PH2"
Po -0.508 -7.747
$EndPAD
$PAD
Sh "15" R 0.254 2.286 0 0 0
Dr 0 0 0
At SMD N 00888000
Ne 58 "/PH3"
Po -1.016 -7.747
$EndPAD
$PAD
Sh "16" R 0.254 2.286 0 0 0
Dr 0 0 0
At SMD N 00888000
Ne 59 "/PH4"
Po -1.4986 -7.747
$EndPAD
$PAD
Sh "17" R 0.254 2.286 0 0 0
Dr 0 0 0
At SMD N 00888000
Ne 60 "/PH5"
Po -2.0066 -7.747
$EndPAD
$PAD
Sh "18" R 0.254 2.286 0 0 0
Dr 0 0 0
At SMD N 00888000
Ne 61 "/PH6"
Po -2.5146 -7.747
$EndPAD
$PAD
Sh "19" R 0.254 2.286 0 0 0
Dr 0 0 0
At SMD N 00888000
Ne 80 "/SS"
Po -2.9972 -7.747
$EndPAD
$PAD
Sh "20" R 0.254 2.286 0 0 0
Dr 0 0 0
At SMD N 00888000
Ne 79 "/SCK"
Po -3.5052 -7.747
$EndPAD
$PAD
Sh "21" R 0.254 2.286 0 0 0
Dr 0 0 0
At SMD N 00888000
Ne 12 "/MOSI"
Po -4.0132 -7.747
$EndPAD
$PAD
Sh "22" R 0.254 2.286 0 0 0
Dr 0 0 0
At SMD N 00888000
Ne 11 "/MISO"
Po -4.4958 -7.747
$EndPAD
$PAD
Sh "23" R 0.254 2.286 0 0 0
Dr 0 0 0
At SMD N 00888000
Ne 21 "/PB4"
Po -5.0038 -7.747
$EndPAD
$PAD
Sh "24" R 0.254 2.286 0 0 0
Dr 0 0 0
At SMD N 00888000
Ne 22 "/PB5"
Po -5.5118 -7.747
$EndPAD
$PAD
Sh "25" R 0.254 2.286 0 0 0
Dr 0 0 0
At SMD N 00888000
Ne 23 "/PB6"
Po -5.9944 -7.747
$EndPAD
$PAD
Sh "26" R 2.286 0.254 0 0 0
Dr 0 0 0
At SMD N 00888000
Ne 24 "/PB7"
Po -7.747 -5.9944
$EndPAD
$PAD
Sh "27" R 2.286 0.254 0 0 0
Dr 0 0 0
At SMD N 00888000
Ne 62 "/PH7"
Po -7.747 -5.4864
$EndPAD
$PAD
Sh "28" R 2.286 0.254 0 0 0
Dr 0 0 0
At SMD N 00888000
Ne 89 "N-00000129"
Po -7.747 -5.0038
$EndPAD
$PAD
Sh "29" R 2.286 0.254 0 0 0
Dr 0 0 0
At SMD N 00888000
Ne 53 "/PG4"
Po -7.747 -4.4958
$EndPAD
$PAD
Sh "30" R 2.286 0.254 0 0 0
Dr 0 0 0
At SMD N 00888000
Ne 2 "/CPU_RESET*"
Po -7.747 -3.9878
$EndPAD
$PAD
Sh "31" R 2.286 0.254 0 0 0
Dr 0 0 0
At SMD N 00888000
Ne 93 "VCC"
Po -7.747 -3.5052
$EndPAD
$PAD
Sh "32" R 2.286 0.254 0 0 0
Dr 0 0 0
At SMD N 00888000
Ne 81 "GND"
Po -7.747 -2.9972
$EndPAD
$PAD
Sh "33" R 2.286 0.254 0 0 0
Dr 0 0 0
At SMD N 00888000
Ne 91 "N-00000327"
Po -7.747 -2.4892
$EndPAD
$PAD
Sh "34" R 2.286 0.254 0 0 0
Dr 0 0 0
At SMD N 00888000
Ne 92 "N-00000328"
Po -7.747 -2.0066
$EndPAD
$PAD
Sh "35" R 2.286 0.254 0 0 0
Dr 0 0 0
At SMD N 00888000
Ne 71 "/PL0"
Po -7.747 -1.4986
$EndPAD
$PAD
Sh "36" R 2.286 0.254 0 0 0
Dr 0 0 0
At SMD N 00888000
Ne 72 "/PL1"
Po -7.747 -0.9906
$EndPAD
$PAD
Sh "37" R 2.286 0.254 0 0 0
Dr 0 0 0
At SMD N 00888000
Ne 73 "/PL2"
Po -7.747 -0.4826
$EndPAD
$PAD
Sh "38" R 2.286 0.254 0 0 0
Dr 0 0 0
At SMD N 00888000
Ne 74 "/PL3"
Po -7.747 0
$EndPAD
$PAD
Sh "39" R 2.286 0.254 0 0 0
Dr 0 0 0
At SMD N 00888000
Ne 75 "/PL4"
Po -7.747 0.508
$EndPAD
$PAD
Sh "40" R 2.286 0.254 0 0 0
Dr 0 0 0
At SMD N 00888000
Ne 76 "/PL5"
Po -7.747 1.016
$EndPAD
$PAD
Sh "41" R 2.286 0.254 0 0 0
Dr 0 0 0
At SMD N 00888000
Ne 77 "/PL6"
Po -7.747 1.4986
$EndPAD
$PAD
Sh "42" R 2.286 0.254 0 0 0
Dr 0 0 0
At SMD N 00888000
Ne 78 "/PL7"
Po -7.747 2.0066
$EndPAD
$PAD
Sh "43" R 2.286 0.254 0 0 0
Dr 0 0 0
At SMD N 00888000
Ne 33 "/PD0"
Po -7.747 2.5146
$EndPAD
$PAD
Sh "44" R 2.286 0.254 0 0 0
Dr 0 0 0
At SMD N 00888000
Ne 34 "/PD1"
Po -7.747 2.9972
$EndPAD
$PAD
Sh "45" R 2.286 0.254 0 0 0
Dr 0 0 0
At SMD N 00888000
Ne 35 "/PD2"
Po -7.747 3.5052
$EndPAD
$PAD
Sh "46" R 2.286 0.254 0 0 0
Dr 0 0 0
At SMD N 00888000
Ne 36 "/PD3"
Po -7.747 4.0132
$EndPAD
$PAD
Sh "47" R 2.286 0.254 0 0 0
Dr 0 0 0
At SMD N 00888000
Ne 37 "/PD4"
Po -7.747 4.4958
$EndPAD
$PAD
Sh "48" R 2.286 0.254 0 0 0
Dr 0 0 0
At SMD N 00888000
Ne 38 "/PD5"
Po -7.747 5.0038
$EndPAD
$PAD
Sh "49" R 2.286 0.254 0 0 0
Dr 0 0 0
At SMD N 00888000
Ne 39 "/PD6"
Po -7.747 5.5118
$EndPAD
$PAD
Sh "50" R 2.286 0.254 0 0 0
Dr 0 0 0
At SMD N 00888000
Ne 40 "/PD7"
Po -7.747 5.9944
$EndPAD
$SHAPE3D
Na "smd/TQFP_100.wrl"
Sc 0.3937 0.3937 0.3937
Of 0 0 0.001
Ro 0 0 180
$EndSHAPE3D
$EndMODULE TQFP_100
$EndLIBRARY
