PCBNEW-LibModule-V1  23/02/2018 12:01:41
# encoding utf-8
Units mm
$INDEX
LCD_ALPHA
PIN_ARRAY_9X1_NOKEY
$EndINDEX
$MODULE LCD_ALPHA
Po 0 0 0 15 5A907307 00000000 ~~
Li LCD_ALPHA
Cd Connecteur 14 pins
Kw CONN DEV
Sc 0
AR /5A81EBF7
Op 0 0 0
T0 33.02 0.635 1.778 1.778 0 0.3048 N V 21 N "P6"
T1 23.1648 15.07744 1.778 1.778 0 0.3048 N V 21 N "LED_DISPLAY_(16_PINS)"
DS 55.57266 36.26104 57.4167 36.26104 0.381 21
DS 55.79618 -3.8608 57.36082 -3.8608 0.381 21
T2 -3.175 20.955 2.54 2.54 0 0.508 N V 21 N "LINE 2"
T2 -3.175 11.43 2.54 2.54 0 0.508 N V 21 N "LINE 1"
DS -15.24 5.08 45.72 5.08 0.381 21
DS 45.72 5.08 45.72 28.575 0.381 21
DS 45.72 28.575 -15.24 28.575 0.381 21
DS -15.24 28.575 -15.24 5.08 0.381 21
DS -25.4 -3.81 55.88 -3.81 0.381 21
DS 57.50052 -3.86588 57.50052 36.13912 0.381 21
DS 55.88 36.195 -25.4 36.195 0.381 21
DS -25.4 36.195 -25.4 -3.81 0.381 21
$PAD
Sh "1" R 1.651 2.159 0 0 0
Dr 1.016 0 0
At STD N 00E0FFFF
Ne 1 "GND"
Po -16.51 0
$EndPAD
$PAD
Sh "2" O 1.651 2.159 0 0 0
Dr 1.016 0 0
At STD N 00E0FFFF
Ne 14 "VCC"
Po -13.97 0
$EndPAD
$PAD
Sh "3" O 1.651 2.159 0 0 0
Dr 1.016 0 0
At STD N 00E0FFFF
Ne 5 "N-00000418"
Po -11.43 0
$EndPAD
$PAD
Sh "4" O 1.651 2.159 0 0 0
Dr 1.016 0 0
At STD N 00E0FFFF
Ne 4 "N-00000417"
Po -8.89 0
$EndPAD
$PAD
Sh "5" O 1.651 2.159 0 0 0
Dr 1.016 0 0
At STD N 00E0FFFF
Ne 6 "N-00000420"
Po -6.35 0
$EndPAD
$PAD
Sh "6" O 1.651 2.159 0 0 0
Dr 1.016 0 0
At STD N 00E0FFFF
Ne 7 "N-00000421"
Po -3.81 0
$EndPAD
$PAD
Sh "7" O 1.651 2.159 0 0 0
Dr 1.016 0 0
At STD N 00E0FFFF
Ne 8 "N-00000422"
Po -1.27 0
$EndPAD
$PAD
Sh "8" O 1.651 2.159 0 0 0
Dr 1.016 0 0
At STD N 00E0FFFF
Ne 9 "N-00000423"
Po 1.27 0
$EndPAD
$PAD
Sh "9" O 1.651 2.159 0 0 0
Dr 1.016 0 0
At STD N 00E0FFFF
Ne 10 "N-00000424"
Po 3.81 0
$EndPAD
$PAD
Sh "10" O 1.651 2.159 0 0 0
Dr 1.016 0 0
At STD N 00E0FFFF
Ne 11 "N-00000425"
Po 6.35 0
$EndPAD
$PAD
Sh "11" O 1.651 2.159 0 0 0
Dr 1.016 0 0
At STD N 00E0FFFF
Ne 12 "N-00000426"
Po 8.89 0
$EndPAD
$PAD
Sh "12" O 1.651 2.159 0 0 0
Dr 1.016 0 0
At STD N 00E0FFFF
Ne 13 "N-00000427"
Po 11.43 0
$EndPAD
$PAD
Sh "13" O 1.651 2.159 0 0 0
Dr 1.016 0 0
At STD N 00E0FFFF
Ne 3 "N-00000414"
Po 13.97 0
$EndPAD
$PAD
Sh "14" O 1.651 2.159 0 0 0
Dr 1.016 0 0
At STD N 00E0FFFF
Ne 2 "N-00000413"
Po 16.51 0
$EndPAD
$PAD
Sh "" C 5.99948 5.99948 0 0 0
Dr 2.99974 0 0
At STD N 00E0FFFF
Ne 0 ""
Po -21.20646 0.66548
$EndPAD
$PAD
Sh "" C 5.99948 5.99948 0 0 0
Dr 2.99974 0 0
At STD N 00E0FFFF
Ne 0 ""
Po 53.5051 0.55372
$EndPAD
$PAD
Sh "" C 5.99948 5.99948 0 0 0
Dr 2.99974 0 0
At STD N 00E0FFFF
Ne 0 ""
Po -21.0947 30.7848
$EndPAD
$PAD
Sh "" C 5.99948 5.99948 0 0 0
Dr 2.99974 0 0
At STD N 00E0FFFF
Ne 0 ""
Po 53.61686 31.17596
$EndPAD
$PAD
Sh "15" O 1.651 2.159 0 0 0
Dr 1.016 0 0
At STD N 00E0FFFF
Ne 14 "VCC"
Po 19.0119 -0.1016
$EndPAD
$PAD
Sh "16" O 1.651 2.159 0 0 0
Dr 1.016 0 0
At STD N 00E0FFFF
Ne 1 "GND"
Po 21.6027 -0.127
$EndPAD
$EndMODULE LCD_ALPHA
$MODULE PIN_ARRAY_9X1_NOKEY
Po 0 0 0 15 4EF274A8 00000000 ~~
Li PIN_ARRAY_9X1_NOKEY
Cd Double rangee de contacts 2 x 5 pins
Kw CONN
Sc 0
AR 
Op 0 0 0
T0 0 -2.54 1.016 1.016 0 0.2032 N V 21 N "PIN_ARRAY_9X1_NOKEY"
T1 0 2.54 1.016 1.016 0 0.2032 N I 21 N "Val**"
DS -11.43 1.27 11.43 1.27 0.254 21
DS 11.43 -1.27 -11.43 -1.27 0.254 21
DS -11.43 -1.27 -11.43 1.27 0.254 21
DS 11.43 1.27 11.43 -1.27 0.254 21
$PAD
Sh "1" O 1.524 1.524 0 0 0
Dr 1.016 0 0
At STD N 00E0FFFF
Ne 0 ""
Po -10.16 0
$EndPAD
$PAD
Sh "2" C 1.524 1.524 0 0 0
Dr 1.016 0 0
At STD N 00E0FFFF
Ne 0 ""
Po -7.62 0
$EndPAD
$PAD
Sh "3" C 1.524 1.524 0 0 0
Dr 1.016 0 0
At STD N 00E0FFFF
Ne 0 ""
Po -5.08 0
$EndPAD
$PAD
Sh "4" C 1.524 1.524 0 0 0
Dr 1.016 0 0
At STD N 00E0FFFF
Ne 0 ""
Po -2.54 0
$EndPAD
$PAD
Sh "5" C 1.524 1.524 0 0 0
Dr 1.016 0 0
At STD N 00E0FFFF
Ne 0 ""
Po 0 0
$EndPAD
$PAD
Sh "6" O 1.524 1.524 0 0 0
Dr 1.016 0 0
At STD N 00E0FFFF
Ne 0 ""
Po 2.54 0
$EndPAD
$PAD
Sh "7" O 1.524 1.524 0 0 0
Dr 1.016 0 0
At STD N 00E0FFFF
Ne 0 ""
Po 5.08 0
$EndPAD
$PAD
Sh "8" O 1.524 1.524 0 0 0
Dr 1.016 0 0
At STD N 00E0FFFF
Ne 0 ""
Po 7.62 0
$EndPAD
$PAD
Sh "9" O 1.524 1.524 0 0 0
Dr 1.016 0 0
At STD N 00E0FFFF
Ne 0 ""
Po 10.16 0
$EndPAD
$SHAPE3D
Na "pin_array/pins_array_5x1.wrl"
Sc 1 1 1
Of 0 0 0
Ro 0 0 0
$EndSHAPE3D
$EndMODULE PIN_ARRAY_9X1_NOKEY
$EndLIBRARY
