(module POT_CMS (layer F.Cu)
  (at 0 0)
  (descr "module CMS Potentiometre")
  (tags "CMS POT")
  (path /5A820B41)
  (attr smd)
  (fp_text reference RV1 (at 0 -0.88646) (layer F.SilkS)
    (effects (font (size 0.762 0.762) (thickness 0.127)))
  )
  (fp_text value POT (at 0 0.635) (layer F.SilkS)
    (effects (font (size 0.762 0.762) (thickness 0.127)))
  )
  (fp_line (start -2.54 1.27) (end -2.54 3.556) (layer F.SilkS) (width 0.127))
  (fp_line (start -2.54 3.556) (end 2.54 3.556) (layer F.SilkS) (width 0.127))
  (fp_line (start 2.54 3.556) (end 2.54 1.27) (layer F.SilkS) (width 0.127))
  (fp_line (start -2.54 -1.778) (end -1.016 -3.556) (layer F.SilkS) (width 0.127))
  (fp_line (start -1.016 -3.556) (end 1.016 -3.556) (layer F.SilkS) (width 0.127))
  (fp_line (start 1.016 -3.556) (end 2.54 -1.778) (layer F.SilkS) (width 0.127))
  (fp_circle (center 0 0) (end 0.254 -0.762) (layer F.SilkS) (width 0.127))
  (pad 1 thru_hole circle (at -1.32588 2.38252) (size 1.651 1.651) (drill 1.016)
    (layers *.Cu *.Mask F.SilkS)
  )
  (pad 2 thru_hole circle (at -0.00508 -2.59588) (size 1.651 1.651) (drill 1.016)
    (layers *.Cu *.Mask F.SilkS)
  )
  (pad 3 thru_hole circle (at 1.23952 2.30886) (size 1.651 1.651) (drill 1.016)
    (layers *.Cu *.Mask F.SilkS)
  )
)
