PCBNEW-LibModule-V1  03/01/2018 11:09:57
# encoding utf-8
Units mm
$INDEX
POT_CMS
$EndINDEX
$MODULE POT_CMS
Po 0 0 0 15 5A4D2A65 00000000 ~~
Li POT_CMS
Cd module CMS Potentiometre
Kw CMS POT
Sc 0
AR /5A387238
Op 0 0 0
At SMD
T0 0 -0.88646 0.762 0.762 0 0.127 N V 21 N "RV1"
T1 0 0.635 0.762 0.762 0 0.127 N V 21 N "5K"
DS -2.54 1.27 -2.54 3.556 0.127 21
DS -2.54 3.556 2.54 3.556 0.127 21
DS 2.54 3.556 2.54 1.27 0.127 21
DS -2.54 -1.778 -1.016 -3.556 0.127 21
DS -1.016 -3.556 1.016 -3.556 0.127 21
DS 1.016 -3.556 2.54 -1.778 0.127 21
DC 0 0 0.254 -0.762 0.127 21
$PAD
Sh "1" C 1.57 1.57 0 0 0
Dr 1 0 0
At STD N 00E0FFFF
Ne 2 "VCC"
Po -1.27 2.54
$EndPAD
$PAD
Sh "2" C 1.57 1.57 0 0 0
Dr 1 0 0
At STD N 00E0FFFF
Ne 1 "N-0000067"
Po 0 -2.54
$EndPAD
$PAD
Sh "3" C 1.57 1.57 0 0 0
Dr 1 0 0
At STD N 00E0FFFF
Ne 0 ""
Po 1.27 2.54
$EndPAD
$EndMODULE POT_CMS
$EndLIBRARY
