(module 1pin (layer F.Cu) (tedit 200000)
  (descr "module 1 pin (ou trou mecanique de percage)")
  (tags DEV)
  (fp_text reference P35 (at 0 -3.048) (layer F.SilkS)
    (effects (font (size 1.016 1.016) (thickness 0.254)))
  )
  (fp_text value CONN_1 (at 0 2.794) (layer F.SilkS) hide
    (effects (font (size 1.016 1.016) (thickness 0.254)))
  )
  (fp_circle (center 0 0) (end 0 -2.286) (layer F.SilkS) (width 0.381))
  (pad 1 thru_hole circle (at 0 0) (size 4.064 4.064) (drill 3.048) (layers *.Cu *.Mask F.SilkS))
)
