(module PGA15X15 (layer F.Cu) (tedit 61F513CC)
  (descr "Module modele pour PGA 15 x 15 pins, pads ronds")
  (tags PGA)
  (fp_text reference REF** (at -12.7 22.86) (layer F.SilkS) hide
    (effects (font (size 1 1) (thickness 0.15)))
  )
  (fp_text value PGA15X15 (at 8.636 22.86) (layer F.Fab) hide
    (effects (font (size 1 1) (thickness 0.15)))
  )
  (fp_line (start 19.05 -19.05) (end -19.05 -19.05) (layer F.SilkS) (width 0.15))
  (fp_line (start 19.05 19.05) (end 19.05 -19.05) (layer F.SilkS) (width 0.15))
  (fp_line (start -19.05 19.05) (end 19.05 19.05) (layer F.SilkS) (width 0.15))
  (fp_line (start -19.05 -19.05) (end -19.05 19.05) (layer F.SilkS) (width 0.15))
  (pad 1 connect rect (at -17.78 -16.51) (size 1 1.5) (layers F.Cu F.Mask))
  (pad Q1 thru_hole circle (at 17.78 17.78) (size 1.397 1.397) (drill 0.8128) (layers *.Cu *.Mask))
  (pad Q1 thru_hole circle (at 15.24 17.78) (size 1.397 1.397) (drill 0.8128) (layers *.Cu *.Mask))
  (pad Q1 thru_hole circle (at 12.7 17.78) (size 1.397 1.397) (drill 0.8128) (layers *.Cu *.Mask))
  (pad Q1 thru_hole circle (at 10.16 17.78) (size 1.397 1.397) (drill 0.8128) (layers *.Cu *.Mask))
  (pad Q1 thru_hole circle (at 7.62 17.78) (size 1.397 1.397) (drill 0.8128) (layers *.Cu *.Mask))
  (pad Q1 thru_hole circle (at 5.08 17.78) (size 1.397 1.397) (drill 0.8128) (layers *.Cu *.Mask))
  (pad Q1 thru_hole circle (at 2.54 17.78) (size 1.397 1.397) (drill 0.8128) (layers *.Cu *.Mask))
  (pad Q1 thru_hole circle (at 0 17.78) (size 1.397 1.397) (drill 0.8128) (layers *.Cu *.Mask))
  (pad Q1 thru_hole circle (at -2.54 17.78) (size 1.397 1.397) (drill 0.8128) (layers *.Cu *.Mask))
  (pad Q1 thru_hole circle (at -5.08 17.78) (size 1.397 1.397) (drill 0.8128) (layers *.Cu *.Mask))
  (pad Q1 thru_hole circle (at -7.62 17.78) (size 1.397 1.397) (drill 0.8128) (layers *.Cu *.Mask))
  (pad Q1 thru_hole circle (at -10.16 17.78) (size 1.397 1.397) (drill 0.8128) (layers *.Cu *.Mask))
  (pad Q1 thru_hole circle (at -12.7 17.78) (size 1.397 1.397) (drill 0.8128) (layers *.Cu *.Mask))
  (pad Q1 thru_hole circle (at -15.24 17.78) (size 1.397 1.397) (drill 0.8128) (layers *.Cu *.Mask))
  (pad Q1 thru_hole circle (at -17.78 17.78) (size 1.397 1.397) (drill 0.8128) (layers *.Cu *.Mask))
  (pad N15 thru_hole circle (at 17.78 15.24) (size 1.397 1.397) (drill 0.8128) (layers *.Cu *.Mask))
  (pad N14 thru_hole circle (at 15.24 15.24) (size 1.397 1.397) (drill 0.8128) (layers *.Cu *.Mask))
  (pad N13 thru_hole circle (at 12.7 15.24) (size 1.397 1.397) (drill 0.8128) (layers *.Cu *.Mask))
  (pad N12 thru_hole circle (at 10.16 15.24) (size 1.397 1.397) (drill 0.8128) (layers *.Cu *.Mask))
  (pad N11 thru_hole circle (at 7.62 15.24) (size 1.397 1.397) (drill 0.8128) (layers *.Cu *.Mask))
  (pad N10 thru_hole circle (at 5.08 15.24) (size 1.397 1.397) (drill 0.8128) (layers *.Cu *.Mask))
  (pad N9 thru_hole circle (at 2.54 15.24) (size 1.397 1.397) (drill 0.8128) (layers *.Cu *.Mask))
  (pad N8 thru_hole circle (at 0 15.24) (size 1.397 1.397) (drill 0.8128) (layers *.Cu *.Mask))
  (pad N7 thru_hole circle (at -2.54 15.24) (size 1.397 1.397) (drill 0.8128) (layers *.Cu *.Mask))
  (pad N6 thru_hole circle (at -5.08 15.24) (size 1.397 1.397) (drill 0.8128) (layers *.Cu *.Mask))
  (pad N5 thru_hole circle (at -7.62 15.24) (size 1.397 1.397) (drill 0.8128) (layers *.Cu *.Mask))
  (pad N4 thru_hole circle (at -10.16 15.24) (size 1.397 1.397) (drill 0.8128) (layers *.Cu *.Mask))
  (pad N3 thru_hole circle (at -12.7 15.24) (size 1.397 1.397) (drill 0.8128) (layers *.Cu *.Mask))
  (pad N2 thru_hole circle (at -15.24 15.24) (size 1.397 1.397) (drill 0.8128) (layers *.Cu *.Mask))
  (pad N1 thru_hole circle (at -17.78 15.24) (size 1.397 1.397) (drill 0.8128) (layers *.Cu *.Mask))
  (pad N15 thru_hole circle (at 17.78 12.7) (size 1.397 1.397) (drill 0.8128) (layers *.Cu *.Mask))
  (pad N14 thru_hole circle (at 15.24 12.7) (size 1.397 1.397) (drill 0.8128) (layers *.Cu *.Mask))
  (pad N13 thru_hole circle (at 12.7 12.7) (size 1.397 1.397) (drill 0.8128) (layers *.Cu *.Mask))
  (pad N12 thru_hole circle (at 10.16 12.7) (size 1.397 1.397) (drill 0.8128) (layers *.Cu *.Mask))
  (pad N11 thru_hole circle (at 7.62 12.7) (size 1.397 1.397) (drill 0.8128) (layers *.Cu *.Mask))
  (pad N10 thru_hole circle (at 5.08 12.7) (size 1.397 1.397) (drill 0.8128) (layers *.Cu *.Mask))
  (pad N9 thru_hole circle (at 2.54 12.7) (size 1.397 1.397) (drill 0.8128) (layers *.Cu *.Mask))
  (pad N8 thru_hole circle (at 0 12.7) (size 1.397 1.397) (drill 0.8128) (layers *.Cu *.Mask))
  (pad N7 thru_hole circle (at -2.54 12.7) (size 1.397 1.397) (drill 0.8128) (layers *.Cu *.Mask))
  (pad N6 thru_hole circle (at -5.08 12.7) (size 1.397 1.397) (drill 0.8128) (layers *.Cu *.Mask))
  (pad N5 thru_hole circle (at -7.62 12.7) (size 1.397 1.397) (drill 0.8128) (layers *.Cu *.Mask))
  (pad N4 thru_hole circle (at -10.16 12.7) (size 1.397 1.397) (drill 0.8128) (layers *.Cu *.Mask))
  (pad N3 thru_hole circle (at -12.7 12.7) (size 1.397 1.397) (drill 0.8128) (layers *.Cu *.Mask))
  (pad N2 thru_hole circle (at -15.24 12.7) (size 1.397 1.397) (drill 0.8128) (layers *.Cu *.Mask))
  (pad N1 thru_hole circle (at -17.78 12.7) (size 1.397 1.397) (drill 0.8128) (layers *.Cu *.Mask))
  (pad L15 thru_hole circle (at 17.78 10.16) (size 1.397 1.397) (drill 0.8128) (layers *.Cu *.Mask))
  (pad L14 thru_hole circle (at 15.24 10.16) (size 1.397 1.397) (drill 0.8128) (layers *.Cu *.Mask))
  (pad L13 thru_hole circle (at 12.7 10.16) (size 1.397 1.397) (drill 0.8128) (layers *.Cu *.Mask))
  (pad L12 thru_hole circle (at 10.16 10.16) (size 1.397 1.397) (drill 0.8128) (layers *.Cu *.Mask))
  (pad L11 thru_hole circle (at 7.62 10.16) (size 1.397 1.397) (drill 0.8128) (layers *.Cu *.Mask))
  (pad L10 thru_hole circle (at 5.08 10.16) (size 1.397 1.397) (drill 0.8128) (layers *.Cu *.Mask))
  (pad L9 thru_hole circle (at 2.54 10.16) (size 1.397 1.397) (drill 0.8128) (layers *.Cu *.Mask))
  (pad L8 thru_hole circle (at 0 10.16) (size 1.397 1.397) (drill 0.8128) (layers *.Cu *.Mask))
  (pad L7 thru_hole circle (at -2.54 10.16) (size 1.397 1.397) (drill 0.8128) (layers *.Cu *.Mask))
  (pad L6 thru_hole circle (at -5.08 10.16) (size 1.397 1.397) (drill 0.8128) (layers *.Cu *.Mask))
  (pad L5 thru_hole circle (at -7.62 10.16) (size 1.397 1.397) (drill 0.8128) (layers *.Cu *.Mask))
  (pad L4 thru_hole circle (at -10.16 10.16) (size 1.397 1.397) (drill 0.8128) (layers *.Cu *.Mask))
  (pad L3 thru_hole circle (at -12.7 10.16) (size 1.397 1.397) (drill 0.8128) (layers *.Cu *.Mask))
  (pad L2 thru_hole circle (at -15.24 10.16) (size 1.397 1.397) (drill 0.8128) (layers *.Cu *.Mask))
  (pad L1 thru_hole circle (at -17.78 10.16) (size 1.397 1.397) (drill 0.8128) (layers *.Cu *.Mask))
  (pad L15 thru_hole circle (at 17.78 7.62) (size 1.397 1.397) (drill 0.8128) (layers *.Cu *.Mask))
  (pad L14 thru_hole circle (at 15.24 7.62) (size 1.397 1.397) (drill 0.8128) (layers *.Cu *.Mask))
  (pad L13 thru_hole circle (at 12.7 7.62) (size 1.397 1.397) (drill 0.8128) (layers *.Cu *.Mask))
  (pad L12 thru_hole circle (at 10.16 7.62) (size 1.397 1.397) (drill 0.8128) (layers *.Cu *.Mask))
  (pad L11 thru_hole circle (at 7.62 7.62) (size 1.397 1.397) (drill 0.8128) (layers *.Cu *.Mask))
  (pad L10 thru_hole circle (at 5.08 7.62) (size 1.397 1.397) (drill 0.8128) (layers *.Cu *.Mask))
  (pad L9 thru_hole circle (at 2.54 7.62) (size 1.397 1.397) (drill 0.8128) (layers *.Cu *.Mask))
  (pad L8 thru_hole circle (at 0 7.62) (size 1.397 1.397) (drill 0.8128) (layers *.Cu *.Mask))
  (pad L7 thru_hole circle (at -2.54 7.62) (size 1.397 1.397) (drill 0.8128) (layers *.Cu *.Mask))
  (pad L6 thru_hole circle (at -5.08 7.62) (size 1.397 1.397) (drill 0.8128) (layers *.Cu *.Mask))
  (pad L5 thru_hole circle (at -7.62 7.62) (size 1.397 1.397) (drill 0.8128) (layers *.Cu *.Mask))
  (pad L4 thru_hole circle (at -10.16 7.62) (size 1.397 1.397) (drill 0.8128) (layers *.Cu *.Mask))
  (pad L3 thru_hole circle (at -12.7 7.62) (size 1.397 1.397) (drill 0.8128) (layers *.Cu *.Mask))
  (pad L2 thru_hole circle (at -15.24 7.62) (size 1.397 1.397) (drill 0.8128) (layers *.Cu *.Mask))
  (pad L1 thru_hole circle (at -17.78 7.62) (size 1.397 1.397) (drill 0.8128) (layers *.Cu *.Mask))
  (pad J15 thru_hole circle (at 17.78 5.08) (size 1.397 1.397) (drill 0.8128) (layers *.Cu *.Mask))
  (pad J14 thru_hole circle (at 15.24 5.08) (size 1.397 1.397) (drill 0.8128) (layers *.Cu *.Mask))
  (pad J13 thru_hole circle (at 12.7 5.08) (size 1.397 1.397) (drill 0.8128) (layers *.Cu *.Mask))
  (pad J12 thru_hole circle (at 10.16 5.08) (size 1.397 1.397) (drill 0.8128) (layers *.Cu *.Mask))
  (pad J11 thru_hole circle (at 7.62 5.08) (size 1.397 1.397) (drill 0.8128) (layers *.Cu *.Mask))
  (pad J10 thru_hole circle (at 5.08 5.08) (size 1.397 1.397) (drill 0.8128) (layers *.Cu *.Mask))
  (pad J9 thru_hole circle (at 2.54 5.08) (size 1.397 1.397) (drill 0.8128) (layers *.Cu *.Mask))
  (pad J8 thru_hole circle (at 0 5.08) (size 1.397 1.397) (drill 0.8128) (layers *.Cu *.Mask))
  (pad J7 thru_hole circle (at -2.54 5.08) (size 1.397 1.397) (drill 0.8128) (layers *.Cu *.Mask))
  (pad J6 thru_hole circle (at -5.08 5.08) (size 1.397 1.397) (drill 0.8128) (layers *.Cu *.Mask))
  (pad J5 thru_hole circle (at -7.62 5.08) (size 1.397 1.397) (drill 0.8128) (layers *.Cu *.Mask))
  (pad J4 thru_hole circle (at -10.16 5.08) (size 1.397 1.397) (drill 0.8128) (layers *.Cu *.Mask))
  (pad J3 thru_hole circle (at -12.7 5.08) (size 1.397 1.397) (drill 0.8128) (layers *.Cu *.Mask))
  (pad J2 thru_hole circle (at -15.24 5.08) (size 1.397 1.397) (drill 0.8128) (layers *.Cu *.Mask))
  (pad J1 thru_hole circle (at -17.78 5.08) (size 1.397 1.397) (drill 0.8128) (layers *.Cu *.Mask))
  (pad J15 thru_hole circle (at 17.78 2.54) (size 1.397 1.397) (drill 0.8128) (layers *.Cu *.Mask))
  (pad J14 thru_hole circle (at 15.24 2.54) (size 1.397 1.397) (drill 0.8128) (layers *.Cu *.Mask))
  (pad J13 thru_hole circle (at 12.7 2.54) (size 1.397 1.397) (drill 0.8128) (layers *.Cu *.Mask))
  (pad J12 thru_hole circle (at 10.16 2.54) (size 1.397 1.397) (drill 0.8128) (layers *.Cu *.Mask))
  (pad J11 thru_hole circle (at 7.62 2.54) (size 1.397 1.397) (drill 0.8128) (layers *.Cu *.Mask))
  (pad J10 thru_hole circle (at 5.08 2.54) (size 1.397 1.397) (drill 0.8128) (layers *.Cu *.Mask))
  (pad J9 thru_hole circle (at 2.54 2.54) (size 1.397 1.397) (drill 0.8128) (layers *.Cu *.Mask))
  (pad J8 thru_hole circle (at 0 2.54) (size 1.397 1.397) (drill 0.8128) (layers *.Cu *.Mask))
  (pad J7 thru_hole circle (at -2.54 2.54) (size 1.397 1.397) (drill 0.8128) (layers *.Cu *.Mask))
  (pad J6 thru_hole circle (at -5.08 2.54) (size 1.397 1.397) (drill 0.8128) (layers *.Cu *.Mask))
  (pad J5 thru_hole circle (at -7.62 2.54) (size 1.397 1.397) (drill 0.8128) (layers *.Cu *.Mask))
  (pad J4 thru_hole circle (at -10.16 2.54) (size 1.397 1.397) (drill 0.8128) (layers *.Cu *.Mask))
  (pad J3 thru_hole circle (at -12.7 2.54) (size 1.397 1.397) (drill 0.8128) (layers *.Cu *.Mask))
  (pad J2 thru_hole circle (at -15.24 2.54) (size 1.397 1.397) (drill 0.8128) (layers *.Cu *.Mask))
  (pad J1 thru_hole circle (at -17.78 2.54) (size 1.397 1.397) (drill 0.8128) (layers *.Cu *.Mask))
  (pad G15 thru_hole circle (at 17.78 0) (size 1.397 1.397) (drill 0.8128) (layers *.Cu *.Mask))
  (pad G14 thru_hole circle (at 15.24 0) (size 1.397 1.397) (drill 0.8128) (layers *.Cu *.Mask))
  (pad G13 thru_hole circle (at 12.7 0) (size 1.397 1.397) (drill 0.8128) (layers *.Cu *.Mask))
  (pad G12 thru_hole circle (at 10.16 0) (size 1.397 1.397) (drill 0.8128) (layers *.Cu *.Mask))
  (pad G11 thru_hole circle (at 7.62 0) (size 1.397 1.397) (drill 0.8128) (layers *.Cu *.Mask))
  (pad G10 thru_hole circle (at 5.08 0) (size 1.397 1.397) (drill 0.8128) (layers *.Cu *.Mask))
  (pad G9 thru_hole circle (at 2.54 0) (size 1.397 1.397) (drill 0.8128) (layers *.Cu *.Mask))
  (pad G8 thru_hole circle (at 0 0) (size 1.397 1.397) (drill 0.8128) (layers *.Cu *.Mask))
  (pad G7 thru_hole circle (at -2.54 0) (size 1.397 1.397) (drill 0.8128) (layers *.Cu *.Mask))
  (pad G6 thru_hole circle (at -5.08 0) (size 1.397 1.397) (drill 0.8128) (layers *.Cu *.Mask))
  (pad G5 thru_hole circle (at -7.62 0) (size 1.397 1.397) (drill 0.8128) (layers *.Cu *.Mask))
  (pad G4 thru_hole circle (at -10.16 0) (size 1.397 1.397) (drill 0.8128) (layers *.Cu *.Mask))
  (pad G3 thru_hole circle (at -12.7 0) (size 1.397 1.397) (drill 0.8128) (layers *.Cu *.Mask))
  (pad G2 thru_hole circle (at -15.24 0) (size 1.397 1.397) (drill 0.8128) (layers *.Cu *.Mask))
  (pad G1 thru_hole circle (at -17.78 0) (size 1.397 1.397) (drill 0.8128) (layers *.Cu *.Mask))
  (pad G15 thru_hole circle (at 17.78 -2.54) (size 1.397 1.397) (drill 0.8128) (layers *.Cu *.Mask))
  (pad G14 thru_hole circle (at 15.24 -2.54) (size 1.397 1.397) (drill 0.8128) (layers *.Cu *.Mask))
  (pad G13 thru_hole circle (at 12.7 -2.54) (size 1.397 1.397) (drill 0.8128) (layers *.Cu *.Mask))
  (pad G12 thru_hole circle (at 10.16 -2.54) (size 1.397 1.397) (drill 0.8128) (layers *.Cu *.Mask))
  (pad G11 thru_hole circle (at 7.62 -2.54) (size 1.397 1.397) (drill 0.8128) (layers *.Cu *.Mask))
  (pad G10 thru_hole circle (at 5.08 -2.54) (size 1.397 1.397) (drill 0.8128) (layers *.Cu *.Mask))
  (pad G9 thru_hole circle (at 2.54 -2.54) (size 1.397 1.397) (drill 0.8128) (layers *.Cu *.Mask))
  (pad G8 thru_hole circle (at 0 -2.54) (size 1.397 1.397) (drill 0.8128) (layers *.Cu *.Mask))
  (pad G7 thru_hole circle (at -2.54 -2.54) (size 1.397 1.397) (drill 0.8128) (layers *.Cu *.Mask))
  (pad G6 thru_hole circle (at -5.08 -2.54) (size 1.397 1.397) (drill 0.8128) (layers *.Cu *.Mask))
  (pad G5 thru_hole circle (at -7.62 -2.54) (size 1.397 1.397) (drill 0.8128) (layers *.Cu *.Mask))
  (pad G4 thru_hole circle (at -10.16 -2.54) (size 1.397 1.397) (drill 0.8128) (layers *.Cu *.Mask))
  (pad G3 thru_hole circle (at -12.7 -2.54) (size 1.397 1.397) (drill 0.8128) (layers *.Cu *.Mask))
  (pad G2 thru_hole circle (at -15.24 -2.54) (size 1.397 1.397) (drill 0.8128) (layers *.Cu *.Mask))
  (pad G1 thru_hole circle (at -17.78 -2.54) (size 1.397 1.397) (drill 0.8128) (layers *.Cu *.Mask))
  (pad E15 thru_hole circle (at 17.78 -5.08) (size 1.397 1.397) (drill 0.8128) (layers *.Cu *.Mask))
  (pad E14 thru_hole circle (at 15.24 -5.08) (size 1.397 1.397) (drill 0.8128) (layers *.Cu *.Mask))
  (pad E13 thru_hole circle (at 12.7 -5.08) (size 1.397 1.397) (drill 0.8128) (layers *.Cu *.Mask))
  (pad E12 thru_hole circle (at 10.16 -5.08) (size 1.397 1.397) (drill 0.8128) (layers *.Cu *.Mask))
  (pad E11 thru_hole circle (at 7.62 -5.08) (size 1.397 1.397) (drill 0.8128) (layers *.Cu *.Mask))
  (pad E10 thru_hole circle (at 5.08 -5.08) (size 1.397 1.397) (drill 0.8128) (layers *.Cu *.Mask))
  (pad E9 thru_hole circle (at 2.54 -5.08) (size 1.397 1.397) (drill 0.8128) (layers *.Cu *.Mask))
  (pad E8 thru_hole circle (at 0 -5.08) (size 1.397 1.397) (drill 0.8128) (layers *.Cu *.Mask))
  (pad E7 thru_hole circle (at -2.54 -5.08) (size 1.397 1.397) (drill 0.8128) (layers *.Cu *.Mask))
  (pad E6 thru_hole circle (at -5.08 -5.08) (size 1.397 1.397) (drill 0.8128) (layers *.Cu *.Mask))
  (pad E5 thru_hole circle (at -7.62 -5.08) (size 1.397 1.397) (drill 0.8128) (layers *.Cu *.Mask))
  (pad E4 thru_hole circle (at -10.16 -5.08) (size 1.397 1.397) (drill 0.8128) (layers *.Cu *.Mask))
  (pad E3 thru_hole circle (at -12.7 -5.08) (size 1.397 1.397) (drill 0.8128) (layers *.Cu *.Mask))
  (pad E2 thru_hole circle (at -15.24 -5.08) (size 1.397 1.397) (drill 0.8128) (layers *.Cu *.Mask))
  (pad E1 thru_hole circle (at -17.78 -5.08) (size 1.397 1.397) (drill 0.8128) (layers *.Cu *.Mask))
  (pad E15 thru_hole circle (at 17.78 -7.62) (size 1.397 1.397) (drill 0.8128) (layers *.Cu *.Mask))
  (pad E14 thru_hole circle (at 15.24 -7.62) (size 1.397 1.397) (drill 0.8128) (layers *.Cu *.Mask))
  (pad E13 thru_hole circle (at 12.7 -7.62) (size 1.397 1.397) (drill 0.8128) (layers *.Cu *.Mask))
  (pad E12 thru_hole circle (at 10.16 -7.62) (size 1.397 1.397) (drill 0.8128) (layers *.Cu *.Mask))
  (pad E11 thru_hole circle (at 7.62 -7.62) (size 1.397 1.397) (drill 0.8128) (layers *.Cu *.Mask))
  (pad E10 thru_hole circle (at 5.08 -7.62) (size 1.397 1.397) (drill 0.8128) (layers *.Cu *.Mask))
  (pad E9 thru_hole circle (at 2.54 -7.62) (size 1.397 1.397) (drill 0.8128) (layers *.Cu *.Mask))
  (pad E8 thru_hole circle (at 0 -7.62) (size 1.397 1.397) (drill 0.8128) (layers *.Cu *.Mask))
  (pad E7 thru_hole circle (at -2.54 -7.62) (size 1.397 1.397) (drill 0.8128) (layers *.Cu *.Mask))
  (pad E6 thru_hole circle (at -5.08 -7.62) (size 1.397 1.397) (drill 0.8128) (layers *.Cu *.Mask))
  (pad E5 thru_hole circle (at -7.62 -7.62) (size 1.397 1.397) (drill 0.8128) (layers *.Cu *.Mask))
  (pad E4 thru_hole circle (at -10.16 -7.62) (size 1.397 1.397) (drill 0.8128) (layers *.Cu *.Mask))
  (pad E3 thru_hole circle (at -12.7 -7.62) (size 1.397 1.397) (drill 0.8128) (layers *.Cu *.Mask))
  (pad E2 thru_hole circle (at -15.24 -7.62) (size 1.397 1.397) (drill 0.8128) (layers *.Cu *.Mask))
  (pad E1 thru_hole circle (at -17.78 -7.62) (size 1.397 1.397) (drill 0.8128) (layers *.Cu *.Mask))
  (pad C15 thru_hole circle (at 17.78 -10.16) (size 1.397 1.397) (drill 0.8128) (layers *.Cu *.Mask))
  (pad C14 thru_hole circle (at 15.24 -10.16) (size 1.397 1.397) (drill 0.8128) (layers *.Cu *.Mask))
  (pad C13 thru_hole circle (at 12.7 -10.16) (size 1.397 1.397) (drill 0.8128) (layers *.Cu *.Mask))
  (pad C12 thru_hole circle (at 10.16 -10.16) (size 1.397 1.397) (drill 0.8128) (layers *.Cu *.Mask))
  (pad C11 thru_hole circle (at 7.62 -10.16) (size 1.397 1.397) (drill 0.8128) (layers *.Cu *.Mask))
  (pad C10 thru_hole circle (at 5.08 -10.16) (size 1.397 1.397) (drill 0.8128) (layers *.Cu *.Mask))
  (pad C9 thru_hole circle (at 2.54 -10.16) (size 1.397 1.397) (drill 0.8128) (layers *.Cu *.Mask))
  (pad C8 thru_hole circle (at 0 -10.16) (size 1.397 1.397) (drill 0.8128) (layers *.Cu *.Mask))
  (pad C7 thru_hole circle (at -2.54 -10.16) (size 1.397 1.397) (drill 0.8128) (layers *.Cu *.Mask))
  (pad C6 thru_hole circle (at -5.08 -10.16) (size 1.397 1.397) (drill 0.8128) (layers *.Cu *.Mask))
  (pad C5 thru_hole circle (at -7.62 -10.16) (size 1.397 1.397) (drill 0.8128) (layers *.Cu *.Mask))
  (pad C4 thru_hole circle (at -10.16 -10.16) (size 1.397 1.397) (drill 0.8128) (layers *.Cu *.Mask))
  (pad C3 thru_hole circle (at -12.7 -10.16) (size 1.397 1.397) (drill 0.8128) (layers *.Cu *.Mask))
  (pad C2 thru_hole circle (at -15.24 -10.16) (size 1.397 1.397) (drill 0.8128) (layers *.Cu *.Mask))
  (pad C1 thru_hole circle (at -17.78 -10.16) (size 1.397 1.397) (drill 0.8128) (layers *.Cu *.Mask))
  (pad C15 thru_hole circle (at 17.78 -12.7) (size 1.397 1.397) (drill 0.8128) (layers *.Cu *.Mask))
  (pad C14 thru_hole circle (at 15.24 -12.7) (size 1.397 1.397) (drill 0.8128) (layers *.Cu *.Mask))
  (pad C13 thru_hole circle (at 12.7 -12.7) (size 1.397 1.397) (drill 0.8128) (layers *.Cu *.Mask))
  (pad C12 thru_hole circle (at 10.16 -12.7) (size 1.397 1.397) (drill 0.8128) (layers *.Cu *.Mask))
  (pad C11 thru_hole circle (at 7.62 -12.7) (size 1.397 1.397) (drill 0.8128) (layers *.Cu *.Mask))
  (pad C10 thru_hole circle (at 5.08 -12.7) (size 1.397 1.397) (drill 0.8128) (layers *.Cu *.Mask))
  (pad C9 thru_hole circle (at 2.54 -12.7) (size 1.397 1.397) (drill 0.8128) (layers *.Cu *.Mask))
  (pad C8 thru_hole circle (at 0 -12.7) (size 1.397 1.397) (drill 0.8128) (layers *.Cu *.Mask))
  (pad C7 thru_hole circle (at -2.54 -12.7) (size 1.397 1.397) (drill 0.8128) (layers *.Cu *.Mask))
  (pad C6 thru_hole circle (at -5.08 -12.7) (size 1.397 1.397) (drill 0.8128) (layers *.Cu *.Mask))
  (pad C5 thru_hole circle (at -7.62 -12.7) (size 1.397 1.397) (drill 0.8128) (layers *.Cu *.Mask))
  (pad C4 thru_hole circle (at -10.16 -12.7) (size 1.397 1.397) (drill 0.8128) (layers *.Cu *.Mask))
  (pad C3 thru_hole circle (at -12.7 -12.7) (size 1.397 1.397) (drill 0.8128) (layers *.Cu *.Mask))
  (pad C2 thru_hole circle (at -15.24 -12.7) (size 1.397 1.397) (drill 0.8128) (layers *.Cu *.Mask))
  (pad C1 thru_hole circle (at -17.78 -12.7) (size 1.397 1.397) (drill 0.8128) (layers *.Cu *.Mask))
  (pad A15 thru_hole circle (at 17.78 -15.24) (size 1.397 1.397) (drill 0.8128) (layers *.Cu *.Mask))
  (pad A14 thru_hole circle (at 15.24 -15.24) (size 1.397 1.397) (drill 0.8128) (layers *.Cu *.Mask))
  (pad A13 thru_hole circle (at 12.7 -15.24) (size 1.397 1.397) (drill 0.8128) (layers *.Cu *.Mask))
  (pad A12 thru_hole circle (at 10.16 -15.24) (size 1.397 1.397) (drill 0.8128) (layers *.Cu *.Mask))
  (pad A11 thru_hole circle (at 7.62 -15.24) (size 1.397 1.397) (drill 0.8128) (layers *.Cu *.Mask))
  (pad A10 thru_hole circle (at 5.08 -15.24) (size 1.397 1.397) (drill 0.8128) (layers *.Cu *.Mask))
  (pad A9 thru_hole circle (at 2.54 -15.24) (size 1.397 1.397) (drill 0.8128) (layers *.Cu *.Mask))
  (pad A8 thru_hole circle (at 0 -15.24) (size 1.397 1.397) (drill 0.8128) (layers *.Cu *.Mask))
  (pad A7 thru_hole circle (at -2.54 -15.24) (size 1.397 1.397) (drill 0.8128) (layers *.Cu *.Mask))
  (pad A6 thru_hole circle (at -5.08 -15.24) (size 1.397 1.397) (drill 0.8128) (layers *.Cu *.Mask))
  (pad A5 thru_hole circle (at -7.62 -15.24) (size 1.397 1.397) (drill 0.8128) (layers *.Cu *.Mask))
  (pad A4 thru_hole circle (at -10.16 -15.24) (size 1.397 1.397) (drill 0.8128) (layers *.Cu *.Mask))
  (pad A3 thru_hole circle (at -12.7 -15.24) (size 1.397 1.397) (drill 0.8128) (layers *.Cu *.Mask))
  (pad A2 thru_hole circle (at -15.24 -15.24) (size 1.397 1.397) (drill 0.8128) (layers *.Cu *.Mask))
  (pad 1 thru_hole circle (at -17.78 -15.24) (size 1.397 1.397) (drill 0.8128) (layers *.Cu *.Mask))
  (pad A15 thru_hole circle (at 17.78 -17.78) (size 1.397 1.397) (drill 0.8128) (layers *.Cu *.Mask))
  (pad A14 thru_hole circle (at 15.24 -17.78) (size 1.397 1.397) (drill 0.8128) (layers *.Cu *.Mask))
  (pad A13 thru_hole circle (at 12.7 -17.78) (size 1.397 1.397) (drill 0.8128) (layers *.Cu *.Mask))
  (pad A12 thru_hole circle (at 10.16 -17.78) (size 1.397 1.397) (drill 0.8128) (layers *.Cu *.Mask))
  (pad A11 thru_hole circle (at 7.62 -17.78) (size 1.397 1.397) (drill 0.8128) (layers *.Cu *.Mask))
  (pad A10 thru_hole circle (at 5.08 -17.78) (size 1.397 1.397) (drill 0.8128) (layers *.Cu *.Mask))
  (pad A9 thru_hole circle (at 2.54 -17.78) (size 1.397 1.397) (drill 0.8128) (layers *.Cu *.Mask))
  (pad A8 thru_hole circle (at 0 -17.78) (size 1.397 1.397) (drill 0.8128) (layers *.Cu *.Mask))
  (pad A7 thru_hole circle (at -2.54 -17.78) (size 1.397 1.397) (drill 0.8128) (layers *.Cu *.Mask))
  (pad A6 thru_hole circle (at -5.08 -17.78) (size 1.397 1.397) (drill 0.8128) (layers *.Cu *.Mask))
  (pad A5 thru_hole circle (at -7.62 -17.78) (size 1.397 1.397) (drill 0.8128) (layers *.Cu *.Mask))
  (pad A4 thru_hole circle (at -10.16 -17.78) (size 1.397 1.397) (drill 0.8128) (layers *.Cu *.Mask))
  (pad A3 thru_hole circle (at -12.7 -17.78) (size 1.397 1.397) (drill 0.8128) (layers *.Cu *.Mask))
  (pad A2 thru_hole circle (at -15.24 -17.78) (size 1.397 1.397) (drill 0.8128) (layers *.Cu *.Mask))
  (pad 1 thru_hole rect (at -17.78 -17.78) (size 1.397 1.397) (drill 0.8128) (layers *.Cu *.Mask))
  (pad C1 connect rect (at -17.78 -11.43) (size 1 1.5) (layers F.Cu F.Mask))
  (pad E1 connect rect (at -17.78 -6.35) (size 1 1.5) (layers F.Cu F.Mask))
  (pad G1 connect rect (at -17.78 -1.27) (size 1 1.5) (layers F.Cu F.Mask))
  (pad J1 connect rect (at -17.78 3.81) (size 1 1.5) (layers F.Cu F.Mask))
  (pad L1 connect rect (at -17.78 8.89) (size 1 1.5) (layers F.Cu F.Mask))
  (pad N1 connect rect (at -17.78 13.97) (size 1 1.5) (layers F.Cu F.Mask))
  (pad A2 connect rect (at -15.24 -16.51) (size 1 1.5) (layers F.Cu F.Mask))
  (pad C2 connect rect (at -15.24 -11.43) (size 1 1.5) (layers F.Cu F.Mask))
  (pad A3 connect rect (at -12.7 -16.51) (size 1 1.5) (layers F.Cu F.Mask))
  (pad C3 connect rect (at -12.7 -11.43) (size 1 1.5) (layers F.Cu F.Mask))
  (pad E2 connect rect (at -15.24 -6.35) (size 1 1.5) (layers F.Cu F.Mask))
  (pad E3 connect rect (at -12.7 -6.35) (size 1 1.5) (layers F.Cu F.Mask))
  (pad C4 connect rect (at -10.16 -11.43) (size 1 1.5) (layers F.Cu F.Mask))
  (pad E4 connect rect (at -10.16 -6.35) (size 1 1.5) (layers F.Cu F.Mask))
  (pad C5 connect rect (at -7.62 -11.43) (size 1 1.5) (layers F.Cu F.Mask))
  (pad A4 connect rect (at -10.16 -16.51) (size 1 1.5) (layers F.Cu F.Mask))
  (pad A5 connect rect (at -7.62 -16.51) (size 1 1.5) (layers F.Cu F.Mask))
  (pad A6 connect rect (at -5.08 -16.51) (size 1 1.5) (layers F.Cu F.Mask))
  (pad C6 connect rect (at -5.08 -11.43) (size 1 1.5) (layers F.Cu F.Mask))
  (pad A7 connect rect (at -2.54 -16.51) (size 1 1.5) (layers F.Cu F.Mask))
  (pad C7 connect rect (at -2.54 -11.43) (size 1 1.5) (layers F.Cu F.Mask))
  (pad A8 connect rect (at 0 -16.51) (size 1 1.5) (layers F.Cu F.Mask))
  (pad C8 connect rect (at 0 -11.43) (size 1 1.5) (layers F.Cu F.Mask))
  (pad A9 connect rect (at 2.54 -16.51) (size 1 1.5) (layers F.Cu F.Mask))
  (pad C9 connect rect (at 2.54 -11.43) (size 1 1.5) (layers F.Cu F.Mask))
  (pad E5 connect rect (at -7.62 -6.35) (size 1 1.5) (layers F.Cu F.Mask))
  (pad A10 connect rect (at 5.08 -16.51) (size 1 1.5) (layers F.Cu F.Mask))
  (pad C10 connect rect (at 5.08 -11.43) (size 1 1.5) (layers F.Cu F.Mask))
  (pad E6 connect rect (at -5.08 -6.35) (size 1 1.5) (layers F.Cu F.Mask))
  (pad E7 connect rect (at -2.54 -6.35) (size 1 1.5) (layers F.Cu F.Mask))
  (pad E8 connect rect (at 0 -6.35) (size 1 1.5) (layers F.Cu F.Mask))
  (pad E9 connect rect (at 2.54 -6.35) (size 1 1.5) (layers F.Cu F.Mask))
  (pad E10 connect rect (at 5.08 -6.35) (size 1 1.5) (layers F.Cu F.Mask))
  (pad C11 connect rect (at 7.62 -11.43) (size 1 1.5) (layers F.Cu F.Mask))
  (pad E11 connect rect (at 7.62 -6.35) (size 1 1.5) (layers F.Cu F.Mask))
  (pad A11 connect rect (at 7.62 -16.51) (size 1 1.5) (layers F.Cu F.Mask))
  (pad A12 connect rect (at 10.16 -16.51) (size 1 1.5) (layers F.Cu F.Mask))
  (pad A13 connect rect (at 12.7 -16.51) (size 1 1.5) (layers F.Cu F.Mask))
  (pad A14 connect rect (at 15.24 -16.51) (size 1 1.5) (layers F.Cu F.Mask))
  (pad C12 connect rect (at 10.16 -11.43) (size 1 1.5) (layers F.Cu F.Mask))
  (pad C13 connect rect (at 12.7 -11.43) (size 1 1.5) (layers F.Cu F.Mask))
  (pad C14 connect rect (at 15.24 -11.43) (size 1 1.5) (layers F.Cu F.Mask))
  (pad A15 connect rect (at 17.78 -16.51) (size 1 1.5) (layers F.Cu F.Mask))
  (pad C15 connect rect (at 17.78 -11.43) (size 1 1.5) (layers F.Cu F.Mask))
  (pad E12 connect rect (at 10.16 -6.35) (size 1 1.5) (layers F.Cu F.Mask))
  (pad E13 connect rect (at 12.7 -6.35) (size 1 1.5) (layers F.Cu F.Mask))
  (pad E14 connect rect (at 15.24 -6.35) (size 1 1.5) (layers F.Cu F.Mask))
  (pad E15 connect rect (at 17.78 -6.35) (size 1 1.5) (layers F.Cu F.Mask))
  (pad G2 connect rect (at -15.24 -1.27) (size 1 1.5) (layers F.Cu F.Mask))
  (pad J2 connect rect (at -15.24 3.81) (size 1 1.5) (layers F.Cu F.Mask))
  (pad L2 connect rect (at -15.24 8.89) (size 1 1.5) (layers F.Cu F.Mask))
  (pad N2 connect rect (at -15.24 13.97) (size 1 1.5) (layers F.Cu F.Mask))
  (pad G3 connect rect (at -12.7 -1.27) (size 1 1.5) (layers F.Cu F.Mask))
  (pad J3 connect rect (at -12.7 3.81) (size 1 1.5) (layers F.Cu F.Mask))
  (pad L3 connect rect (at -12.7 8.89) (size 1 1.5) (layers F.Cu F.Mask))
  (pad N3 connect rect (at -12.7 13.97) (size 1 1.5) (layers F.Cu F.Mask))
  (pad G4 connect rect (at -10.16 -1.27) (size 1 1.5) (layers F.Cu F.Mask))
  (pad J4 connect rect (at -10.16 3.81) (size 1 1.5) (layers F.Cu F.Mask))
  (pad L4 connect rect (at -10.16 8.89) (size 1 1.5) (layers F.Cu F.Mask))
  (pad N4 connect rect (at -10.16 13.97) (size 1 1.5) (layers F.Cu F.Mask))
  (pad G5 connect rect (at -7.62 -1.27) (size 1 1.5) (layers F.Cu F.Mask))
  (pad J5 connect rect (at -7.62 3.81) (size 1 1.5) (layers F.Cu F.Mask))
  (pad L5 connect rect (at -7.62 8.89) (size 1 1.5) (layers F.Cu F.Mask))
  (pad N5 connect rect (at -7.62 13.97) (size 1 1.5) (layers F.Cu F.Mask))
  (pad G6 connect rect (at -5.08 -1.27) (size 1 1.5) (layers F.Cu F.Mask))
  (pad G7 connect rect (at -2.54 -1.27) (size 1 1.5) (layers F.Cu F.Mask))
  (pad G8 connect rect (at 0 -1.27) (size 1 1.5) (layers F.Cu F.Mask))
  (pad G9 connect rect (at 2.54 -1.27) (size 1 1.5) (layers F.Cu F.Mask))
  (pad G10 connect rect (at 5.08 -1.27) (size 1 1.5) (layers F.Cu F.Mask))
  (pad G11 connect rect (at 7.62 -1.27) (size 1 1.5) (layers F.Cu F.Mask))
  (pad G12 connect rect (at 10.16 -1.27) (size 1 1.5) (layers F.Cu F.Mask))
  (pad J6 connect rect (at -5.08 3.81) (size 1 1.5) (layers F.Cu F.Mask))
  (pad J7 connect rect (at -2.54 3.81) (size 1 1.5) (layers F.Cu F.Mask))
  (pad J8 connect rect (at 0 3.81) (size 1 1.5) (layers F.Cu F.Mask))
  (pad J9 connect rect (at 2.54 3.81) (size 1 1.5) (layers F.Cu F.Mask))
  (pad J10 connect rect (at 5.08 3.81) (size 1 1.5) (layers F.Cu F.Mask))
  (pad L6 connect rect (at -5.08 8.89) (size 1 1.5) (layers F.Cu F.Mask))
  (pad J11 connect rect (at 7.62 3.81) (size 1 1.5) (layers F.Cu F.Mask))
  (pad J12 connect rect (at 10.16 3.81) (size 1 1.5) (layers F.Cu F.Mask))
  (pad G13 connect rect (at 12.7 -1.27) (size 1 1.5) (layers F.Cu F.Mask))
  (pad G14 connect rect (at 15.24 -1.27) (size 1 1.5) (layers F.Cu F.Mask))
  (pad G15 connect rect (at 17.78 -1.27) (size 1 1.5) (layers F.Cu F.Mask))
  (pad J13 connect rect (at 12.7 3.81) (size 1 1.5) (layers F.Cu F.Mask))
  (pad J14 connect rect (at 15.24 3.81) (size 1 1.5) (layers F.Cu F.Mask))
  (pad J15 connect rect (at 17.78 3.81) (size 1 1.5) (layers F.Cu F.Mask))
  (pad L7 connect rect (at -2.54 8.89) (size 1 1.5) (layers F.Cu F.Mask))
  (pad L8 connect rect (at 0 8.89) (size 1 1.5) (layers F.Cu F.Mask))
  (pad L9 connect rect (at 2.54 8.89) (size 1 1.5) (layers F.Cu F.Mask))
  (pad L10 connect rect (at 5.08 8.89) (size 1 1.5) (layers F.Cu F.Mask))
  (pad L11 connect rect (at 7.62 8.89) (size 1 1.5) (layers F.Cu F.Mask))
  (pad L12 connect rect (at 10.16 8.89) (size 1 1.5) (layers F.Cu F.Mask))
  (pad L13 connect rect (at 12.7 8.89) (size 1 1.5) (layers F.Cu F.Mask))
  (pad L14 connect rect (at 15.24 8.89) (size 1 1.5) (layers F.Cu F.Mask))
  (pad L15 connect rect (at 17.78 8.89) (size 1 1.5) (layers F.Cu F.Mask))
  (pad N6 connect rect (at -5.08 13.97) (size 1 1.5) (layers F.Cu F.Mask))
  (pad N7 connect rect (at -2.54 13.97) (size 1 1.5) (layers F.Cu F.Mask))
  (pad N8 connect rect (at 0 13.97) (size 1 1.5) (layers F.Cu F.Mask))
  (pad N9 connect rect (at 2.54 13.97) (size 1 1.5) (layers F.Cu F.Mask))
  (pad N10 connect rect (at 5.08 13.97) (size 1 1.5) (layers F.Cu F.Mask))
  (pad N11 connect rect (at 7.62 13.97) (size 1 1.5) (layers F.Cu F.Mask))
  (pad N12 connect rect (at 10.16 13.97) (size 1 1.5) (layers F.Cu F.Mask))
  (pad N13 connect rect (at 12.7 13.97) (size 1 1.5) (layers F.Cu F.Mask))
  (pad N14 connect rect (at 15.24 13.97) (size 1 1.5) (layers F.Cu F.Mask))
  (pad N15 connect rect (at 17.78 13.97) (size 1 1.5) (layers F.Cu F.Mask))
  (pad Q1 connect rect (at -16.51 17.78) (size 1.5 1) (layers F.Cu F.Mask))
  (pad Q1 connect rect (at -13.97 17.78) (size 1.5 1) (layers F.Cu F.Mask))
  (pad Q1 connect rect (at -11.43 17.78) (size 1.5 1) (layers F.Cu F.Mask))
  (pad Q1 connect rect (at -8.89 17.78) (size 1.5 1) (layers F.Cu F.Mask))
  (pad Q1 connect rect (at -6.35 17.78) (size 1.5 1) (layers F.Cu F.Mask))
  (pad Q1 connect rect (at -3.81 17.78) (size 1.5 1) (layers F.Cu F.Mask))
  (pad Q1 connect rect (at -1.27 17.78) (size 1.5 1) (layers F.Cu F.Mask))
  (pad Q1 connect rect (at 1.27 17.78) (size 1.5 1) (layers F.Cu F.Mask))
  (pad Q1 connect rect (at 3.81 17.78) (size 1.5 1) (layers F.Cu F.Mask))
  (pad Q1 connect rect (at 6.35 17.78) (size 1.5 1) (layers F.Cu F.Mask))
  (pad Q1 connect rect (at 8.89 17.78) (size 1.5 1) (layers F.Cu F.Mask))
  (pad Q1 connect rect (at 11.43 17.78) (size 1.5 1) (layers F.Cu F.Mask))
  (pad Q1 connect rect (at 13.97 17.78) (size 1.5 1) (layers F.Cu F.Mask))
  (pad Q1 connect rect (at 16.51 17.78) (size 1.5 1) (layers F.Cu F.Mask))
)
