; ModuleID = 'test.bc'
source_filename = "/home/mixotricha/workspace/s100_stuff/lisp/test.lisp"
target datalayout = "e-m:e-p270:32:32-p271:32:32-p272:64:64-i64:64-f80:128-n8:16:32:64-S128"
target triple = "x86_64-pc-linux-gnu"

@__clasp_gcroots_in_module_4 = internal global { i64, i8*, i64, i64, i8**, i64 } zeroinitializer
@startup-byte-code-0 = internal unnamed_addr constant [1279 x i8] c"Al1\0AHt01\0BTt1\011\08ABSOLUTETt1\021\07KEYWORDOt1\03t1\02Rt1\04t1\01t1\03Tt1\051\04homeTt1\061\0AmixotrichaTt1\071\09workspaceTt1\081\0As100_stuffTt1\091\04lispTt1\0A1\05claspTt1\0B1\03srcTt1\0C1\06kernelTt1\0D1\07cleavirIt01\0Bt1\04t1\05t1\06t1\07t1\08t1\09t1\0At1\0Bt1\09t1\0Ct1\0DTt1\0E1\06inlineTt1\0F1\06NEWESTRt1\10t1\0Ft1\03Ut1\11l1\0Al1\0At0t1\0Et1\09t1\10Ht1\121\02Tt1\131\06LAMBDATt1\141\0BCOMMON-LISPOt1\15t1\14Rt1\16t1\13t1\15Ht1\171\04Tt1\181\09&OPTIONALRt1\19t1\18t1\15Tt1\1A1\05VALUETt1\1B1\0DCLASP-CLEAVIROt1\1Ct1\1BRt1\1Dt1\1At1\1CTt1\1E1\05&RESTRt1\1Ft1\1Et1\15Tt1 1\03IGNRt1!t1 t1\1CIt1\171\04t1\19t1\1Dt1\1Ft1!It1\121\02t1\16t1\17Ht1\221\04It1\221\04t1\19t1\1Dt1\1Ft1!Vt1#t1\11t1\12t1\22l1\0Al1\0A2(\051\013 \0A\01Xl00t1#Ht1$1\06It1$1\06t1\04t1\05t1\06t1\07t1\08t1\09Tt1%1\04testUt1&l1\0Al1\0At1$t1%t1\09t1\10Ht1'1\02Ht1(1\01Tt1)1\01XTt1*1\10COMMON-LISP-USEROt1+t1*Rt1,t1)t1+It1(1\01t1,It1'1\02t1\16t1(Ht1-1\01It1-1\01t1,Vt1.t1&t1't1-l1\0Al1\0A101\0A2\1A\04Xl1\011\01t1.Wl1\021\02t1.1\01Ht1/1\02Ht101\04It101\04t1\19t1\1Dt1\1Ft1!It1/1\02t1\16t10Ht111\04It111\04t1\19t1\1Dt1\1Ft1!Vt12t1\11t1/t11l1\0Al1\0A2(\051\013 \0A\01Xl1\031\09t12Tt131\06MULLETRl1\10t13t1+Ht141\01Tt151\03LSTRt16t15t1+It141\01t16Vt17t1&l1\10t14l1\0Al1\0A1/1\012\FD\03Xl1\041\0At17Wl1\051\0Bt171\04Ht181\02Ht191\04It191\04t1\19t1\1Dt1\1Ft1!It181\02t1\16t19Ht1:1\04It1:1\04t1\19t1\1Dt1\1Ft1!Vt1;t1\11t18t1:l1\0Al1\0A2'\051\013\0C\0A\01Xl1\061\12t1;Tt1<1\09TOP-LEVELTt1=1\04COREOt1>t1=Rt1?t1<t1>Vt1@t1&t1?l1\0Al1\0Al1\0A1/1\012\FD\03Xl1\071\13t1@Wl1\081\14t1@1\07Tt1A1\05PRINTRl1\09t1At1\15Tt1B1\06MAPCARRl1\0Bt1Bt1\15Tt1C1\09TWO-ARG-*Rl1\0Ct1Ct1>Tt1D1\04LISTRl1\0Dt1Dt1\15Tt1E1\0BFDEFINITIONRl1\0Et1Et1\15Bl1\0F\\l1\111\02\\l1\121\05b1\081\1A___LAMBDA___test.lisp-^1^7\00\00"
@__clasp_literals_6 = internal global [19 x i8*] zeroinitializer
@function-vector-0 = internal global [27 x i8*] [i8* bitcast (i8* (i8*, i8*, i8*)* @"LAMBDA^COMMON-LISP^FN^^-lcl" to i8*), i8* bitcast ({ i8*, i64 } (i8*)* @"LAMBDA^COMMON-LISP^FN^^-lcl.1" to i8*), i8* bitcast ({ i8*, i64 } (i8*, i64, i8**)* @"LAMBDA^COMMON-LISP^FN^^-xep" to i8*), i8* bitcast (void (i8*)* @general_entry_point_redirect_0 to i8*), i8* bitcast ({ i8*, i64 } (i8*, i8*)* @"LAMBDA^COMMON-LISP^FN^^-xep1" to i8*), i8* bitcast (void (i8*, i8*, i8*)* @general_entry_point_redirect_2 to i8*), i8* bitcast (void (i8*, i8*, i8*, i8*)* @general_entry_point_redirect_3 to i8*), i8* bitcast (void (i8*, i8*, i8*, i8*, i8*)* @general_entry_point_redirect_4 to i8*), i8* bitcast (void (i8*, i8*, i8*, i8*, i8*, i8*)* @general_entry_point_redirect_5 to i8*), i8* bitcast (i8* (i8*, i8*, i8*)* @"LAMBDA^COMMON-LISP^FN^^-lcl.2" to i8*), i8* bitcast ({ i8*, i64 } (i8*)* @"MULLET^COMMON-LISP-USER^FN^^-lcl" to i8*), i8* bitcast ({ i8*, i64 } (i8*, i64, i8**)* @"MULLET^COMMON-LISP-USER^FN^^-xep" to i8*), i8* bitcast (void (i8*)* @general_entry_point_redirect_0 to i8*), i8* bitcast ({ i8*, i64 } (i8*, i8*)* @"MULLET^COMMON-LISP-USER^FN^^-xep1" to i8*), i8* bitcast (void (i8*, i8*, i8*)* @general_entry_point_redirect_2 to i8*), i8* bitcast (void (i8*, i8*, i8*, i8*)* @general_entry_point_redirect_3 to i8*), i8* bitcast (void (i8*, i8*, i8*, i8*, i8*)* @general_entry_point_redirect_4 to i8*), i8* bitcast (void (i8*, i8*, i8*, i8*, i8*, i8*)* @general_entry_point_redirect_5 to i8*), i8* bitcast (i8* (i8*, i8*, i8*)* @"LAMBDA^COMMON-LISP^FN^^-lcl.3" to i8*), i8* bitcast (i8* ()* @"___LAMBDA___test.lisp-^1^7-lcl" to i8*), i8* bitcast ({ i8*, i64 } (i8*, i64, i8**)* @"___LAMBDA___test.lisp-^1^7-xep" to i8*), i8* bitcast ({ i8*, i64 } (i8*)* @"___LAMBDA___test.lisp-^1^7-xep0" to i8*), i8* bitcast (void (i8*, i8*)* @general_entry_point_redirect_1 to i8*), i8* bitcast (void (i8*, i8*, i8*)* @general_entry_point_redirect_2 to i8*), i8* bitcast (void (i8*, i8*, i8*, i8*)* @general_entry_point_redirect_3 to i8*), i8* bitcast (void (i8*, i8*, i8*, i8*, i8*)* @general_entry_point_redirect_4 to i8*), i8* bitcast (void (i8*, i8*, i8*, i8*, i8*, i8*)* @general_entry_point_redirect_5 to i8*)]
@llvm.used = appending global [1 x i8*] [i8* bitcast (void ()* @"<<clasp_startup>>_1" to i8*)], section "llvm.metadata"

; Function Attrs: uwtable
define internal noalias i8* @"RUN-ALL/home/mixotricha/workspace/s100_stuff/lisp/test.lisp"(i8* nocapture readnone %0) #0 personality i32 (...)* @__gxx_personality_v0 !dbg !6 {
entry:
  %transients = alloca i8*, align 8
  call void @cc_initialize_gcroots_in_module({ i64, i8*, i64, i64, i8**, i64 }* nonnull @__clasp_gcroots_in_module_4, i8** getelementptr inbounds ([19 x i8*], [19 x i8*]* @__clasp_literals_6, i64 0, i64 0), i64 19, i8* null, i8** nonnull %transients, i64 70, i64 27, i8** getelementptr inbounds ([27 x i8*], [27 x i8*]* @function-vector-0, i64 0, i64 0))
  call void @cc_invoke_byte_code_interpreter({ i64, i8*, i64, i64, i8**, i64 }* nonnull @__clasp_gcroots_in_module_4, i8* getelementptr inbounds ([1279 x i8], [1279 x i8]* @startup-byte-code-0, i64 0, i64 0), i64 1278)
  call void @cc_finish_gcroots_in_module({ i64, i8*, i64, i64, i8**, i64 }* nonnull @__clasp_gcroots_in_module_4)
  ret i8* null
}

; Function Attrs: nounwind
declare i32 @__gxx_personality_v0(...) #1

; Function Attrs: uwtable
define internal i8* @"LAMBDA^COMMON-LISP^FN^^-lcl"(i8* %0, i8* readnone %1, i8* nocapture readnone %2) #2 personality i32 (...)* @__gxx_personality_v0 !dbg !10 {
entry:
  %3 = load i8*, i8** getelementptr inbounds ([19 x i8*], [19 x i8*]* @__clasp_literals_6, i64 0, i64 10), align 16, !dbg !11
  %4 = icmp eq i8* %3, %1, !dbg !11
  %phi = select i1 %4, i8* %3, i8* %0, !dbg !11
  %ptrtoint = ptrtoint i8* %phi to i64, !dbg !11
  %tag-only = and i64 %ptrtoint, 7, !dbg !11
  %test = icmp eq i64 %tag-only, 3, !dbg !11
  %.val = load i8*, i8** getelementptr inbounds ([19 x i8*], [19 x i8*]* @__clasp_literals_6, i64 0, i64 15), align 8, !dbg !13
  %phi2 = select i1 %test, i8* %.val, i8* %3, !dbg !13
  %G80695 = icmp ne i8* %phi2, %3, !dbg !11
  %OBJECT = icmp eq i8* %phi, %3, !dbg !11
  %or.cond = select i1 %G80695, i1 true, i1 %OBJECT, !dbg !11
  br i1 %or.cond, label %if-else4, label %if-then3, !dbg !11

if-then3:                                         ; preds = %entry
  %5 = load i8*, i8** getelementptr inbounds ([19 x i8*], [19 x i8*]* @__clasp_literals_6, i64 0, i64 13), align 8, !dbg !11
  %6 = tail call { i8*, i64 } @cc_error_type_error(i8* %phi, i8* %5), !dbg !11
  unreachable, !dbg !11

if-else4:                                         ; preds = %entry
  ret i8* %phi, !dbg !11
}

; Function Attrs: uwtable
define internal { i8*, i64 } @"LAMBDA^COMMON-LISP^FN^^-lcl.1"(i8* %0) #2 personality i32 (...)* @__gxx_personality_v0 !dbg !14 {
entry:
  %1 = load i8*, i8** getelementptr inbounds ([19 x i8*], [19 x i8*]* @__clasp_literals_6, i64 0, i64 9), align 8, !dbg !15
  %gep = getelementptr inbounds i8, i8* %1, i64 31, !dbg !15
  %2 = bitcast i8* %gep to i8**, !dbg !15
  %PRINT = load atomic i8*, i8** %2 monotonic, align 8, !dbg !15
  %3 = load i8*, i8** getelementptr inbounds ([19 x i8*], [19 x i8*]* @__clasp_literals_6, i64 0, i64 12), align 16, !dbg !16
  %gep14 = getelementptr inbounds i8, i8* %3, i64 31, !dbg !16
  %4 = bitcast i8* %gep14 to i8**, !dbg !16
  %"TWO-ARG-*" = load atomic i8*, i8** %4 monotonic, align 8, !dbg !16
  %T = load i8*, i8** getelementptr inbounds ([19 x i8*], [19 x i8*]* @__clasp_literals_6, i64 0, i64 15), align 8, !dbg !17
  %5 = tail call i8* @"LAMBDA^COMMON-LISP^FN^^-lcl.3"(i8* %0, i8* %T, i8* undef), !dbg !17
  %6 = load i8*, i8** getelementptr inbounds ([19 x i8*], [19 x i8*]* @__clasp_literals_6, i64 0, i64 10), align 16, !dbg !17
  %X80671 = icmp eq i8* %5, %6, !dbg !17
  br i1 %X80671, label %merge, label %if-then, !dbg !17

if-then:                                          ; preds = %entry
  %gep15 = getelementptr inbounds i8, i8* %5, i64 -3, !dbg !17
  %memref-set-addr = bitcast i8* %gep15 to i8**, !dbg !17
  %7 = load atomic i8*, i8** %memref-set-addr monotonic, align 8, !dbg !17
  br label %merge, !dbg !17

merge:                                            ; preds = %if-then, %entry
  %phi = phi i8* [ %7, %if-then ], [ %5, %entry ], !dbg !19
  %T16 = load i8*, i8** getelementptr inbounds ([19 x i8*], [19 x i8*]* @__clasp_literals_6, i64 0, i64 15), align 8, !dbg !20
  %8 = tail call i8* @"LAMBDA^COMMON-LISP^FN^^-lcl.2"(i8* %0, i8* %T16, i8* undef), !dbg !20
  %9 = load i8*, i8** getelementptr inbounds ([19 x i8*], [19 x i8*]* @__clasp_literals_6, i64 0, i64 10), align 16, !dbg !20
  %X80691 = icmp eq i8* %8, %9, !dbg !20
  br i1 %X80691, label %iblock8, label %if-then5, !dbg !20

if-then5:                                         ; preds = %merge
  %gep17 = getelementptr inbounds i8, i8* %0, i64 5, !dbg !20
  %memref-set-addr18 = bitcast i8* %gep17 to i8**, !dbg !20
  %10 = load atomic i8*, i8** %memref-set-addr18 monotonic, align 8, !dbg !20
  br label %iblock8, !dbg !20

iblock8:                                          ; preds = %if-then5, %merge
  %phi7 = phi i8* [ %10, %if-then5 ], [ %8, %merge ], !dbg !19
  %T19 = load i8*, i8** getelementptr inbounds ([19 x i8*], [19 x i8*]* @__clasp_literals_6, i64 0, i64 15), align 8, !dbg !20
  %11 = tail call i8* @"LAMBDA^COMMON-LISP^FN^^-lcl"(i8* %phi7, i8* %T19, i8* undef), !dbg !20
  %12 = load i8*, i8** getelementptr inbounds ([19 x i8*], [19 x i8*]* @__clasp_literals_6, i64 0, i64 10), align 16, !dbg !20
  %X80690 = icmp eq i8* %11, %12, !dbg !20
  br i1 %X80690, label %merge12, label %if-then11, !dbg !20

if-then11:                                        ; preds = %iblock8
  %gep20 = getelementptr inbounds i8, i8* %11, i64 -3, !dbg !20
  %memref-set-addr21 = bitcast i8* %gep20 to i8**, !dbg !20
  %13 = load atomic i8*, i8** %memref-set-addr21 monotonic, align 8, !dbg !20
  br label %merge12, !dbg !20

merge12:                                          ; preds = %if-then11, %iblock8
  %phi13 = phi i8* [ %13, %if-then11 ], [ %11, %iblock8 ], !dbg !19
  %gep22 = getelementptr inbounds i8, i8* %"TWO-ARG-*", i64 7, !dbg !16
  %14 = bitcast i8* %gep22 to i8**, !dbg !16
  %"global-entry-point*32" = load i8*, i8** %14, align 8, !dbg !16
  %"xep-2-i8**" = getelementptr inbounds i8, i8* %"global-entry-point*32", i64 47, !dbg !16
  %15 = bitcast i8* %"xep-2-i8**" to { i8*, i64 } (i8*, i8*, i8*)**, !dbg !16
  %"xep-2-i8*33" = load { i8*, i64 } (i8*, i8*, i8*)*, { i8*, i64 } (i8*, i8*, i8*)** %15, align 8, !dbg !16
  %16 = tail call { i8*, i64 } %"xep-2-i8*33"(i8* %"TWO-ARG-*", i8* %phi, i8* %phi13), !dbg !16
  %primary-return-value = extractvalue { i8*, i64 } %16, 0, !dbg !16
  %gep24 = getelementptr inbounds i8, i8* %PRINT, i64 7, !dbg !22
  %17 = bitcast i8* %gep24 to i8**, !dbg !22
  %"global-entry-point*2634" = load i8*, i8** %17, align 8, !dbg !22
  %"xep-1-i8**" = getelementptr inbounds i8, i8* %"global-entry-point*2634", i64 39, !dbg !22
  %18 = bitcast i8* %"xep-1-i8**" to { i8*, i64 } (i8*, i8*)**, !dbg !22
  %"xep-1-i8*35" = load { i8*, i64 } (i8*, i8*)*, { i8*, i64 } (i8*, i8*)** %18, align 8, !dbg !22
  %19 = tail call { i8*, i64 } %"xep-1-i8*35"(i8* %PRINT, i8* %primary-return-value), !dbg !22
  ret { i8*, i64 } %19, !dbg !23
}

; Function Attrs: uwtable
define internal { i8*, i64 } @"LAMBDA^COMMON-LISP^FN^^-xep"(i8* %0, i64 %1, i8** %2) #2 personality i32 (...)* @__gxx_personality_v0 !dbg !24 {
entry:
  %register-save-area = alloca [3 x i8*], align 8, !dbg !30
  call void (i64, i32, ...) @llvm.experimental.stackmap(i64 3735879680, i32 0, [3 x i8*]* nonnull %register-save-area), !dbg !30
  %rsa-closure = getelementptr inbounds [3 x i8*], [3 x i8*]* %register-save-area, i64 0, i64 0, !dbg !30
  store volatile i8* %0, i8** %rsa-closure, align 8, !dbg !30
  call void @llvm.dbg.value(metadata i8* %0, metadata !26, metadata !DIExpression()), !dbg !30
  %rsa-nargs = getelementptr inbounds [3 x i8*], [3 x i8*]* %register-save-area, i64 0, i64 1, !dbg !30
  %"nargs-i8*" = inttoptr i64 %1 to i8*, !dbg !30
  store volatile i8* %"nargs-i8*", i8** %rsa-nargs, align 8, !dbg !30
  call void @llvm.dbg.value(metadata i8* %"nargs-i8*", metadata !28, metadata !DIExpression()), !dbg !30
  %rsa-args = getelementptr inbounds [3 x i8*], [3 x i8*]* %register-save-area, i64 0, i64 2, !dbg !30
  %"reg-i8*" = bitcast i8** %2 to i8*, !dbg !30
  store volatile i8* %"reg-i8*", i8** %rsa-args, align 8, !dbg !30
  call void @llvm.dbg.value(metadata i8* %"reg-i8*", metadata !29, metadata !DIExpression()), !dbg !30
  %cond = icmp eq i64 %1, 1, !dbg !30
  br i1 %cond, label %enough-arguments3, label %wrong-num-args, !dbg !30

wrong-num-args:                                   ; preds = %entry
  call void @cc_wrong_number_of_arguments(i8* %0, i64 %1, i64 1, i64 1)
  unreachable

enough-arguments3:                                ; preds = %entry
  %3 = load i8*, i8** %2, align 8, !dbg !30
  %4 = call { i8*, i64 } @"LAMBDA^COMMON-LISP^FN^^-lcl.1"(i8* %3), !dbg !30
  ret { i8*, i64 } %4, !dbg !30
}

; Function Attrs: uwtable
define internal { i8*, i64 } @"LAMBDA^COMMON-LISP^FN^^-xep1"(i8* %0, i8* %1) #2 personality i32 (...)* @__gxx_personality_v0 !dbg !31 {
entry:
  %register-save-area = alloca [2 x i8*], align 8, !dbg !35
  call void (i64, i32, ...) @llvm.experimental.stackmap(i64 3735879682, i32 0, [2 x i8*]* nonnull %register-save-area), !dbg !35
  %rsa-closure = getelementptr inbounds [2 x i8*], [2 x i8*]* %register-save-area, i64 0, i64 0, !dbg !35
  store volatile i8* %0, i8** %rsa-closure, align 8, !dbg !35
  call void @llvm.dbg.value(metadata i8* %0, metadata !33, metadata !DIExpression()), !dbg !35
  %rsa-arg0 = getelementptr inbounds [2 x i8*], [2 x i8*]* %register-save-area, i64 0, i64 1, !dbg !35
  store volatile i8* %1, i8** %rsa-arg0, align 8, !dbg !35
  call void @llvm.dbg.value(metadata i8* %1, metadata !34, metadata !DIExpression()), !dbg !35
  %2 = call { i8*, i64 } @"LAMBDA^COMMON-LISP^FN^^-lcl.1"(i8* %1), !dbg !35
  ret { i8*, i64 } %2, !dbg !35
}

declare void @general_entry_point_redirect_0(i8*) #3

declare void @general_entry_point_redirect_2(i8*, i8*, i8*) #3

declare void @general_entry_point_redirect_3(i8*, i8*, i8*, i8*) #3

declare void @general_entry_point_redirect_4(i8*, i8*, i8*, i8*, i8*) #3

declare void @general_entry_point_redirect_5(i8*, i8*, i8*, i8*, i8*, i8*) #3

; Function Attrs: uwtable
define internal i8* @"LAMBDA^COMMON-LISP^FN^^-lcl.2"(i8* %0, i8* readnone %1, i8* nocapture readnone %2) #2 personality i32 (...)* @__gxx_personality_v0 !dbg !36 {
entry:
  %3 = load i8*, i8** getelementptr inbounds ([19 x i8*], [19 x i8*]* @__clasp_literals_6, i64 0, i64 10), align 16, !dbg !37
  %4 = icmp eq i8* %3, %1, !dbg !37
  %phi = select i1 %4, i8* %3, i8* %0, !dbg !37
  %ptrtoint = ptrtoint i8* %phi to i64, !dbg !37
  %tag-only = and i64 %ptrtoint, 7, !dbg !37
  %test = icmp eq i64 %tag-only, 3, !dbg !37
  %.val = load i8*, i8** getelementptr inbounds ([19 x i8*], [19 x i8*]* @__clasp_literals_6, i64 0, i64 15), align 8, !dbg !39
  %phi2 = select i1 %test, i8* %.val, i8* %3, !dbg !39
  %G80693 = icmp ne i8* %phi2, %3, !dbg !37
  %OBJECT = icmp eq i8* %phi, %3, !dbg !37
  %or.cond = select i1 %G80693, i1 true, i1 %OBJECT, !dbg !37
  br i1 %or.cond, label %if-else4, label %if-then3, !dbg !37

if-then3:                                         ; preds = %entry
  %5 = load i8*, i8** getelementptr inbounds ([19 x i8*], [19 x i8*]* @__clasp_literals_6, i64 0, i64 13), align 8, !dbg !37
  %6 = tail call { i8*, i64 } @cc_error_type_error(i8* %phi, i8* %5), !dbg !37
  unreachable, !dbg !37

if-else4:                                         ; preds = %entry
  ret i8* %phi, !dbg !37
}

; Function Attrs: uwtable
define internal { i8*, i64 } @"MULLET^COMMON-LISP-USER^FN^^-lcl"(i8* %0) #2 personality i32 (...)* @__gxx_personality_v0 !dbg !40 {
entry:
  %1 = load i8*, i8** getelementptr inbounds ([19 x i8*], [19 x i8*]* @__clasp_literals_6, i64 0, i64 11), align 8, !dbg !41
  %gep = getelementptr inbounds i8, i8* %1, i64 31, !dbg !41
  %2 = bitcast i8* %gep to i8**, !dbg !41
  %MAPCAR = load atomic i8*, i8** %2 monotonic, align 8, !dbg !41
  %3 = load i8*, i8** getelementptr inbounds ([19 x i8*], [19 x i8*]* @__clasp_literals_6, i64 0, i64 17), align 8, !dbg !42
  %gep1 = getelementptr inbounds i8, i8* %MAPCAR, i64 7, !dbg !43
  %4 = bitcast i8* %gep1 to i8**, !dbg !43
  %"global-entry-point*3" = load i8*, i8** %4, align 8, !dbg !43
  %"xep-2-i8**" = getelementptr inbounds i8, i8* %"global-entry-point*3", i64 47, !dbg !43
  %5 = bitcast i8* %"xep-2-i8**" to { i8*, i64 } (i8*, i8*, i8*)**, !dbg !43
  %"xep-2-i8*4" = load { i8*, i64 } (i8*, i8*, i8*)*, { i8*, i64 } (i8*, i8*, i8*)** %5, align 8, !dbg !43
  %6 = tail call { i8*, i64 } %"xep-2-i8*4"(i8* %MAPCAR, i8* %3, i8* %0), !dbg !43
  ret { i8*, i64 } %6, !dbg !44
}

; Function Attrs: uwtable
define internal { i8*, i64 } @"MULLET^COMMON-LISP-USER^FN^^-xep"(i8* %0, i64 %1, i8** %2) #2 personality i32 (...)* @__gxx_personality_v0 !dbg !45 {
entry:
  %register-save-area = alloca [3 x i8*], align 8, !dbg !50
  call void (i64, i32, ...) @llvm.experimental.stackmap(i64 3735879680, i32 0, [3 x i8*]* nonnull %register-save-area), !dbg !50
  %rsa-closure = getelementptr inbounds [3 x i8*], [3 x i8*]* %register-save-area, i64 0, i64 0, !dbg !50
  store volatile i8* %0, i8** %rsa-closure, align 8, !dbg !50
  call void @llvm.dbg.value(metadata i8* %0, metadata !47, metadata !DIExpression()), !dbg !50
  %rsa-nargs = getelementptr inbounds [3 x i8*], [3 x i8*]* %register-save-area, i64 0, i64 1, !dbg !50
  %"nargs-i8*" = inttoptr i64 %1 to i8*, !dbg !50
  store volatile i8* %"nargs-i8*", i8** %rsa-nargs, align 8, !dbg !50
  call void @llvm.dbg.value(metadata i8* %"nargs-i8*", metadata !48, metadata !DIExpression()), !dbg !50
  %rsa-args = getelementptr inbounds [3 x i8*], [3 x i8*]* %register-save-area, i64 0, i64 2, !dbg !50
  %"reg-i8*" = bitcast i8** %2 to i8*, !dbg !50
  store volatile i8* %"reg-i8*", i8** %rsa-args, align 8, !dbg !50
  call void @llvm.dbg.value(metadata i8* %"reg-i8*", metadata !49, metadata !DIExpression()), !dbg !50
  %cond = icmp eq i64 %1, 1, !dbg !50
  br i1 %cond, label %enough-arguments3, label %wrong-num-args, !dbg !50

wrong-num-args:                                   ; preds = %entry
  call void @cc_wrong_number_of_arguments(i8* %0, i64 %1, i64 1, i64 1)
  unreachable

enough-arguments3:                                ; preds = %entry
  %3 = load i8*, i8** %2, align 8, !dbg !50
  %4 = call { i8*, i64 } @"MULLET^COMMON-LISP-USER^FN^^-lcl"(i8* %3), !dbg !50
  ret { i8*, i64 } %4, !dbg !50
}

; Function Attrs: uwtable
define internal { i8*, i64 } @"MULLET^COMMON-LISP-USER^FN^^-xep1"(i8* %0, i8* %1) #2 personality i32 (...)* @__gxx_personality_v0 !dbg !51 {
entry:
  %register-save-area = alloca [2 x i8*], align 8, !dbg !55
  call void (i64, i32, ...) @llvm.experimental.stackmap(i64 3735879682, i32 0, [2 x i8*]* nonnull %register-save-area), !dbg !55
  %rsa-closure = getelementptr inbounds [2 x i8*], [2 x i8*]* %register-save-area, i64 0, i64 0, !dbg !55
  store volatile i8* %0, i8** %rsa-closure, align 8, !dbg !55
  call void @llvm.dbg.value(metadata i8* %0, metadata !53, metadata !DIExpression()), !dbg !55
  %rsa-arg0 = getelementptr inbounds [2 x i8*], [2 x i8*]* %register-save-area, i64 0, i64 1, !dbg !55
  store volatile i8* %1, i8** %rsa-arg0, align 8, !dbg !55
  call void @llvm.dbg.value(metadata i8* %1, metadata !54, metadata !DIExpression()), !dbg !55
  %2 = call { i8*, i64 } @"MULLET^COMMON-LISP-USER^FN^^-lcl"(i8* %1), !dbg !55
  ret { i8*, i64 } %2, !dbg !55
}

; Function Attrs: uwtable
define internal i8* @"LAMBDA^COMMON-LISP^FN^^-lcl.3"(i8* %0, i8* readnone %1, i8* nocapture readnone %2) #2 personality i32 (...)* @__gxx_personality_v0 !dbg !56 {
entry:
  %3 = load i8*, i8** getelementptr inbounds ([19 x i8*], [19 x i8*]* @__clasp_literals_6, i64 0, i64 10), align 16, !dbg !57
  %4 = icmp eq i8* %3, %1, !dbg !57
  %phi = select i1 %4, i8* %3, i8* %0, !dbg !57
  %ptrtoint = ptrtoint i8* %phi to i64, !dbg !57
  %tag-only = and i64 %ptrtoint, 7, !dbg !57
  %test = icmp eq i64 %tag-only, 3, !dbg !57
  %.val = load i8*, i8** getelementptr inbounds ([19 x i8*], [19 x i8*]* @__clasp_literals_6, i64 0, i64 15), align 8, !dbg !59
  %phi2 = select i1 %test, i8* %.val, i8* %3, !dbg !59
  %G80673 = icmp ne i8* %phi2, %3, !dbg !57
  %OBJECT = icmp eq i8* %phi, %3, !dbg !57
  %or.cond = select i1 %G80673, i1 true, i1 %OBJECT, !dbg !57
  br i1 %or.cond, label %if-else4, label %if-then3, !dbg !57

if-then3:                                         ; preds = %entry
  %5 = load i8*, i8** getelementptr inbounds ([19 x i8*], [19 x i8*]* @__clasp_literals_6, i64 0, i64 13), align 8, !dbg !57
  %6 = tail call { i8*, i64 } @cc_error_type_error(i8* %phi, i8* %5), !dbg !57
  unreachable, !dbg !57

if-else4:                                         ; preds = %entry
  ret i8* %phi, !dbg !57
}

; Function Attrs: uwtable
define internal i8* @"___LAMBDA___test.lisp-^1^7-lcl"() #2 personality i32 (...)* @__gxx_personality_v0 !dbg !60 {
entry:
  %0 = load i8*, i8** getelementptr inbounds ([19 x i8*], [19 x i8*]* @__clasp_literals_6, i64 0, i64 14), align 16, !dbg !61
  %gep = getelementptr inbounds i8, i8* %0, i64 39, !dbg !61
  %1 = bitcast i8* %gep to i8**, !dbg !61
  %FDEFINITION = load atomic i8*, i8** %1 monotonic, align 8, !dbg !61
  %2 = load i8*, i8** getelementptr inbounds ([19 x i8*], [19 x i8*]* @__clasp_literals_6, i64 0, i64 18), align 16, !dbg !61
  %3 = load i8*, i8** getelementptr inbounds ([19 x i8*], [19 x i8*]* @__clasp_literals_6, i64 0, i64 16), align 16, !dbg !62
  %gep1 = getelementptr inbounds i8, i8* %FDEFINITION, i64 7, !dbg !61
  %4 = bitcast i8* %gep1 to i8**, !dbg !61
  %"global-entry-point*3" = load i8*, i8** %4, align 8, !dbg !61
  %"xep-2-i8**" = getelementptr inbounds i8, i8* %"global-entry-point*3", i64 47, !dbg !61
  %5 = bitcast i8* %"xep-2-i8**" to { i8*, i64 } (i8*, i8*, i8*)**, !dbg !61
  %"xep-2-i8*4" = load { i8*, i64 } (i8*, i8*, i8*)*, { i8*, i64 } (i8*, i8*, i8*)** %5, align 8, !dbg !61
  %6 = tail call { i8*, i64 } %"xep-2-i8*4"(i8* %FDEFINITION, i8* %2, i8* %3), !dbg !61
  %7 = load i8*, i8** getelementptr inbounds ([19 x i8*], [19 x i8*]* @__clasp_literals_6, i64 0, i64 16), align 16, !dbg !62
  ret i8* %7, !dbg !61
}

; Function Attrs: uwtable
define internal { i8*, i64 } @"___LAMBDA___test.lisp-^1^7-xep"(i8* %0, i64 %1, i8** %2) #2 personality i32 (...)* @__gxx_personality_v0 !dbg !63 {
entry:
  %register-save-area = alloca [3 x i8*], align 8, !dbg !68
  call void (i64, i32, ...) @llvm.experimental.stackmap(i64 3735879680, i32 0, [3 x i8*]* nonnull %register-save-area), !dbg !68
  %rsa-closure = getelementptr inbounds [3 x i8*], [3 x i8*]* %register-save-area, i64 0, i64 0, !dbg !68
  store volatile i8* %0, i8** %rsa-closure, align 8, !dbg !68
  call void @llvm.dbg.value(metadata i8* %0, metadata !65, metadata !DIExpression()), !dbg !68
  %rsa-nargs = getelementptr inbounds [3 x i8*], [3 x i8*]* %register-save-area, i64 0, i64 1, !dbg !68
  %"nargs-i8*" = inttoptr i64 %1 to i8*, !dbg !68
  store volatile i8* %"nargs-i8*", i8** %rsa-nargs, align 8, !dbg !68
  call void @llvm.dbg.value(metadata i8* %"nargs-i8*", metadata !66, metadata !DIExpression()), !dbg !68
  %rsa-args = getelementptr inbounds [3 x i8*], [3 x i8*]* %register-save-area, i64 0, i64 2, !dbg !68
  %"reg-i8*" = bitcast i8** %2 to i8*, !dbg !68
  store volatile i8* %"reg-i8*", i8** %rsa-args, align 8, !dbg !68
  call void @llvm.dbg.value(metadata i8* %"reg-i8*", metadata !67, metadata !DIExpression()), !dbg !68
  %.not = icmp eq i64 %1, 0, !dbg !68
  br i1 %.not, label %enough-arguments, label %wrong-num-args, !dbg !68

wrong-num-args:                                   ; preds = %entry
  call void @cc_wrong_number_of_arguments(i8* %0, i64 %1, i64 0, i64 0)
  unreachable

enough-arguments:                                 ; preds = %entry
  %3 = call i8* @"___LAMBDA___test.lisp-^1^7-lcl"(), !dbg !68
  %ret0 = insertvalue { i8*, i64 } undef, i8* %3, 0, !dbg !68
  %nret = insertvalue { i8*, i64 } %ret0, i64 1, 1, !dbg !68
  ret { i8*, i64 } %nret, !dbg !68
}

; Function Attrs: uwtable
define internal { i8*, i64 } @"___LAMBDA___test.lisp-^1^7-xep0"(i8* %0) #2 personality i32 (...)* @__gxx_personality_v0 !dbg !69 {
entry:
  %register-save-area = alloca [1 x i8*], align 8, !dbg !72
  call void (i64, i32, ...) @llvm.experimental.stackmap(i64 3735879681, i32 0, [1 x i8*]* nonnull %register-save-area), !dbg !72
  %rsa-closure = getelementptr inbounds [1 x i8*], [1 x i8*]* %register-save-area, i64 0, i64 0, !dbg !72
  store volatile i8* %0, i8** %rsa-closure, align 8, !dbg !72
  call void @llvm.dbg.value(metadata i8* %0, metadata !71, metadata !DIExpression()), !dbg !72
  %1 = call i8* @"___LAMBDA___test.lisp-^1^7-lcl"(), !dbg !72
  %ret0 = insertvalue { i8*, i64 } undef, i8* %1, 0, !dbg !72
  %nret = insertvalue { i8*, i64 } %ret0, i64 1, 1, !dbg !72
  ret { i8*, i64 } %nret, !dbg !72
}

declare void @general_entry_point_redirect_1(i8*, i8*) #3

; Function Attrs: uwtable
declare { i8*, i64 } @cc_error_type_error(i8*, i8*) local_unnamed_addr #2

; Function Attrs: nofree nosync willreturn
declare void @llvm.experimental.stackmap(i64, i32, ...) #4

; Function Attrs: nofree nosync nounwind readnone speculatable willreturn
declare void @llvm.dbg.value(metadata, metadata, metadata) #5

; Function Attrs: noreturn
declare void @cc_wrong_number_of_arguments(i8*, i64, i64, i64) local_unnamed_addr #6

declare void @cc_invoke_byte_code_interpreter({ i64, i8*, i64, i64, i8**, i64 }*, i8*, i64) local_unnamed_addr #3

; Function Attrs: nounwind
declare void @cc_finish_gcroots_in_module({ i64, i8*, i64, i64, i8**, i64 }*) local_unnamed_addr #1

; Function Attrs: nounwind
declare void @cc_initialize_gcroots_in_module({ i64, i8*, i64, i64, i8**, i64 }*, i8**, i64, i8*, i8**, i64, i64, i8**) local_unnamed_addr #1

; Function Attrs: uwtable
define void @"<<clasp_startup>>_1"() #2 personality i32 (...)* @__gxx_personality_v0 {
entry:
  tail call void @cc_register_startup_function(i64 1, i8* (i8*)* nonnull @"RUN-ALL/home/mixotricha/workspace/s100_stuff/lisp/test.lisp")
  ret void
}

declare void @cc_register_startup_function(i64, i8* (i8*)*) local_unnamed_addr #3

attributes #0 = { uwtable "frame-pointer"="all" "optnone" }
attributes #1 = { nounwind "frame-pointer"="all" }
attributes #2 = { uwtable "frame-pointer"="all" }
attributes #3 = { "frame-pointer"="all" }
attributes #4 = { nofree nosync willreturn }
attributes #5 = { nofree nosync nounwind readnone speculatable willreturn }
attributes #6 = { noreturn "frame-pointer"="all" }

!llvm.ident = !{!0}
!llvm.dbg.cu = !{!1}
!llvm.module.flags = !{!4, !5}

!0 = !{!"Clasp"}
!1 = distinct !DICompileUnit(language: DW_LANG_C_plus_plus, file: !2, producer: "clasp Common Lisp compiler", isOptimized: false, flags: "-v", runtimeVersion: 1, splitDebugFilename: "the-split-name.log", emissionKind: FullDebug, enums: !3)
!2 = !DIFile(filename: "test.lisp", directory: "/home/mixotricha/workspace/s100_stuff/lisp", source: "difile-source")
!3 = !{}
!4 = !{i32 2, !"Dwarf Version", i32 4}
!5 = !{i32 2, !"Debug Info Version", i32 3}
!6 = distinct !DISubprogram(name: "RUN-ALL/home/mixotricha/workspace/s100_stuff/lisp/test.lisp", linkageName: "RUN-ALL/home/mixotricha/workspace/s100_stuff/lisp/test.lisp", scope: !2, file: !2, type: !7, spFlags: DISPFlagDefinition, unit: !1, retainedNodes: !3)
!7 = !DISubroutineType(types: !8)
!8 = !{!9}
!9 = !DIBasicType(name: "int", size: 64, encoding: DW_ATE_signed_fixed)
!10 = distinct !DISubprogram(name: "LAMBDA^COMMON-LISP^FN^^-lcl", linkageName: "LAMBDA^COMMON-LISP^FN^^-lcl", scope: !2, file: !2, line: 1320, type: !7, scopeLine: 1320, spFlags: DISPFlagDefinition, unit: !1, retainedNodes: !3)
!11 = !DILocation(line: 1320, scope: !10, inlinedAt: !12)
!12 = !DILocation(line: 48, column: 41, scope: !10)
!13 = !DILocation(line: 0, scope: !10)
!14 = distinct !DISubprogram(name: "LAMBDA^COMMON-LISP^FN^^-lcl.1", linkageName: "LAMBDA^COMMON-LISP^FN^^-lcl.1", scope: !2, file: !2, line: 48, type: !7, scopeLine: 48, spFlags: DISPFlagDefinition, unit: !1, retainedNodes: !3)
!15 = !DILocation(line: 48, column: 21, scope: !14)
!16 = !DILocation(line: 48, column: 27, scope: !14)
!17 = !DILocation(line: 1319, scope: !14, inlinedAt: !18)
!18 = !DILocation(line: 48, column: 31, scope: !14)
!19 = !DILocation(line: 0, scope: !14)
!20 = !DILocation(line: 1320, scope: !14, inlinedAt: !21)
!21 = !DILocation(line: 48, column: 41, scope: !14)
!22 = !DILocation(line: 48, column: 20, scope: !14)
!23 = !DILocation(line: 48, column: 9, scope: !14)
!24 = distinct !DISubprogram(name: "LAMBDA^COMMON-LISP^FN^^-xep", linkageName: "LAMBDA^COMMON-LISP^FN^^-xep", scope: !2, file: !2, line: 48, type: !7, scopeLine: 48, spFlags: DISPFlagDefinition, unit: !1, retainedNodes: !25)
!25 = !{!26, !28, !29}
!26 = !DILocalVariable(name: "rsa-closure", arg: 1, scope: !24, file: !2, line: 48, type: !27)
!27 = !DIBasicType(name: "T_O*", size: 64, encoding: DW_ATE_address)
!28 = !DILocalVariable(name: "rsa-nargs", arg: 2, scope: !24, file: !2, line: 48, type: !27)
!29 = !DILocalVariable(name: "rsa-args", arg: 3, scope: !24, file: !2, line: 48, type: !27)
!30 = !DILocation(line: 48, column: 9, scope: !24)
!31 = distinct !DISubprogram(name: "LAMBDA^COMMON-LISP^FN^^-xep1", linkageName: "LAMBDA^COMMON-LISP^FN^^-xep1", scope: !2, file: !2, line: 48, type: !7, scopeLine: 48, spFlags: DISPFlagDefinition, unit: !1, retainedNodes: !32)
!32 = !{!33, !34}
!33 = !DILocalVariable(name: "rsa-closure", arg: 1, scope: !31, file: !2, line: 48, type: !27)
!34 = !DILocalVariable(name: "rsa-arg0", arg: 2, scope: !31, file: !2, line: 48, type: !27)
!35 = !DILocation(line: 48, column: 9, scope: !31)
!36 = distinct !DISubprogram(name: "LAMBDA^COMMON-LISP^FN^^-lcl.2", linkageName: "LAMBDA^COMMON-LISP^FN^^-lcl.2", scope: !2, file: !2, line: 1320, type: !7, scopeLine: 1320, spFlags: DISPFlagDefinition, unit: !1, retainedNodes: !3)
!37 = !DILocation(line: 1320, scope: !36, inlinedAt: !38)
!38 = !DILocation(line: 48, column: 41, scope: !36)
!39 = !DILocation(line: 0, scope: !36)
!40 = distinct !DISubprogram(name: "MULLET^COMMON-LISP-USER^FN^^-lcl", linkageName: "MULLET^COMMON-LISP-USER^FN^^-lcl", scope: !2, file: !2, line: 47, type: !7, scopeLine: 47, spFlags: DISPFlagDefinition, unit: !1, retainedNodes: !3)
!41 = !DILocation(line: 48, column: 2, scope: !40)
!42 = !DILocation(line: 48, column: 9, scope: !40)
!43 = !DILocation(line: 48, column: 1, scope: !40)
!44 = !DILocation(line: 47, scope: !40)
!45 = distinct !DISubprogram(name: "MULLET^COMMON-LISP-USER^FN^^-xep", linkageName: "MULLET^COMMON-LISP-USER^FN^^-xep", scope: !2, file: !2, line: 47, type: !7, scopeLine: 47, spFlags: DISPFlagDefinition, unit: !1, retainedNodes: !46)
!46 = !{!47, !48, !49}
!47 = !DILocalVariable(name: "rsa-closure", arg: 1, scope: !45, file: !2, line: 47, type: !27)
!48 = !DILocalVariable(name: "rsa-nargs", arg: 2, scope: !45, file: !2, line: 47, type: !27)
!49 = !DILocalVariable(name: "rsa-args", arg: 3, scope: !45, file: !2, line: 47, type: !27)
!50 = !DILocation(line: 47, scope: !45)
!51 = distinct !DISubprogram(name: "MULLET^COMMON-LISP-USER^FN^^-xep1", linkageName: "MULLET^COMMON-LISP-USER^FN^^-xep1", scope: !2, file: !2, line: 47, type: !7, scopeLine: 47, spFlags: DISPFlagDefinition, unit: !1, retainedNodes: !52)
!52 = !{!53, !54}
!53 = !DILocalVariable(name: "rsa-closure", arg: 1, scope: !51, file: !2, line: 47, type: !27)
!54 = !DILocalVariable(name: "rsa-arg0", arg: 2, scope: !51, file: !2, line: 47, type: !27)
!55 = !DILocation(line: 47, scope: !51)
!56 = distinct !DISubprogram(name: "LAMBDA^COMMON-LISP^FN^^-lcl.3", linkageName: "LAMBDA^COMMON-LISP^FN^^-lcl.3", scope: !2, file: !2, line: 1319, type: !7, scopeLine: 1319, spFlags: DISPFlagDefinition, unit: !1, retainedNodes: !3)
!57 = !DILocation(line: 1319, scope: !56, inlinedAt: !58)
!58 = !DILocation(line: 48, column: 31, scope: !56)
!59 = !DILocation(line: 0, scope: !56)
!60 = distinct !DISubprogram(name: "___LAMBDA___test.lisp-^1^7-lcl", linkageName: "___LAMBDA___test.lisp-^1^7-lcl", scope: !2, file: !2, line: 47, type: !7, scopeLine: 47, spFlags: DISPFlagDefinition, unit: !1, retainedNodes: !3)
!61 = !DILocation(line: 47, scope: !60)
!62 = !DILocation(line: 47, column: 7, scope: !60)
!63 = distinct !DISubprogram(name: "___LAMBDA___test.lisp-^1^7-xep", linkageName: "___LAMBDA___test.lisp-^1^7-xep", scope: !2, file: !2, line: 47, type: !7, scopeLine: 47, spFlags: DISPFlagDefinition, unit: !1, retainedNodes: !64)
!64 = !{!65, !66, !67}
!65 = !DILocalVariable(name: "rsa-closure", arg: 1, scope: !63, file: !2, line: 47, type: !27)
!66 = !DILocalVariable(name: "rsa-nargs", arg: 2, scope: !63, file: !2, line: 47, type: !27)
!67 = !DILocalVariable(name: "rsa-args", arg: 3, scope: !63, file: !2, line: 47, type: !27)
!68 = !DILocation(line: 47, scope: !63)
!69 = distinct !DISubprogram(name: "___LAMBDA___test.lisp-^1^7-xep0", linkageName: "___LAMBDA___test.lisp-^1^7-xep0", scope: !2, file: !2, line: 47, type: !7, scopeLine: 47, spFlags: DISPFlagDefinition, unit: !1, retainedNodes: !70)
!70 = !{!71}
!71 = !DILocalVariable(name: "rsa-closure", arg: 1, scope: !69, file: !2, line: 47, type: !27)
!72 = !DILocation(line: 47, scope: !69)

^0 = module: (path: "test.bc", hash: (2613307525, 3941802794, 3999874289, 162355440, 3876725187))
^1 = gv: (name: "LAMBDA^COMMON-LISP^FN^^-lcl.2", summaries: (function: (module: ^0, flags: (linkage: internal, visibility: default, notEligibleToImport: 0, live: 0, dsoLocal: 1, canAutoHide: 0), insts: 16, calls: ((callee: ^26)), refs: (^2, readonly ^3)))) ; guid = 836727532489650802
^2 = gv: (name: "__gxx_personality_v0") ; guid = 1233668236132380018
^3 = gv: (name: "__clasp_literals_6", summaries: (variable: (module: ^0, flags: (linkage: internal, visibility: default, notEligibleToImport: 0, live: 0, dsoLocal: 1, canAutoHide: 0), varFlags: (readonly: 1, writeonly: 1, constant: 0)))) ; guid = 2385917153374968593
^4 = gv: (name: "___LAMBDA___test.lisp-^1^7-xep0", summaries: (function: (module: ^0, flags: (linkage: internal, visibility: default, notEligibleToImport: 0, live: 0, dsoLocal: 1, canAutoHide: 0), insts: 8, calls: ((callee: ^16)), refs: (^2)))) ; guid = 2988265188254994343
^5 = gv: (name: "function-vector-0", summaries: (variable: (module: ^0, flags: (linkage: internal, visibility: default, notEligibleToImport: 0, live: 0, dsoLocal: 1, canAutoHide: 0), varFlags: (readonly: 1, writeonly: 1, constant: 0), refs: (^24, ^21, ^34, ^6, ^22, ^12, ^7, ^13, ^25, ^1, ^30, ^20, ^17, ^15, ^16, ^8, ^4, ^9)))) ; guid = 3430535654063258586
^6 = gv: (name: "LAMBDA^COMMON-LISP^FN^^-xep1", summaries: (function: (module: ^0, flags: (linkage: internal, visibility: default, notEligibleToImport: 0, live: 0, dsoLocal: 1, canAutoHide: 0), insts: 8, calls: ((callee: ^21)), refs: (^2)))) ; guid = 3762026841290420944
^7 = gv: (name: "general_entry_point_redirect_3") ; guid = 4231849645555084545
^8 = gv: (name: "___LAMBDA___test.lisp-^1^7-xep", summaries: (function: (module: ^0, flags: (linkage: internal, visibility: default, notEligibleToImport: 0, live: 0, dsoLocal: 1, canAutoHide: 0), insts: 18, calls: ((callee: ^11), (callee: ^16)), refs: (^2)))) ; guid = 4777617862217247525
^9 = gv: (name: "general_entry_point_redirect_1") ; guid = 4983445954422537276
^10 = gv: (name: "cc_invoke_byte_code_interpreter") ; guid = 5154209146606176295
^11 = gv: (name: "cc_wrong_number_of_arguments") ; guid = 6616845875825991952
^12 = gv: (name: "general_entry_point_redirect_2") ; guid = 6694464161460361798
^13 = gv: (name: "general_entry_point_redirect_4") ; guid = 6916919235280226644
^14 = gv: (name: "llvm.dbg.value") ; guid = 7457163675545648777
^15 = gv: (name: "LAMBDA^COMMON-LISP^FN^^-lcl.3", summaries: (function: (module: ^0, flags: (linkage: internal, visibility: default, notEligibleToImport: 0, live: 0, dsoLocal: 1, canAutoHide: 0), insts: 16, calls: ((callee: ^26)), refs: (^2, readonly ^3)))) ; guid = 7976014581205732850
^16 = gv: (name: "___LAMBDA___test.lisp-^1^7-lcl", summaries: (function: (module: ^0, flags: (linkage: internal, visibility: default, notEligibleToImport: 0, live: 0, dsoLocal: 1, canAutoHide: 0), insts: 15, refs: (^2, readonly ^3)))) ; guid = 7987487845970909780
^17 = gv: (name: "MULLET^COMMON-LISP-USER^FN^^-xep1", summaries: (function: (module: ^0, flags: (linkage: internal, visibility: default, notEligibleToImport: 0, live: 0, dsoLocal: 1, canAutoHide: 0), insts: 8, calls: ((callee: ^30)), refs: (^2)))) ; guid = 8442706169183506037
^18 = gv: (name: "<<clasp_startup>>_1", summaries: (function: (module: ^0, flags: (linkage: external, visibility: default, notEligibleToImport: 0, live: 0, dsoLocal: 0, canAutoHide: 0), insts: 2, calls: ((callee: ^31)), refs: (^2, ^27)))) ; guid = 8584104111460293559
^19 = gv: (name: "startup-byte-code-0", summaries: (variable: (module: ^0, flags: (linkage: internal, visibility: default, notEligibleToImport: 0, live: 0, dsoLocal: 1, canAutoHide: 0), varFlags: (readonly: 1, writeonly: 0, constant: 1)))) ; guid = 9379755694020783565
^20 = gv: (name: "MULLET^COMMON-LISP-USER^FN^^-xep", summaries: (function: (module: ^0, flags: (linkage: internal, visibility: default, notEligibleToImport: 0, live: 0, dsoLocal: 1, canAutoHide: 0), insts: 17, calls: ((callee: ^11), (callee: ^30)), refs: (^2)))) ; guid = 9646527820054216674
^21 = gv: (name: "LAMBDA^COMMON-LISP^FN^^-lcl.1", summaries: (function: (module: ^0, flags: (linkage: internal, visibility: default, notEligibleToImport: 0, live: 0, dsoLocal: 1, canAutoHide: 0), insts: 54, calls: ((callee: ^15), (callee: ^1), (callee: ^24)), refs: (^2, readonly ^3)))) ; guid = 11089018720274613809
^22 = gv: (name: "general_entry_point_redirect_0") ; guid = 11169415489819731409
^23 = gv: (name: "llvm.experimental.stackmap") ; guid = 12181153508066107120
^24 = gv: (name: "LAMBDA^COMMON-LISP^FN^^-lcl", summaries: (function: (module: ^0, flags: (linkage: internal, visibility: default, notEligibleToImport: 0, live: 0, dsoLocal: 1, canAutoHide: 0), insts: 16, calls: ((callee: ^26)), refs: (^2, readonly ^3)))) ; guid = 12588527104231653766
^25 = gv: (name: "general_entry_point_redirect_5") ; guid = 13097070189227353181
^26 = gv: (name: "cc_error_type_error") ; guid = 13400822479811337210
^27 = gv: (name: "RUN-ALL/home/mixotricha/workspace/s100_stuff/lisp/test.lisp", summaries: (function: (module: ^0, flags: (linkage: internal, visibility: default, notEligibleToImport: 0, live: 0, dsoLocal: 1, canAutoHide: 0), insts: 5, funcFlags: (readNone: 0, readOnly: 0, noRecurse: 0, returnDoesNotAlias: 1, noInline: 0, alwaysInline: 0), calls: ((callee: ^29), (callee: ^10), (callee: ^33)), refs: (^2, ^32, ^5, ^3, ^19)))) ; guid = 14454678787356714603
^28 = gv: (name: "llvm.used", summaries: (variable: (module: ^0, flags: (linkage: appending, visibility: default, notEligibleToImport: 0, live: 1, dsoLocal: 0, canAutoHide: 0), varFlags: (readonly: 0, writeonly: 0, constant: 0), refs: (^18)))) ; guid = 15665353970260777610
^29 = gv: (name: "cc_initialize_gcroots_in_module") ; guid = 16061929698700274331
^30 = gv: (name: "MULLET^COMMON-LISP-USER^FN^^-lcl", summaries: (function: (module: ^0, flags: (linkage: internal, visibility: default, notEligibleToImport: 0, live: 0, dsoLocal: 1, canAutoHide: 0), insts: 13, refs: (^2, readonly ^3)))) ; guid = 16084190050987491539
^31 = gv: (name: "cc_register_startup_function") ; guid = 16599329415413872781
^32 = gv: (name: "__clasp_gcroots_in_module_4", summaries: (variable: (module: ^0, flags: (linkage: internal, visibility: default, notEligibleToImport: 0, live: 0, dsoLocal: 1, canAutoHide: 0), varFlags: (readonly: 1, writeonly: 1, constant: 0)))) ; guid = 16666071918841845982
^33 = gv: (name: "cc_finish_gcroots_in_module") ; guid = 17465869223184922034
^34 = gv: (name: "LAMBDA^COMMON-LISP^FN^^-xep", summaries: (function: (module: ^0, flags: (linkage: internal, visibility: default, notEligibleToImport: 0, live: 0, dsoLocal: 1, canAutoHide: 0), insts: 17, calls: ((callee: ^11), (callee: ^21)), refs: (^2)))) ; guid = 18056603222489947572
^35 = blockcount: 32
