
(module MODULE_BEAGLEBONEBLACK (layer F.Cu) (tedit 61EE0B59)
  (descr "")
  (fp_text reference REF** (at -38.735 -28.834 0) (layer F.SilkS)
    (effects (font (size 1.4 1.4) (thickness 0.15)))
  )
  (fp_text value MODULE_BEAGLEBONEBLACK (at -23.622 28.694 0) (layer F.Fab)
    (effects (font (size 1.4 1.4) (thickness 0.15)))
  )
  (pad P8_1 thru_hole rect (at -23.495 -22.86) (size 1.524 1.524) (drill 0.762) (layers *.Cu *.Mask))
  (pad P2 thru_hole circle (at -28.575 24.13) (size 4.445 4.445) (drill 3.175) (layers *.Cu *.Mask))
  (pad P1 thru_hole circle (at -28.575 -24.13) (size 4.445 4.445) (drill 3.175) (layers *.Cu *.Mask))
  (pad P3 thru_hole circle (at 37.465 20.955) (size 4.445 4.445) (drill 3.175) (layers *.Cu *.Mask))
  (pad P4 thru_hole circle (at 37.465 -20.955) (size 4.445 4.445) (drill 3.175) (layers *.Cu *.Mask))
  (pad P8_2 thru_hole circle (at -23.495 -25.4) (size 1.524 1.524) (drill 0.762) (layers *.Cu *.Mask))
  (pad P8_3 thru_hole circle (at -20.955 -22.86) (size 1.524 1.524) (drill 0.762) (layers *.Cu *.Mask))
  (pad P8_4 thru_hole circle (at -20.955 -25.4) (size 1.524 1.524) (drill 0.762) (layers *.Cu *.Mask))
  (pad P8_5 thru_hole circle (at -18.415 -22.86) (size 1.524 1.524) (drill 0.762) (layers *.Cu *.Mask))
  (pad P8_6 thru_hole circle (at -18.415 -25.4) (size 1.524 1.524) (drill 0.762) (layers *.Cu *.Mask))
  (pad P8_7 thru_hole circle (at -15.875 -22.86) (size 1.524 1.524) (drill 0.762) (layers *.Cu *.Mask))
  (pad P8_8 thru_hole circle (at -15.875 -25.4) (size 1.524 1.524) (drill 0.762) (layers *.Cu *.Mask))
  (pad P8_9 thru_hole circle (at -13.335 -22.86) (size 1.524 1.524) (drill 0.762) (layers *.Cu *.Mask))
  (pad P8_10 thru_hole circle (at -13.335 -25.4) (size 1.524 1.524) (drill 0.762) (layers *.Cu *.Mask))
  (pad P8_11 thru_hole circle (at -10.795 -22.86) (size 1.524 1.524) (drill 0.762) (layers *.Cu *.Mask))
  (pad P8_12 thru_hole circle (at -10.795 -25.4) (size 1.524 1.524) (drill 0.762) (layers *.Cu *.Mask))
  (pad P8_13 thru_hole circle (at -8.255 -22.86) (size 1.524 1.524) (drill 0.762) (layers *.Cu *.Mask))
  (pad P8_14 thru_hole circle (at -8.255 -25.4) (size 1.524 1.524) (drill 0.762) (layers *.Cu *.Mask))
  (pad P8_15 thru_hole circle (at -5.715 -22.86) (size 1.524 1.524) (drill 0.762) (layers *.Cu *.Mask))
  (pad P8_16 thru_hole circle (at -5.715 -25.4) (size 1.524 1.524) (drill 0.762) (layers *.Cu *.Mask))
  (pad P8_17 thru_hole circle (at -3.175 -22.86) (size 1.524 1.524) (drill 0.762) (layers *.Cu *.Mask))
  (pad P8_18 thru_hole circle (at -3.175 -25.4) (size 1.524 1.524) (drill 0.762) (layers *.Cu *.Mask))
  (pad P8_19 thru_hole circle (at -0.635 -22.86) (size 1.524 1.524) (drill 0.762) (layers *.Cu *.Mask))
  (pad P8_20 thru_hole circle (at -0.635 -25.4) (size 1.524 1.524) (drill 0.762) (layers *.Cu *.Mask))
  (pad P8_21 thru_hole circle (at 1.905 -22.86) (size 1.524 1.524) (drill 0.762) (layers *.Cu *.Mask))
  (pad P8_22 thru_hole circle (at 1.905 -25.4) (size 1.524 1.524) (drill 0.762) (layers *.Cu *.Mask))
  (pad P8_23 thru_hole circle (at 4.445 -22.86) (size 1.524 1.524) (drill 0.762) (layers *.Cu *.Mask))
  (pad P8_24 thru_hole circle (at 4.445 -25.4) (size 1.524 1.524) (drill 0.762) (layers *.Cu *.Mask))
  (pad P8_25 thru_hole circle (at 6.985 -22.86) (size 1.524 1.524) (drill 0.762) (layers *.Cu *.Mask))
  (pad P8_26 thru_hole circle (at 6.985 -25.4) (size 1.524 1.524) (drill 0.762) (layers *.Cu *.Mask))
  (pad P8_27 thru_hole circle (at 9.525 -22.86) (size 1.524 1.524) (drill 0.762) (layers *.Cu *.Mask))
  (pad P8_28 thru_hole circle (at 9.525 -25.4) (size 1.524 1.524) (drill 0.762) (layers *.Cu *.Mask))
  (pad P8_29 thru_hole circle (at 12.065 -22.86) (size 1.524 1.524) (drill 0.762) (layers *.Cu *.Mask))
  (pad P8_30 thru_hole circle (at 12.065 -25.4) (size 1.524 1.524) (drill 0.762) (layers *.Cu *.Mask))
  (pad P8_31 thru_hole circle (at 14.605 -22.86) (size 1.524 1.524) (drill 0.762) (layers *.Cu *.Mask))
  (pad P8_32 thru_hole circle (at 14.605 -25.4) (size 1.524 1.524) (drill 0.762) (layers *.Cu *.Mask))
  (pad P8_33 thru_hole circle (at 17.145 -22.86) (size 1.524 1.524) (drill 0.762) (layers *.Cu *.Mask))
  (pad P8_34 thru_hole circle (at 17.145 -25.4) (size 1.524 1.524) (drill 0.762) (layers *.Cu *.Mask))
  (pad P8_35 thru_hole circle (at 19.685 -22.86) (size 1.524 1.524) (drill 0.762) (layers *.Cu *.Mask))
  (pad P8_36 thru_hole circle (at 19.685 -25.4) (size 1.524 1.524) (drill 0.762) (layers *.Cu *.Mask))
  (pad P8_37 thru_hole circle (at 22.225 -22.86) (size 1.524 1.524) (drill 0.762) (layers *.Cu *.Mask))
  (pad P8_38 thru_hole circle (at 22.225 -25.4) (size 1.524 1.524) (drill 0.762) (layers *.Cu *.Mask))
  (pad P8_39 thru_hole circle (at 24.765 -22.86) (size 1.524 1.524) (drill 0.762) (layers *.Cu *.Mask))
  (pad P8_40 thru_hole circle (at 24.765 -25.4) (size 1.524 1.524) (drill 0.762) (layers *.Cu *.Mask))
  (pad P8_41 thru_hole circle (at 27.305 -22.86) (size 1.524 1.524) (drill 0.762) (layers *.Cu *.Mask))
  (pad P8_42 thru_hole circle (at 27.305 -25.4) (size 1.524 1.524) (drill 0.762) (layers *.Cu *.Mask))
  (pad P8_43 thru_hole circle (at 29.845 -22.86) (size 1.524 1.524) (drill 0.762) (layers *.Cu *.Mask))
  (pad P8_44 thru_hole circle (at 29.845 -25.4) (size 1.524 1.524) (drill 0.762) (layers *.Cu *.Mask))
  (pad P8_45 thru_hole circle (at 32.385 -22.86) (size 1.524 1.524) (drill 0.762) (layers *.Cu *.Mask))
  (pad P8_46 thru_hole circle (at 32.385 -25.4) (size 1.524 1.524) (drill 0.762) (layers *.Cu *.Mask))
  (pad P9_1 thru_hole rect (at -23.495 25.4) (size 1.524 1.524) (drill 0.762) (layers *.Cu *.Mask))
  (pad P9_2 thru_hole circle (at -23.495 22.86) (size 1.524 1.524) (drill 0.762) (layers *.Cu *.Mask))
  (pad P9_3 thru_hole circle (at -20.955 25.4) (size 1.524 1.524) (drill 0.762) (layers *.Cu *.Mask))
  (pad P9_4 thru_hole circle (at -20.955 22.86) (size 1.524 1.524) (drill 0.762) (layers *.Cu *.Mask))
  (pad P9_5 thru_hole circle (at -18.415 25.4) (size 1.524 1.524) (drill 0.762) (layers *.Cu *.Mask))
  (pad P9_6 thru_hole circle (at -18.415 22.86) (size 1.524 1.524) (drill 0.762) (layers *.Cu *.Mask))
  (pad P9_7 thru_hole circle (at -15.875 25.4) (size 1.524 1.524) (drill 0.762) (layers *.Cu *.Mask))
  (pad P9_8 thru_hole circle (at -15.875 22.86) (size 1.524 1.524) (drill 0.762) (layers *.Cu *.Mask))
  (pad P9_9 thru_hole circle (at -13.335 25.4) (size 1.524 1.524) (drill 0.762) (layers *.Cu *.Mask))
  (pad P9_10 thru_hole circle (at -13.335 22.86) (size 1.524 1.524) (drill 0.762) (layers *.Cu *.Mask))
  (pad P9_11 thru_hole circle (at -10.795 25.4) (size 1.524 1.524) (drill 0.762) (layers *.Cu *.Mask))
  (pad P9_12 thru_hole circle (at -10.795 22.86) (size 1.524 1.524) (drill 0.762) (layers *.Cu *.Mask))
  (pad P9_13 thru_hole circle (at -8.255 25.4) (size 1.524 1.524) (drill 0.762) (layers *.Cu *.Mask))
  (pad P9_14 thru_hole circle (at -8.255 22.86) (size 1.524 1.524) (drill 0.762) (layers *.Cu *.Mask))
  (pad P9_15 thru_hole circle (at -5.715 25.4) (size 1.524 1.524) (drill 0.762) (layers *.Cu *.Mask))
  (pad P9_16 thru_hole circle (at -5.715 22.86) (size 1.524 1.524) (drill 0.762) (layers *.Cu *.Mask))
  (pad P9_17 thru_hole circle (at -3.175 25.4) (size 1.524 1.524) (drill 0.762) (layers *.Cu *.Mask))
  (pad P9_18 thru_hole circle (at -3.175 22.86) (size 1.524 1.524) (drill 0.762) (layers *.Cu *.Mask))
  (pad P9_19 thru_hole circle (at -0.635 25.4) (size 1.524 1.524) (drill 0.762) (layers *.Cu *.Mask))
  (pad P9_20 thru_hole circle (at -0.635 22.86) (size 1.524 1.524) (drill 0.762) (layers *.Cu *.Mask))
  (pad P9_21 thru_hole circle (at 1.905 25.4) (size 1.524 1.524) (drill 0.762) (layers *.Cu *.Mask))
  (pad P9_22 thru_hole circle (at 1.905 22.86) (size 1.524 1.524) (drill 0.762) (layers *.Cu *.Mask))
  (pad P9_23 thru_hole circle (at 4.445 25.4) (size 1.524 1.524) (drill 0.762) (layers *.Cu *.Mask))
  (pad P9_24 thru_hole circle (at 4.445 22.86) (size 1.524 1.524) (drill 0.762) (layers *.Cu *.Mask))
  (pad P9_25 thru_hole circle (at 6.985 25.4) (size 1.524 1.524) (drill 0.762) (layers *.Cu *.Mask))
  (pad P9_26 thru_hole circle (at 6.985 22.86) (size 1.524 1.524) (drill 0.762) (layers *.Cu *.Mask))
  (pad P9_27 thru_hole circle (at 9.525 25.4) (size 1.524 1.524) (drill 0.762) (layers *.Cu *.Mask))
  (pad P9_28 thru_hole circle (at 9.525 22.86) (size 1.524 1.524) (drill 0.762) (layers *.Cu *.Mask))
  (pad P9_29 thru_hole circle (at 12.065 25.4) (size 1.524 1.524) (drill 0.762) (layers *.Cu *.Mask))
  (pad P9_30 thru_hole circle (at 12.065 22.86) (size 1.524 1.524) (drill 0.762) (layers *.Cu *.Mask))
  (pad P9_31 thru_hole circle (at 14.605 25.4) (size 1.524 1.524) (drill 0.762) (layers *.Cu *.Mask))
  (pad P9_32 thru_hole circle (at 14.605 22.86) (size 1.524 1.524) (drill 0.762) (layers *.Cu *.Mask))
  (pad P9_33 thru_hole circle (at 17.145 25.4) (size 1.524 1.524) (drill 0.762) (layers *.Cu *.Mask))
  (pad P9_34 thru_hole circle (at 17.145 22.86) (size 1.524 1.524) (drill 0.762) (layers *.Cu *.Mask))
  (pad P9_35 thru_hole circle (at 19.685 25.4) (size 1.524 1.524) (drill 0.762) (layers *.Cu *.Mask))
  (pad P9_36 thru_hole circle (at 19.685 22.86) (size 1.524 1.524) (drill 0.762) (layers *.Cu *.Mask))
  (pad P9_37 thru_hole circle (at 22.225 25.4) (size 1.524 1.524) (drill 0.762) (layers *.Cu *.Mask))
  (pad P9_38 thru_hole circle (at 22.225 22.86) (size 1.524 1.524) (drill 0.762) (layers *.Cu *.Mask))
  (pad P9_39 thru_hole circle (at 24.765 25.4) (size 1.524 1.524) (drill 0.762) (layers *.Cu *.Mask))
  (pad P9_40 thru_hole circle (at 24.765 22.86) (size 1.524 1.524) (drill 0.762) (layers *.Cu *.Mask))
  (pad P9_41 thru_hole circle (at 27.305 25.4) (size 1.524 1.524) (drill 0.762) (layers *.Cu *.Mask))
  (pad P9_42 thru_hole circle (at 27.305 22.86) (size 1.524 1.524) (drill 0.762) (layers *.Cu *.Mask))
  (pad P9_43 thru_hole circle (at 29.845 25.4) (size 1.524 1.524) (drill 0.762) (layers *.Cu *.Mask))
  (pad P9_44 thru_hole circle (at 29.845 22.86) (size 1.524 1.524) (drill 0.762) (layers *.Cu *.Mask))
  (pad P9_45 thru_hole circle (at 32.385 25.4) (size 1.524 1.524) (drill 0.762) (layers *.Cu *.Mask))
  (pad P9_46 thru_hole circle (at 32.385 22.86) (size 1.524 1.524) (drill 0.762) (layers *.Cu *.Mask))
  (pad J1_1 thru_hole rect (at -0.635 19.685) (size 1.524 1.524) (drill 0.762) (layers *.Cu *.Mask))
  (pad J1_2 thru_hole circle (at 1.905 19.685) (size 1.524 1.524) (drill 0.762) (layers *.Cu *.Mask))
  (pad J1_3 thru_hole circle (at 4.445 19.685) (size 1.524 1.524) (drill 0.762) (layers *.Cu *.Mask))
  (pad J1_4 thru_hole circle (at 6.985 19.685) (size 1.524 1.524) (drill 0.762) (layers *.Cu *.Mask))
  (pad J1_5 thru_hole circle (at 9.525 19.685) (size 1.524 1.524) (drill 0.762) (layers *.Cu *.Mask))
  (pad J1_6 thru_hole circle (at 12.065 19.685) (size 1.524 1.524) (drill 0.762) (layers *.Cu *.Mask))
  (fp_line (start -43.18 27.305) (end -43.18 -27.305) (layer F.Fab) (width 0.127))
  (fp_line (start -43.18 -27.305) (end 43.18 -27.305) (layer F.Fab) (width 0.127))
  (fp_line (start 43.18 -27.305) (end 43.18 27.305) (layer F.Fab) (width 0.127))
  (fp_line (start 43.18 27.305) (end -43.18 27.305) (layer F.Fab) (width 0.127))
  (fp_line (start -43.18 27.305) (end -43.18 -27.305) (layer F.SilkS) (width 0.127))
  (fp_line (start -43.18 -27.305) (end 43.18 -27.305) (layer F.SilkS) (width 0.127))
  (fp_line (start 43.18 -27.305) (end 43.18 27.305) (layer F.SilkS) (width 0.127))
  (fp_line (start 43.18 27.305) (end -43.18 27.305) (layer F.SilkS) (width 0.127))
  (fp_line (start -43.43 -27.555) (end 43.43 -27.555) (layer F.CrtYd) (width 0.05))
  (fp_line (start 43.43 -27.555) (end 43.43 27.555) (layer F.CrtYd) (width 0.05))
  (fp_line (start 43.43 27.555) (end -43.43 27.555) (layer F.CrtYd) (width 0.05))
  (fp_line (start -43.43 27.555) (end -43.43 -27.555) (layer F.CrtYd) (width 0.05))
)