EESchema Schematic File Version 4
EELAYER 30 0
EELAYER END
$Descr A4 11693 8268
encoding utf-8
Sheet 2 2
Title ""
Date ""
Rev ""
Comp ""
Comment1 ""
Comment2 ""
Comment3 ""
Comment4 ""
$EndDescr
$Comp
L power-rescue:GND-s100_Z80-V2-rescue #PWR?
U 1 1 4B04BD81
P 30700 17600
AR Path="/69698AFC4B04BD81" Ref="#PWR?"  Part="1" 
AR Path="/393639364B04BD81" Ref="#PWR?"  Part="1" 
AR Path="/4B04BD81" Ref="#PWR047"  Part="1" 
AR Path="/DCBAABCD4B04BD81" Ref="#PWR024"  Part="1" 
AR Path="/94B04BD81" Ref="#PWR35"  Part="1" 
AR Path="/25E4B04BD81" Ref="#PWR034"  Part="1" 
AR Path="/5AD7153D4B04BD81" Ref="#PWR035"  Part="1" 
AR Path="/A4B04BD81" Ref="#PWR048"  Part="1" 
AR Path="/40256F1A4B04BD81" Ref="#PWR08"  Part="1" 
AR Path="/6FE901F74B04BD81" Ref="#PWR018"  Part="1" 
AR Path="/3FEFFFFF4B04BD81" Ref="#PWR035"  Part="1" 
AR Path="/23D8D44B04BD81" Ref="#PWR035"  Part="1" 
AR Path="/3D8EA0004B04BD81" Ref="#PWR024"  Part="1" 
AR Path="/3DA360004B04BD81" Ref="#PWR08"  Part="1" 
AR Path="/3D7E00004B04BD81" Ref="#PWR08"  Part="1" 
AR Path="/40286F1A4B04BD81" Ref="#PWR08"  Part="1" 
AR Path="/402A08B44B04BD81" Ref="#PWR08"  Part="1" 
AR Path="/402588B44B04BD81" Ref="#PWR08"  Part="1" 
AR Path="/FFFFFFF04B04BD81" Ref="#PWR72"  Part="1" 
AR Path="/23D2034B04BD81" Ref="#PWR08"  Part="1" 
AR Path="/A84B04BD81" Ref="#PWR34"  Part="1" 
AR Path="/755D912A4B04BD81" Ref="#PWR012"  Part="1" 
AR Path="/6FF0DD404B04BD81" Ref="#PWR053"  Part="1" 
AR Path="/363030314B04BD81" Ref="#PWR034"  Part="1" 
AR Path="/3FE224DD4B04BD81" Ref="#PWR016"  Part="1" 
AR Path="/402955814B04BD81" Ref="#PWR016"  Part="1" 
AR Path="/402C08B44B04BD81" Ref="#PWR017"  Part="1" 
AR Path="/314B04BD81" Ref="#PWR018"  Part="1" 
AR Path="/402BEF1A4B04BD81" Ref="#PWR018"  Part="1" 
AR Path="/40293BE74B04BD81" Ref="#PWR020"  Part="1" 
AR Path="/402C55814B04BD81" Ref="#PWR023"  Part="1" 
AR Path="/40273BE74B04BD81" Ref="#PWR024"  Part="1" 
AR Path="/2600004B04BD81" Ref="#PWR035"  Part="1" 
AR Path="/402908B44B04BD81" Ref="#PWR020"  Part="1" 
AR Path="/3D6CC0004B04BD81" Ref="#PWR017"  Part="1" 
AR Path="/3D5A40004B04BD81" Ref="#PWR017"  Part="1" 
AR Path="/402755814B04BD81" Ref="#PWR025"  Part="1" 
AR Path="/4030AAC04B04BD81" Ref="#PWR025"  Part="1" 
AR Path="/14B04BD81" Ref="#PWR066"  Part="1" 
AR Path="/4031DDF34B04BD81" Ref="#PWR026"  Part="1" 
AR Path="/3FE88B434B04BD81" Ref="#PWR026"  Part="1" 
AR Path="/4032778D4B04BD81" Ref="#PWR032"  Part="1" 
AR Path="/403091264B04BD81" Ref="#PWR035"  Part="1" 
AR Path="/403051264B04BD81" Ref="#PWR035"  Part="1" 
AR Path="/4032F78D4B04BD81" Ref="#PWR035"  Part="1" 
AR Path="/403251264B04BD81" Ref="#PWR035"  Part="1" 
AR Path="/4032AAC04B04BD81" Ref="#PWR035"  Part="1" 
AR Path="/4030D1264B04BD81" Ref="#PWR035"  Part="1" 
AR Path="/4031778D4B04BD81" Ref="#PWR035"  Part="1" 
AR Path="/3FEA24DD4B04BD81" Ref="#PWR035"  Part="1" 
AR Path="/6FE934E34B04BD81" Ref="#PWR051"  Part="1" 
AR Path="/773F65F14B04BD81" Ref="#PWR053"  Part="1" 
AR Path="/773F8EB44B04BD81" Ref="#PWR051"  Part="1" 
AR Path="/23C9F04B04BD81" Ref="#PWR54"  Part="1" 
AR Path="/23BC884B04BD81" Ref="#PWR053"  Part="1" 
AR Path="/DC0C124B04BD81" Ref="#PWR035"  Part="1" 
AR Path="/6684D64B04BD81" Ref="#PWR051"  Part="1" 
AR Path="/23C34C4B04BD81" Ref="#PWR052"  Part="1" 
AR Path="/23CBC44B04BD81" Ref="#PWR051"  Part="1" 
AR Path="/23C6504B04BD81" Ref="#PWR067"  Part="1" 
AR Path="/39803EA4B04BD81" Ref="#PWR036"  Part="1" 
AR Path="/FFFFFFFF4B04BD81" Ref="#PWR053"  Part="1" 
AR Path="/6FE934344B04BD81" Ref="#PWR65"  Part="1" 
AR Path="/7E0073254B04BD81" Ref="#PWR06"  Part="1" 
AR Path="/73254B04BD81" Ref="#PWR079"  Part="1" 
AR Path="/8CEE4B04BD81" Ref="#PWR079"  Part="1" 
AR Path="/23D9004B04BD81" Ref="#PWR051"  Part="1" 
AR Path="/91964B04BD81" Ref="#PWR059"  Part="1" 
AR Path="/77F16B254B04BD81" Ref="#PWR046"  Part="1" 
AR Path="/23D83C4B04BD81" Ref="#PWR67"  Part="1" 
AR Path="/47907FA4B04BD81" Ref="#PWR066"  Part="1" 
AR Path="/8D384B04BD81" Ref="#PWR066"  Part="1" 
AR Path="/D058E04B04BD81" Ref="#PWR053"  Part="1" 
AR Path="/3C64B04BD81" Ref="#PWR067"  Part="1" 
AR Path="/2F4A4B04BD81" Ref="#PWR067"  Part="1" 
AR Path="/24B04BD81" Ref="#PWR54"  Part="1" 
AR Path="/D1C3384B04BD81" Ref="#PWR053"  Part="1" 
F 0 "#PWR047" H 30700 17600 30  0001 C CNN
F 1 "GND" H 30700 17530 30  0001 C CNN
F 2 "" H 30700 17600 50  0001 C CNN
F 3 "" H 30700 17600 50  0001 C CNN
	1    30700 17600
	1    0    0    -1  
$EndComp
Text Notes 30300 17350 0    60   ~ 0
Card Ejector Mounting Holes
$Comp
L CONN_1 P34
U 1 1 4A0CC099
P 30850 17500
AR Path="/FFFFFFFF4A0CC099" Ref="P34"  Part="1" 
AR Path="/4A0CC099" Ref="P34"  Part="1" 
AR Path="/94A0CC099" Ref="P34"  Part="1" 
AR Path="/6FF0DD404A0CC099" Ref="P34"  Part="1" 
AR Path="/23D6E04A0CC099" Ref="P34"  Part="1" 
AR Path="/5AD7153D4A0CC099" Ref="P34"  Part="1" 
AR Path="/A4A0CC099" Ref="P34"  Part="1" 
AR Path="/755D912A4A0CC099" Ref="P34"  Part="1" 
AR Path="/3FE08B434A0CC099" Ref="P34"  Part="1" 
AR Path="/3DA360004A0CC099" Ref="P34"  Part="1" 
AR Path="/23D9304A0CC099" Ref="P34"  Part="1" 
AR Path="/3FEFFFFF4A0CC099" Ref="P34"  Part="1" 
AR Path="/23D8D44A0CC099" Ref="P34"  Part="1" 
AR Path="/3D8EA0004A0CC099" Ref="P34"  Part="1" 
AR Path="/402B08B44A0CC099" Ref="P34"  Part="1" 
AR Path="/4026A24D4A0CC099" Ref="P34"  Part="1" 
AR Path="/3FE88B434A0CC099" Ref="P34"  Part="1" 
AR Path="/3D7E00004A0CC099" Ref="P34"  Part="1" 
AR Path="/402988B44A0CC099" Ref="P34"  Part="1" 
AR Path="/6FE901F74A0CC099" Ref="P34"  Part="1" 
AR Path="/3D6CC0004A0CC099" Ref="P34"  Part="1" 
AR Path="/14A0CC099" Ref="P34"  Part="1" 
AR Path="/FFFFFFF04A0CC099" Ref="P34"  Part="1" 
AR Path="/23C2344A0CC099" Ref="P34"  Part="1" 
AR Path="/DCBAABCD4A0CC099" Ref="P34"  Part="1" 
AR Path="/5AD746F64A0CC099" Ref="P34"  Part="1" 
AR Path="/4027EF1A4A0CC099" Ref="P34"  Part="1" 
AR Path="/402A6F1A4A0CC099" Ref="P34"  Part="1" 
AR Path="/4029BBE74A0CC099" Ref="P34"  Part="1" 
AR Path="/402A224D4A0CC099" Ref="P34"  Part="1" 
AR Path="/402A55814A0CC099" Ref="P34"  Part="1" 
AR Path="/4026224D4A0CC099" Ref="P34"  Part="1" 
AR Path="/3D6220004A0CC099" Ref="P34"  Part="1" 
AR Path="/3D9720004A0CC099" Ref="P34"  Part="1" 
AR Path="/2600004A0CC099" Ref="P34"  Part="1" 
AR Path="/402C3BE74A0CC099" Ref="P34"  Part="1" 
AR Path="/402955814A0CC099" Ref="P34"  Part="1" 
AR Path="/40293BE74A0CC099" Ref="P34"  Part="1" 
AR Path="/402555814A0CC099" Ref="P34"  Part="1" 
AR Path="/3FED58104A0CC099" Ref="P34"  Part="1" 
AR Path="/402688B44A0CC099" Ref="P34"  Part="1" 
AR Path="/3FE441894A0CC099" Ref="P34"  Part="1" 
AR Path="/B84A0CC099" Ref="P34"  Part="1" 
AR Path="/4029D5814A0CC099" Ref="P34"  Part="1" 
AR Path="/6FF405304A0CC099" Ref="P34"  Part="1" 
AR Path="/40256F1A4A0CC099" Ref="P34"  Part="1" 
AR Path="/40286F1A4A0CC099" Ref="P34"  Part="1" 
AR Path="/402A08B44A0CC099" Ref="P34"  Part="1" 
AR Path="/402588B44A0CC099" Ref="P34"  Part="1" 
AR Path="/23D2034A0CC099" Ref="P34"  Part="1" 
AR Path="/A84A0CC099" Ref="P34"  Part="1" 
AR Path="/3FE224DD4A0CC099" Ref="P34"  Part="1" 
AR Path="/402C08B44A0CC099" Ref="P34"  Part="1" 
AR Path="/402BEF1A4A0CC099" Ref="P34"  Part="1" 
AR Path="/402C55814A0CC099" Ref="P34"  Part="1" 
AR Path="/40273BE74A0CC099" Ref="P34"  Part="1" 
AR Path="/402908B44A0CC099" Ref="P34"  Part="1" 
AR Path="/3D5A40004A0CC099" Ref="P34"  Part="1" 
AR Path="/402755814A0CC099" Ref="P34"  Part="1" 
AR Path="/4030AAC04A0CC099" Ref="P34"  Part="1" 
AR Path="/4031DDF34A0CC099" Ref="P34"  Part="1" 
AR Path="/4032778D4A0CC099" Ref="P34"  Part="1" 
AR Path="/403091264A0CC099" Ref="P34"  Part="1" 
AR Path="/403051264A0CC099" Ref="P34"  Part="1" 
AR Path="/4032F78D4A0CC099" Ref="P34"  Part="1" 
AR Path="/403251264A0CC099" Ref="P34"  Part="1" 
AR Path="/4032AAC04A0CC099" Ref="P34"  Part="1" 
AR Path="/4030D1264A0CC099" Ref="P34"  Part="1" 
AR Path="/4031778D4A0CC099" Ref="P34"  Part="1" 
AR Path="/3FEA24DD4A0CC099" Ref="P34"  Part="1" 
AR Path="/6FE934E34A0CC099" Ref="P34"  Part="1" 
AR Path="/773F65F14A0CC099" Ref="P34"  Part="1" 
AR Path="/773F8EB44A0CC099" Ref="P34"  Part="1" 
AR Path="/23C9F04A0CC099" Ref="P34"  Part="1" 
AR Path="/24A0CC099" Ref="P34"  Part="1" 
AR Path="/23BC884A0CC099" Ref="P34"  Part="1" 
AR Path="/DC0C124A0CC099" Ref="P34"  Part="1" 
AR Path="/23C34C4A0CC099" Ref="P34"  Part="1" 
AR Path="/23CBC44A0CC099" Ref="P34"  Part="1" 
AR Path="/23C6504A0CC099" Ref="P34"  Part="1" 
AR Path="/39803EA4A0CC099" Ref="P34"  Part="1" 
AR Path="/6FE934344A0CC099" Ref="P34"  Part="1" 
AR Path="/7E0073254A0CC099" Ref="P34"  Part="1" 
AR Path="/73254A0CC099" Ref="P34"  Part="1" 
AR Path="/8CEE4A0CC099" Ref="P34"  Part="1" 
AR Path="/23D9004A0CC099" Ref="P34"  Part="1" 
AR Path="/91964A0CC099" Ref="P34"  Part="1" 
AR Path="/77F16B254A0CC099" Ref="P34"  Part="1" 
AR Path="/23D83C4A0CC099" Ref="P34"  Part="1" 
AR Path="/8D384A0CC099" Ref="P34"  Part="1" 
AR Path="/D058E04A0CC099" Ref="P34"  Part="1" 
AR Path="/3C64A0CC099" Ref="P34"  Part="1" 
AR Path="/2F4A4A0CC099" Ref="P34"  Part="1" 
AR Path="/D1C3384A0CC099" Ref="P34"  Part="1" 
F 0 "P34" H 30930 17500 40  0000 C CNN
F 1 "CONN_1" H 30800 17540 30  0001 C CNN
F 2 "1pin" H 30850 17500 60  0001 C CNN
F 3 "" H 30850 17500 50  0001 C CNN
	1    30850 17500
	1    0    0    -1  
$EndComp
$Comp
L CONN_1 P35
U 1 1 4A0CC090
P 30850 17400
AR Path="/FFFFFFFF4A0CC090" Ref="P35"  Part="1" 
AR Path="/4A0CC090" Ref="P35"  Part="1" 
AR Path="/94A0CC090" Ref="P35"  Part="1" 
AR Path="/6FF0DD404A0CC090" Ref="P35"  Part="1" 
AR Path="/23D6E04A0CC090" Ref="P35"  Part="1" 
AR Path="/5AD7153D4A0CC090" Ref="P35"  Part="1" 
AR Path="/A4A0CC090" Ref="P35"  Part="1" 
AR Path="/755D912A4A0CC090" Ref="P35"  Part="1" 
AR Path="/3FE08B434A0CC090" Ref="P35"  Part="1" 
AR Path="/3DA360004A0CC090" Ref="P35"  Part="1" 
AR Path="/23D9304A0CC090" Ref="P35"  Part="1" 
AR Path="/3FEFFFFF4A0CC090" Ref="P35"  Part="1" 
AR Path="/23D8D44A0CC090" Ref="P35"  Part="1" 
AR Path="/3D8EA0004A0CC090" Ref="P35"  Part="1" 
AR Path="/402B08B44A0CC090" Ref="P35"  Part="1" 
AR Path="/4026A24D4A0CC090" Ref="P35"  Part="1" 
AR Path="/3FE88B434A0CC090" Ref="P35"  Part="1" 
AR Path="/3D7E00004A0CC090" Ref="P35"  Part="1" 
AR Path="/402988B44A0CC090" Ref="P35"  Part="1" 
AR Path="/6FE901F74A0CC090" Ref="P35"  Part="1" 
AR Path="/3D6CC0004A0CC090" Ref="P35"  Part="1" 
AR Path="/14A0CC090" Ref="P35"  Part="1" 
AR Path="/FFFFFFF04A0CC090" Ref="P35"  Part="1" 
AR Path="/23C2344A0CC090" Ref="P35"  Part="1" 
AR Path="/DCBAABCD4A0CC090" Ref="P35"  Part="1" 
AR Path="/5AD746F64A0CC090" Ref="P35"  Part="1" 
AR Path="/4027EF1A4A0CC090" Ref="P35"  Part="1" 
AR Path="/402A6F1A4A0CC090" Ref="P35"  Part="1" 
AR Path="/4029BBE74A0CC090" Ref="P35"  Part="1" 
AR Path="/402A224D4A0CC090" Ref="P35"  Part="1" 
AR Path="/402A55814A0CC090" Ref="P35"  Part="1" 
AR Path="/4026224D4A0CC090" Ref="P35"  Part="1" 
AR Path="/3D6220004A0CC090" Ref="P35"  Part="1" 
AR Path="/3D9720004A0CC090" Ref="P35"  Part="1" 
AR Path="/2600004A0CC090" Ref="P35"  Part="1" 
AR Path="/402C3BE74A0CC090" Ref="P35"  Part="1" 
AR Path="/402955814A0CC090" Ref="P35"  Part="1" 
AR Path="/40293BE74A0CC090" Ref="P35"  Part="1" 
AR Path="/402555814A0CC090" Ref="P35"  Part="1" 
AR Path="/3FED58104A0CC090" Ref="P35"  Part="1" 
AR Path="/402688B44A0CC090" Ref="P35"  Part="1" 
AR Path="/3FE441894A0CC090" Ref="P35"  Part="1" 
AR Path="/B84A0CC090" Ref="P35"  Part="1" 
AR Path="/4029D5814A0CC090" Ref="P35"  Part="1" 
AR Path="/6FF405304A0CC090" Ref="P35"  Part="1" 
AR Path="/40256F1A4A0CC090" Ref="P35"  Part="1" 
AR Path="/40286F1A4A0CC090" Ref="P35"  Part="1" 
AR Path="/402A08B44A0CC090" Ref="P35"  Part="1" 
AR Path="/402588B44A0CC090" Ref="P35"  Part="1" 
AR Path="/23D2034A0CC090" Ref="P35"  Part="1" 
AR Path="/A84A0CC090" Ref="P35"  Part="1" 
AR Path="/3FE224DD4A0CC090" Ref="P35"  Part="1" 
AR Path="/402C08B44A0CC090" Ref="P35"  Part="1" 
AR Path="/402BEF1A4A0CC090" Ref="P35"  Part="1" 
AR Path="/402C55814A0CC090" Ref="P35"  Part="1" 
AR Path="/40273BE74A0CC090" Ref="P35"  Part="1" 
AR Path="/402908B44A0CC090" Ref="P35"  Part="1" 
AR Path="/3D5A40004A0CC090" Ref="P35"  Part="1" 
AR Path="/402755814A0CC090" Ref="P35"  Part="1" 
AR Path="/4030AAC04A0CC090" Ref="P35"  Part="1" 
AR Path="/4031DDF34A0CC090" Ref="P35"  Part="1" 
AR Path="/4032778D4A0CC090" Ref="P35"  Part="1" 
AR Path="/403091264A0CC090" Ref="P35"  Part="1" 
AR Path="/403051264A0CC090" Ref="P35"  Part="1" 
AR Path="/4032F78D4A0CC090" Ref="P35"  Part="1" 
AR Path="/403251264A0CC090" Ref="P35"  Part="1" 
AR Path="/4032AAC04A0CC090" Ref="P35"  Part="1" 
AR Path="/4030D1264A0CC090" Ref="P35"  Part="1" 
AR Path="/4031778D4A0CC090" Ref="P35"  Part="1" 
AR Path="/3FEA24DD4A0CC090" Ref="P35"  Part="1" 
AR Path="/6FE934E34A0CC090" Ref="P35"  Part="1" 
AR Path="/773F65F14A0CC090" Ref="P35"  Part="1" 
AR Path="/773F8EB44A0CC090" Ref="P35"  Part="1" 
AR Path="/23C9F04A0CC090" Ref="P35"  Part="1" 
AR Path="/24A0CC090" Ref="P35"  Part="1" 
AR Path="/23BC884A0CC090" Ref="P35"  Part="1" 
AR Path="/DC0C124A0CC090" Ref="P35"  Part="1" 
AR Path="/23C34C4A0CC090" Ref="P35"  Part="1" 
AR Path="/23CBC44A0CC090" Ref="P35"  Part="1" 
AR Path="/23C6504A0CC090" Ref="P35"  Part="1" 
AR Path="/39803EA4A0CC090" Ref="P35"  Part="1" 
AR Path="/6FE934344A0CC090" Ref="P35"  Part="1" 
AR Path="/7E0073254A0CC090" Ref="P35"  Part="1" 
AR Path="/73254A0CC090" Ref="P35"  Part="1" 
AR Path="/8CEE4A0CC090" Ref="P35"  Part="1" 
AR Path="/23D9004A0CC090" Ref="P35"  Part="1" 
AR Path="/91964A0CC090" Ref="P35"  Part="1" 
AR Path="/77F16B254A0CC090" Ref="P35"  Part="1" 
AR Path="/23D83C4A0CC090" Ref="P35"  Part="1" 
AR Path="/8D384A0CC090" Ref="P35"  Part="1" 
AR Path="/D058E04A0CC090" Ref="P35"  Part="1" 
AR Path="/3C64A0CC090" Ref="P35"  Part="1" 
AR Path="/2F4A4A0CC090" Ref="P35"  Part="1" 
AR Path="/D1C3384A0CC090" Ref="P35"  Part="1" 
F 0 "P35" H 30930 17400 40  0000 C CNN
F 1 "CONN_1" H 30800 17440 30  0001 C CNN
F 2 "1pin" H 30850 17400 60  0001 C CNN
F 3 "" H 30850 17400 50  0001 C CNN
	1    30850 17400
	1    0    0    -1  
$EndComp
Wire Wire Line
	30700 17400 30700 17600
$Comp
L power-rescue:PWR_FLAG-s100_Z80-V2-rescue #FLG014
U 1 1 4A0732B7
P 30700 16150
AR Path="/6FF405304A0732B7" Ref="#FLG014"  Part="1" 
AR Path="/25E4A0732B7" Ref="#FLG040"  Part="1" 
AR Path="/FFFFFFFF4A0732B7" Ref="#FLG059"  Part="1" 
AR Path="/4A0732B7" Ref="#FLG053"  Part="1" 
AR Path="/6FF0DD404A0732B7" Ref="#FLG059"  Part="1" 
AR Path="/23D6E04A0732B7" Ref="#FLG015"  Part="1" 
AR Path="/363030314A0732B7" Ref="#FLG040"  Part="1" 
AR Path="/23C6384A0732B7" Ref="#FLG015"  Part="1" 
AR Path="/74A0732B7" Ref="#FLG015"  Part="1" 
AR Path="/314A0732B7" Ref="#FLG024"  Part="1" 
AR Path="/23C7004A0732B7" Ref="#FLG016"  Part="1" 
AR Path="/5AD7153D4A0732B7" Ref="#FLG041"  Part="1" 
AR Path="/A4A0732B7" Ref="#FLG054"  Part="1" 
AR Path="/755D912A4A0732B7" Ref="#FLG018"  Part="1" 
AR Path="/3FE08B434A0732B7" Ref="#FLG017"  Part="1" 
AR Path="/3DA360004A0732B7" Ref="#FLG024"  Part="1" 
AR Path="/23D9304A0732B7" Ref="#FLG017"  Part="1" 
AR Path="/3FEFFFFF4A0732B7" Ref="#FLG041"  Part="1" 
AR Path="/23D8D44A0732B7" Ref="#FLG041"  Part="1" 
AR Path="/3D8EA0004A0732B7" Ref="#FLG030"  Part="1" 
AR Path="/402B08B44A0732B7" Ref="#FLG017"  Part="1" 
AR Path="/4026A24D4A0732B7" Ref="#FLG017"  Part="1" 
AR Path="/3FE88B434A0732B7" Ref="#FLG032"  Part="1" 
AR Path="/3D7E00004A0732B7" Ref="#FLG024"  Part="1" 
AR Path="/402988B44A0732B7" Ref="#FLG015"  Part="1" 
AR Path="/6FE901F74A0732B7" Ref="#FLG024"  Part="1" 
AR Path="/3D6CC0004A0732B7" Ref="#FLG023"  Part="1" 
AR Path="/24A0732B7" Ref="#FLG1"  Part="1" 
AR Path="/FFFFFFF04A0732B7" Ref="#FLG1"  Part="1" 
AR Path="/23C2344A0732B7" Ref="#FLG027"  Part="1" 
AR Path="/DCBAABCD4A0732B7" Ref="#FLG030"  Part="1" 
AR Path="/5AD746F64A0732B7" Ref="#FLG028"  Part="1" 
AR Path="/4027EF1A4A0732B7" Ref="#FLG028"  Part="1" 
AR Path="/402A6F1A4A0732B7" Ref="#FLG028"  Part="1" 
AR Path="/4029BBE74A0732B7" Ref="#FLG028"  Part="1" 
AR Path="/402A224D4A0732B7" Ref="#FLG028"  Part="1" 
AR Path="/402A55814A0732B7" Ref="#FLG027"  Part="1" 
AR Path="/4026224D4A0732B7" Ref="#FLG015"  Part="1" 
AR Path="/3D6220004A0732B7" Ref="#FLG027"  Part="1" 
AR Path="/3D9720004A0732B7" Ref="#FLG028"  Part="1" 
AR Path="/2600004A0732B7" Ref="#FLG041"  Part="1" 
AR Path="/402C3BE74A0732B7" Ref="#FLG015"  Part="1" 
AR Path="/402955814A0732B7" Ref="#FLG022"  Part="1" 
AR Path="/40293BE74A0732B7" Ref="#FLG026"  Part="1" 
AR Path="/402555814A0732B7" Ref="#FLG015"  Part="1" 
AR Path="/3FED58104A0732B7" Ref="#FLG015"  Part="1" 
AR Path="/402688B44A0732B7" Ref="#FLG015"  Part="1" 
AR Path="/3FE441894A0732B7" Ref="#FLG016"  Part="1" 
AR Path="/B84A0732B7" Ref="#FLG1"  Part="1" 
AR Path="/4029D5814A0732B7" Ref="#FLG016"  Part="1" 
AR Path="/40256F1A4A0732B7" Ref="#FLG024"  Part="1" 
AR Path="/40286F1A4A0732B7" Ref="#FLG024"  Part="1" 
AR Path="/402A08B44A0732B7" Ref="#FLG024"  Part="1" 
AR Path="/402588B44A0732B7" Ref="#FLG024"  Part="1" 
AR Path="/A84A0732B7" Ref="#FLG031"  Part="1" 
AR Path="/3FE224DD4A0732B7" Ref="#FLG022"  Part="1" 
AR Path="/402C08B44A0732B7" Ref="#FLG023"  Part="1" 
AR Path="/402BEF1A4A0732B7" Ref="#FLG024"  Part="1" 
AR Path="/402C55814A0732B7" Ref="#FLG029"  Part="1" 
AR Path="/40273BE74A0732B7" Ref="#FLG030"  Part="1" 
AR Path="/402908B44A0732B7" Ref="#FLG026"  Part="1" 
AR Path="/3D5A40004A0732B7" Ref="#FLG023"  Part="1" 
AR Path="/402755814A0732B7" Ref="#FLG031"  Part="1" 
AR Path="/4030AAC04A0732B7" Ref="#FLG031"  Part="1" 
AR Path="/4031DDF34A0732B7" Ref="#FLG032"  Part="1" 
AR Path="/4032778D4A0732B7" Ref="#FLG038"  Part="1" 
AR Path="/403091264A0732B7" Ref="#FLG041"  Part="1" 
AR Path="/403051264A0732B7" Ref="#FLG041"  Part="1" 
AR Path="/4032F78D4A0732B7" Ref="#FLG041"  Part="1" 
AR Path="/403251264A0732B7" Ref="#FLG041"  Part="1" 
AR Path="/4032AAC04A0732B7" Ref="#FLG041"  Part="1" 
AR Path="/4030D1264A0732B7" Ref="#FLG041"  Part="1" 
AR Path="/4031778D4A0732B7" Ref="#FLG041"  Part="1" 
AR Path="/3FEA24DD4A0732B7" Ref="#FLG041"  Part="1" 
AR Path="/6FE934E34A0732B7" Ref="#FLG057"  Part="1" 
AR Path="/773F65F14A0732B7" Ref="#FLG059"  Part="1" 
AR Path="/773F8EB44A0732B7" Ref="#FLG057"  Part="1" 
AR Path="/21602704A0732B7" Ref="#FLG1"  Part="1" 
AR Path="/20EAA484A0732B7" Ref="#FLG1"  Part="1" 
AR Path="/20EB1284A0732B7" Ref="#FLG1"  Part="1" 
AR Path="/20E75884A0732B7" Ref="#FLG1"  Part="1" 
AR Path="/23BC884A0732B7" Ref="#FLG059"  Part="1" 
AR Path="/DC0C124A0732B7" Ref="#FLG041"  Part="1" 
AR Path="/6684D64A0732B7" Ref="#FLG057"  Part="1" 
AR Path="/23C34C4A0732B7" Ref="#FLG058"  Part="1" 
AR Path="/23CBC44A0732B7" Ref="#FLG057"  Part="1" 
AR Path="/39803EA4A0732B7" Ref="#FLG042"  Part="1" 
AR Path="/6FE934344A0732B7" Ref="#FLG1"  Part="1" 
AR Path="/7E0073254A0732B7" Ref="#FLG012"  Part="1" 
AR Path="/73254A0732B7" Ref="#FLG085"  Part="1" 
AR Path="/8CEE4A0732B7" Ref="#FLG085"  Part="1" 
AR Path="/23D9004A0732B7" Ref="#FLG057"  Part="1" 
AR Path="/23C6504A0732B7" Ref="#FLG069"  Part="1" 
AR Path="/91964A0732B7" Ref="#FLG065"  Part="1" 
AR Path="/77F16B254A0732B7" Ref="#FLG052"  Part="1" 
AR Path="/14A0732B7" Ref="#FLG072"  Part="1" 
AR Path="/25374684A0732B7" Ref="#FLG1"  Part="1" 
AR Path="/23D83C4A0732B7" Ref="#FLG1"  Part="1" 
AR Path="/258EF904A0732B7" Ref="#FLG1"  Part="1" 
AR Path="/25BB3584A0732B7" Ref="#FLG1"  Part="1" 
AR Path="/25E37F04A0732B7" Ref="#FLG1"  Part="1" 
AR Path="/8D384A0732B7" Ref="#FLG072"  Part="1" 
AR Path="/D058E04A0732B7" Ref="#FLG059"  Part="1" 
AR Path="/3C64A0732B7" Ref="#FLG073"  Part="1" 
AR Path="/2F4A4A0732B7" Ref="#FLG073"  Part="1" 
AR Path="/22070084A0732B7" Ref="#FLG1"  Part="1" 
AR Path="/D1C3384A0732B7" Ref="#FLG059"  Part="1" 
F 0 "#FLG053" H 30700 16420 30  0001 C CNN
F 1 "PWR_FLAG" H 30700 16380 30  0000 C CNN
F 2 "" H 30700 16150 50  0001 C CNN
F 3 "" H 30700 16150 50  0001 C CNN
	1    30700 16150
	1    0    0    -1  
$EndComp
$Comp
L power-rescue:PWR_FLAG-s100_Z80-V2-rescue #FLG039
U 1 1 4A0732EB
P 32650 16550
AR Path="/25E4A0732EB" Ref="#FLG039"  Part="1" 
AR Path="/FFFFFFFF4A0732EB" Ref="#FLG058"  Part="1" 
AR Path="/4A0732EB" Ref="#FLG052"  Part="1" 
AR Path="/94A0732EB" Ref="#FLG3"  Part="1" 
AR Path="/6FF0DD404A0732EB" Ref="#FLG058"  Part="1" 
AR Path="/23D6E04A0732EB" Ref="#FLG013"  Part="1" 
AR Path="/363030314A0732EB" Ref="#FLG039"  Part="1" 
AR Path="/23C6384A0732EB" Ref="#FLG013"  Part="1" 
AR Path="/74A0732EB" Ref="#FLG013"  Part="1" 
AR Path="/314A0732EB" Ref="#FLG023"  Part="1" 
AR Path="/23C7004A0732EB" Ref="#FLG015"  Part="1" 
AR Path="/5AD7153D4A0732EB" Ref="#FLG040"  Part="1" 
AR Path="/A4A0732EB" Ref="#FLG053"  Part="1" 
AR Path="/755D912A4A0732EB" Ref="#FLG017"  Part="1" 
AR Path="/3FE08B434A0732EB" Ref="#FLG015"  Part="1" 
AR Path="/3DA360004A0732EB" Ref="#FLG023"  Part="1" 
AR Path="/23D9304A0732EB" Ref="#FLG015"  Part="1" 
AR Path="/3FEFFFFF4A0732EB" Ref="#FLG040"  Part="1" 
AR Path="/23D8D44A0732EB" Ref="#FLG040"  Part="1" 
AR Path="/3D8EA0004A0732EB" Ref="#FLG029"  Part="1" 
AR Path="/402B08B44A0732EB" Ref="#FLG015"  Part="1" 
AR Path="/4026A24D4A0732EB" Ref="#FLG015"  Part="1" 
AR Path="/3FE88B434A0732EB" Ref="#FLG031"  Part="1" 
AR Path="/3D7E00004A0732EB" Ref="#FLG023"  Part="1" 
AR Path="/402988B44A0732EB" Ref="#FLG014"  Part="1" 
AR Path="/6FE901F74A0732EB" Ref="#FLG023"  Part="1" 
AR Path="/3D6CC0004A0732EB" Ref="#FLG022"  Part="1" 
AR Path="/FFFFFFF04A0732EB" Ref="#FLG3"  Part="1" 
AR Path="/23C2344A0732EB" Ref="#FLG026"  Part="1" 
AR Path="/DCBAABCD4A0732EB" Ref="#FLG029"  Part="1" 
AR Path="/5AD746F64A0732EB" Ref="#FLG027"  Part="1" 
AR Path="/4027EF1A4A0732EB" Ref="#FLG027"  Part="1" 
AR Path="/402A6F1A4A0732EB" Ref="#FLG027"  Part="1" 
AR Path="/4029BBE74A0732EB" Ref="#FLG027"  Part="1" 
AR Path="/402A224D4A0732EB" Ref="#FLG027"  Part="1" 
AR Path="/402A55814A0732EB" Ref="#FLG026"  Part="1" 
AR Path="/4026224D4A0732EB" Ref="#FLG014"  Part="1" 
AR Path="/3D6220004A0732EB" Ref="#FLG026"  Part="1" 
AR Path="/3D9720004A0732EB" Ref="#FLG027"  Part="1" 
AR Path="/2600004A0732EB" Ref="#FLG040"  Part="1" 
AR Path="/402C3BE74A0732EB" Ref="#FLG014"  Part="1" 
AR Path="/402955814A0732EB" Ref="#FLG021"  Part="1" 
AR Path="/40293BE74A0732EB" Ref="#FLG025"  Part="1" 
AR Path="/402555814A0732EB" Ref="#FLG014"  Part="1" 
AR Path="/3FED58104A0732EB" Ref="#FLG014"  Part="1" 
AR Path="/402688B44A0732EB" Ref="#FLG014"  Part="1" 
AR Path="/3FE441894A0732EB" Ref="#FLG015"  Part="1" 
AR Path="/B84A0732EB" Ref="#FLG3"  Part="1" 
AR Path="/4029D5814A0732EB" Ref="#FLG015"  Part="1" 
AR Path="/40256F1A4A0732EB" Ref="#FLG023"  Part="1" 
AR Path="/40286F1A4A0732EB" Ref="#FLG023"  Part="1" 
AR Path="/402A08B44A0732EB" Ref="#FLG023"  Part="1" 
AR Path="/402588B44A0732EB" Ref="#FLG023"  Part="1" 
AR Path="/A84A0732EB" Ref="#FLG030"  Part="1" 
AR Path="/3FE224DD4A0732EB" Ref="#FLG021"  Part="1" 
AR Path="/402C08B44A0732EB" Ref="#FLG022"  Part="1" 
AR Path="/402BEF1A4A0732EB" Ref="#FLG023"  Part="1" 
AR Path="/402C55814A0732EB" Ref="#FLG028"  Part="1" 
AR Path="/40273BE74A0732EB" Ref="#FLG029"  Part="1" 
AR Path="/402908B44A0732EB" Ref="#FLG025"  Part="1" 
AR Path="/3D5A40004A0732EB" Ref="#FLG022"  Part="1" 
AR Path="/402755814A0732EB" Ref="#FLG030"  Part="1" 
AR Path="/4030AAC04A0732EB" Ref="#FLG030"  Part="1" 
AR Path="/4031DDF34A0732EB" Ref="#FLG031"  Part="1" 
AR Path="/4032778D4A0732EB" Ref="#FLG037"  Part="1" 
AR Path="/403091264A0732EB" Ref="#FLG040"  Part="1" 
AR Path="/403051264A0732EB" Ref="#FLG040"  Part="1" 
AR Path="/4032F78D4A0732EB" Ref="#FLG040"  Part="1" 
AR Path="/403251264A0732EB" Ref="#FLG040"  Part="1" 
AR Path="/4032AAC04A0732EB" Ref="#FLG040"  Part="1" 
AR Path="/4030D1264A0732EB" Ref="#FLG040"  Part="1" 
AR Path="/4031778D4A0732EB" Ref="#FLG040"  Part="1" 
AR Path="/3FEA24DD4A0732EB" Ref="#FLG040"  Part="1" 
AR Path="/6FE934E34A0732EB" Ref="#FLG056"  Part="1" 
AR Path="/773F65F14A0732EB" Ref="#FLG058"  Part="1" 
AR Path="/773F8EB44A0732EB" Ref="#FLG056"  Part="1" 
AR Path="/23C9F04A0732EB" Ref="#FLG3"  Part="1" 
AR Path="/23BC884A0732EB" Ref="#FLG058"  Part="1" 
AR Path="/DC0C124A0732EB" Ref="#FLG040"  Part="1" 
AR Path="/6684D64A0732EB" Ref="#FLG056"  Part="1" 
AR Path="/23C34C4A0732EB" Ref="#FLG057"  Part="1" 
AR Path="/23CBC44A0732EB" Ref="#FLG056"  Part="1" 
AR Path="/39803EA4A0732EB" Ref="#FLG041"  Part="1" 
AR Path="/6FE934344A0732EB" Ref="#FLG3"  Part="1" 
AR Path="/7E0073254A0732EB" Ref="#FLG011"  Part="1" 
AR Path="/73254A0732EB" Ref="#FLG084"  Part="1" 
AR Path="/8CEE4A0732EB" Ref="#FLG084"  Part="1" 
AR Path="/23D9004A0732EB" Ref="#FLG056"  Part="1" 
AR Path="/23C6504A0732EB" Ref="#FLG068"  Part="1" 
AR Path="/91964A0732EB" Ref="#FLG064"  Part="1" 
AR Path="/77F16B254A0732EB" Ref="#FLG051"  Part="1" 
AR Path="/14A0732EB" Ref="#FLG071"  Part="1" 
AR Path="/23D83C4A0732EB" Ref="#FLG3"  Part="1" 
AR Path="/8D384A0732EB" Ref="#FLG071"  Part="1" 
AR Path="/D058E04A0732EB" Ref="#FLG058"  Part="1" 
AR Path="/3C64A0732EB" Ref="#FLG072"  Part="1" 
AR Path="/2F4A4A0732EB" Ref="#FLG072"  Part="1" 
AR Path="/24A0732EB" Ref="#FLG3"  Part="1" 
AR Path="/D1C3384A0732EB" Ref="#FLG058"  Part="1" 
F 0 "#FLG052" H 32650 16820 30  0001 C CNN
F 1 "PWR_FLAG" H 32650 16780 30  0000 C CNN
F 2 "" H 32650 16550 50  0001 C CNN
F 3 "" H 32650 16550 50  0001 C CNN
	1    32650 16550
	1    0    0    -1  
$EndComp
$Comp
L Device:CP C1
U 1 1 4A074934
P 31200 16300
AR Path="/FFFFFFFF4A074934" Ref="C1"  Part="1" 
AR Path="/4A074934" Ref="C1"  Part="1" 
AR Path="/94A074934" Ref="C1"  Part="1" 
AR Path="/6FF0DD404A074934" Ref="C1"  Part="1" 
AR Path="/23D6E04A074934" Ref="C1"  Part="1" 
AR Path="/14A074934" Ref="C1"  Part="1" 
AR Path="/5AD7153D4A074934" Ref="C1"  Part="1" 
AR Path="/A4A074934" Ref="C1"  Part="1" 
AR Path="/755D912A4A074934" Ref="C1"  Part="1" 
AR Path="/3FE08B434A074934" Ref="C1"  Part="1" 
AR Path="/3DA360004A074934" Ref="C1"  Part="1" 
AR Path="/23D9304A074934" Ref="C1"  Part="1" 
AR Path="/3FEFFFFF4A074934" Ref="C1"  Part="1" 
AR Path="/23D8D44A074934" Ref="C1"  Part="1" 
AR Path="/3D8EA0004A074934" Ref="C1"  Part="1" 
AR Path="/402B08B44A074934" Ref="C1"  Part="1" 
AR Path="/4026A24D4A074934" Ref="C1"  Part="1" 
AR Path="/3FE88B434A074934" Ref="C1"  Part="1" 
AR Path="/3D7E00004A074934" Ref="C1"  Part="1" 
AR Path="/402988B44A074934" Ref="C1"  Part="1" 
AR Path="/3D6CC0004A074934" Ref="C1"  Part="1" 
AR Path="/FFFFFFF04A074934" Ref="C1"  Part="1" 
AR Path="/23C2344A074934" Ref="C1"  Part="1" 
AR Path="/DCBAABCD4A074934" Ref="C1"  Part="1" 
AR Path="/5AD746F64A074934" Ref="C1"  Part="1" 
AR Path="/4027EF1A4A074934" Ref="C1"  Part="1" 
AR Path="/402A6F1A4A074934" Ref="C1"  Part="1" 
AR Path="/4029BBE74A074934" Ref="C1"  Part="1" 
AR Path="/402A224D4A074934" Ref="C1"  Part="1" 
AR Path="/402A55814A074934" Ref="C1"  Part="1" 
AR Path="/4026224D4A074934" Ref="C1"  Part="1" 
AR Path="/3D6220004A074934" Ref="C1"  Part="1" 
AR Path="/3D9720004A074934" Ref="C1"  Part="1" 
AR Path="/2600004A074934" Ref="C1"  Part="1" 
AR Path="/402C3BE74A074934" Ref="C1"  Part="1" 
AR Path="/402955814A074934" Ref="C1"  Part="1" 
AR Path="/40293BE74A074934" Ref="C1"  Part="1" 
AR Path="/402555814A074934" Ref="C1"  Part="1" 
AR Path="/6FE901F74A074934" Ref="C1"  Part="1" 
AR Path="/3FED58104A074934" Ref="C1"  Part="1" 
AR Path="/402688B44A074934" Ref="C1"  Part="1" 
AR Path="/3FE441894A074934" Ref="C1"  Part="1" 
AR Path="/B84A074934" Ref="C1"  Part="1" 
AR Path="/4029D5814A074934" Ref="C1"  Part="1" 
AR Path="/40256F1A4A074934" Ref="C1"  Part="1" 
AR Path="/40286F1A4A074934" Ref="C1"  Part="1" 
AR Path="/402A08B44A074934" Ref="C1"  Part="1" 
AR Path="/402588B44A074934" Ref="C1"  Part="1" 
AR Path="/A84A074934" Ref="C1"  Part="1" 
AR Path="/3FE224DD4A074934" Ref="C1"  Part="1" 
AR Path="/402C08B44A074934" Ref="C1"  Part="1" 
AR Path="/402BEF1A4A074934" Ref="C1"  Part="1" 
AR Path="/402C55814A074934" Ref="C1"  Part="1" 
AR Path="/40273BE74A074934" Ref="C1"  Part="1" 
AR Path="/402908B44A074934" Ref="C1"  Part="1" 
AR Path="/3D5A40004A074934" Ref="C1"  Part="1" 
AR Path="/402755814A074934" Ref="C1"  Part="1" 
AR Path="/4030AAC04A074934" Ref="C1"  Part="1" 
AR Path="/4031DDF34A074934" Ref="C1"  Part="1" 
AR Path="/4032778D4A074934" Ref="C1"  Part="1" 
AR Path="/403091264A074934" Ref="C1"  Part="1" 
AR Path="/403051264A074934" Ref="C1"  Part="1" 
AR Path="/4032F78D4A074934" Ref="C1"  Part="1" 
AR Path="/403251264A074934" Ref="C1"  Part="1" 
AR Path="/4032AAC04A074934" Ref="C1"  Part="1" 
AR Path="/4030D1264A074934" Ref="C1"  Part="1" 
AR Path="/4031778D4A074934" Ref="C1"  Part="1" 
AR Path="/3FEA24DD4A074934" Ref="C1"  Part="1" 
AR Path="/6FE934E34A074934" Ref="C1"  Part="1" 
AR Path="/773F65F14A074934" Ref="C1"  Part="1" 
AR Path="/773F8EB44A074934" Ref="C1"  Part="1" 
AR Path="/23C9F04A074934" Ref="C1"  Part="1" 
AR Path="/24A074934" Ref="C1"  Part="1" 
AR Path="/23BC884A074934" Ref="C1"  Part="1" 
AR Path="/DC0C124A074934" Ref="C1"  Part="1" 
AR Path="/23C34C4A074934" Ref="C1"  Part="1" 
AR Path="/23CBC44A074934" Ref="C1"  Part="1" 
AR Path="/23C6504A074934" Ref="C1"  Part="1" 
AR Path="/39803EA4A074934" Ref="C1"  Part="1" 
AR Path="/6FE934344A074934" Ref="C1"  Part="1" 
AR Path="/7E0073254A074934" Ref="C1"  Part="1" 
AR Path="/73254A074934" Ref="C1"  Part="1" 
AR Path="/8CEE4A074934" Ref="C1"  Part="1" 
AR Path="/23D9004A074934" Ref="C1"  Part="1" 
AR Path="/91964A074934" Ref="C1"  Part="1" 
AR Path="/77F16B254A074934" Ref="C1"  Part="1" 
AR Path="/23D83C4A074934" Ref="C1"  Part="1" 
AR Path="/8D384A074934" Ref="C1"  Part="1" 
AR Path="/D058E04A074934" Ref="C1"  Part="1" 
AR Path="/3C64A074934" Ref="C1"  Part="1" 
AR Path="/2F4A4A074934" Ref="C1"  Part="1" 
AR Path="/D1C3384A074934" Ref="C1"  Part="1" 
F 0 "C1" H 31250 16400 50  0000 L CNN
F 1 "47 uF" H 31250 16200 50  0000 L CNN
F 2 "C1V7" H 31200 16300 60  0001 C CNN
F 3 "" H 31200 16300 50  0001 C CNN
	1    31200 16300
	1    0    0    -1  
$EndComp
$Comp
L Device:CP C3
U 1 1 4A074947
P 32050 16350
AR Path="/FFFFFFFF4A074947" Ref="C3"  Part="1" 
AR Path="/4A074947" Ref="C3"  Part="1" 
AR Path="/94A074947" Ref="C3"  Part="1" 
AR Path="/6FF0DD404A074947" Ref="C3"  Part="1" 
AR Path="/23D6E04A074947" Ref="C3"  Part="1" 
AR Path="/14A074947" Ref="C3"  Part="1" 
AR Path="/5AD7153D4A074947" Ref="C3"  Part="1" 
AR Path="/A4A074947" Ref="C3"  Part="1" 
AR Path="/755D912A4A074947" Ref="C3"  Part="1" 
AR Path="/3FE08B434A074947" Ref="C3"  Part="1" 
AR Path="/3DA360004A074947" Ref="C3"  Part="1" 
AR Path="/23D9304A074947" Ref="C3"  Part="1" 
AR Path="/3FEFFFFF4A074947" Ref="C3"  Part="1" 
AR Path="/23D8D44A074947" Ref="C3"  Part="1" 
AR Path="/3D8EA0004A074947" Ref="C3"  Part="1" 
AR Path="/402B08B44A074947" Ref="C3"  Part="1" 
AR Path="/4026A24D4A074947" Ref="C3"  Part="1" 
AR Path="/3FE88B434A074947" Ref="C3"  Part="1" 
AR Path="/3D7E00004A074947" Ref="C3"  Part="1" 
AR Path="/402988B44A074947" Ref="C3"  Part="1" 
AR Path="/3D6CC0004A074947" Ref="C3"  Part="1" 
AR Path="/FFFFFFF04A074947" Ref="C3"  Part="1" 
AR Path="/23C2344A074947" Ref="C3"  Part="1" 
AR Path="/DCBAABCD4A074947" Ref="C3"  Part="1" 
AR Path="/5AD746F64A074947" Ref="C3"  Part="1" 
AR Path="/4027EF1A4A074947" Ref="C3"  Part="1" 
AR Path="/402A6F1A4A074947" Ref="C3"  Part="1" 
AR Path="/4029BBE74A074947" Ref="C3"  Part="1" 
AR Path="/402A224D4A074947" Ref="C3"  Part="1" 
AR Path="/402A55814A074947" Ref="C3"  Part="1" 
AR Path="/4026224D4A074947" Ref="C3"  Part="1" 
AR Path="/3D6220004A074947" Ref="C3"  Part="1" 
AR Path="/3D9720004A074947" Ref="C3"  Part="1" 
AR Path="/2600004A074947" Ref="C3"  Part="1" 
AR Path="/402C3BE74A074947" Ref="C3"  Part="1" 
AR Path="/402955814A074947" Ref="C3"  Part="1" 
AR Path="/40293BE74A074947" Ref="C3"  Part="1" 
AR Path="/402555814A074947" Ref="C3"  Part="1" 
AR Path="/6FE901F74A074947" Ref="C3"  Part="1" 
AR Path="/3FED58104A074947" Ref="C3"  Part="1" 
AR Path="/402688B44A074947" Ref="C3"  Part="1" 
AR Path="/3FE441894A074947" Ref="C3"  Part="1" 
AR Path="/B84A074947" Ref="C3"  Part="1" 
AR Path="/4029D5814A074947" Ref="C3"  Part="1" 
AR Path="/40256F1A4A074947" Ref="C3"  Part="1" 
AR Path="/40286F1A4A074947" Ref="C3"  Part="1" 
AR Path="/402A08B44A074947" Ref="C3"  Part="1" 
AR Path="/402588B44A074947" Ref="C3"  Part="1" 
AR Path="/A84A074947" Ref="C3"  Part="1" 
AR Path="/3FE224DD4A074947" Ref="C3"  Part="1" 
AR Path="/402C08B44A074947" Ref="C3"  Part="1" 
AR Path="/402BEF1A4A074947" Ref="C3"  Part="1" 
AR Path="/402C55814A074947" Ref="C3"  Part="1" 
AR Path="/40273BE74A074947" Ref="C3"  Part="1" 
AR Path="/402908B44A074947" Ref="C3"  Part="1" 
AR Path="/3D5A40004A074947" Ref="C3"  Part="1" 
AR Path="/402755814A074947" Ref="C3"  Part="1" 
AR Path="/4030AAC04A074947" Ref="C3"  Part="1" 
AR Path="/4031DDF34A074947" Ref="C3"  Part="1" 
AR Path="/4032778D4A074947" Ref="C3"  Part="1" 
AR Path="/403091264A074947" Ref="C3"  Part="1" 
AR Path="/403051264A074947" Ref="C3"  Part="1" 
AR Path="/4032F78D4A074947" Ref="C3"  Part="1" 
AR Path="/403251264A074947" Ref="C3"  Part="1" 
AR Path="/4032AAC04A074947" Ref="C3"  Part="1" 
AR Path="/4030D1264A074947" Ref="C3"  Part="1" 
AR Path="/4031778D4A074947" Ref="C3"  Part="1" 
AR Path="/3FEA24DD4A074947" Ref="C3"  Part="1" 
AR Path="/6FE934E34A074947" Ref="C3"  Part="1" 
AR Path="/773F65F14A074947" Ref="C3"  Part="1" 
AR Path="/773F8EB44A074947" Ref="C3"  Part="1" 
AR Path="/23C9F04A074947" Ref="C3"  Part="1" 
AR Path="/24A074947" Ref="C3"  Part="1" 
AR Path="/23BC884A074947" Ref="C3"  Part="1" 
AR Path="/DC0C124A074947" Ref="C3"  Part="1" 
AR Path="/23C34C4A074947" Ref="C3"  Part="1" 
AR Path="/23CBC44A074947" Ref="C3"  Part="1" 
AR Path="/23C6504A074947" Ref="C3"  Part="1" 
AR Path="/39803EA4A074947" Ref="C3"  Part="1" 
AR Path="/6FE934344A074947" Ref="C3"  Part="1" 
AR Path="/7E0073254A074947" Ref="C3"  Part="1" 
AR Path="/73254A074947" Ref="C3"  Part="1" 
AR Path="/8CEE4A074947" Ref="C3"  Part="1" 
AR Path="/23D9004A074947" Ref="C3"  Part="1" 
AR Path="/91964A074947" Ref="C3"  Part="1" 
AR Path="/77F16B254A074947" Ref="C3"  Part="1" 
AR Path="/23D83C4A074947" Ref="C3"  Part="1" 
AR Path="/8D384A074947" Ref="C3"  Part="1" 
AR Path="/D058E04A074947" Ref="C3"  Part="1" 
AR Path="/3C64A074947" Ref="C3"  Part="1" 
AR Path="/2F4A4A074947" Ref="C3"  Part="1" 
AR Path="/D1C3384A074947" Ref="C3"  Part="1" 
F 0 "C3" H 32100 16450 50  0000 L CNN
F 1 "0.1 uF" H 32100 16250 50  0000 L CNN
F 2 "C1V7" H 32050 16350 60  0001 C CNN
F 3 "" H 32050 16350 50  0001 C CNN
	1    32050 16350
	1    0    0    -1  
$EndComp
Text Label 30750 16150 0    60   ~ 0
+8V
$Comp
L power-rescue:GND-s100_Z80-V2-rescue #PWR?
U 1 1 4AC3EEFD
P 32650 16600
AR Path="/69698AFC4AC3EEFD" Ref="#PWR?"  Part="1" 
AR Path="/393639364AC3EEFD" Ref="#PWR?"  Part="1" 
AR Path="/25E4AC3EEFD" Ref="#PWR038"  Part="1" 
AR Path="/FFFFFFFF4AC3EEFD" Ref="#PWR057"  Part="1" 
AR Path="/23D6E04AC3EEFD" Ref="#PWR01"  Part="1" 
AR Path="/6FF0DD404AC3EEFD" Ref="#PWR057"  Part="1" 
AR Path="/363030314AC3EEFD" Ref="#PWR038"  Part="1" 
AR Path="/23C5884AC3EEFD" Ref="#PWR01"  Part="1" 
AR Path="/23C6384AC3EEFD" Ref="#PWR01"  Part="1" 
AR Path="/74AC3EEFD" Ref="#PWR01"  Part="1" 
AR Path="/314AC3EEFD" Ref="#PWR022"  Part="1" 
AR Path="/4AC3EEFD" Ref="#PWR051"  Part="1" 
AR Path="/23C7004AC3EEFD" Ref="#PWR014"  Part="1" 
AR Path="/5AD7153D4AC3EEFD" Ref="#PWR039"  Part="1" 
AR Path="/A4AC3EEFD" Ref="#PWR052"  Part="1" 
AR Path="/94AC3EEFD" Ref="#PWR37"  Part="1" 
AR Path="/755D912A4AC3EEFD" Ref="#PWR016"  Part="1" 
AR Path="/3FE08B434AC3EEFD" Ref="#PWR03"  Part="1" 
AR Path="/3DA360004AC3EEFD" Ref="#PWR022"  Part="1" 
AR Path="/23D9304AC3EEFD" Ref="#PWR03"  Part="1" 
AR Path="/3FEFFFFF4AC3EEFD" Ref="#PWR039"  Part="1" 
AR Path="/23D8D44AC3EEFD" Ref="#PWR039"  Part="1" 
AR Path="/3D8EA0004AC3EEFD" Ref="#PWR028"  Part="1" 
AR Path="/402B08B44AC3EEFD" Ref="#PWR03"  Part="1" 
AR Path="/4026A24D4AC3EEFD" Ref="#PWR03"  Part="1" 
AR Path="/6FE901F74AC3EEFD" Ref="#PWR022"  Part="1" 
AR Path="/3FE88B434AC3EEFD" Ref="#PWR030"  Part="1" 
AR Path="/3D7E00004AC3EEFD" Ref="#PWR022"  Part="1" 
AR Path="/402988B44AC3EEFD" Ref="#PWR013"  Part="1" 
AR Path="/3D6CC0004AC3EEFD" Ref="#PWR021"  Part="1" 
AR Path="/FFFFFFF04AC3EEFD" Ref="#PWR74"  Part="1" 
AR Path="/23C2344AC3EEFD" Ref="#PWR025"  Part="1" 
AR Path="/DCBAABCD4AC3EEFD" Ref="#PWR028"  Part="1" 
AR Path="/5AD746F64AC3EEFD" Ref="#PWR026"  Part="1" 
AR Path="/4027EF1A4AC3EEFD" Ref="#PWR026"  Part="1" 
AR Path="/402A6F1A4AC3EEFD" Ref="#PWR026"  Part="1" 
AR Path="/4029BBE74AC3EEFD" Ref="#PWR026"  Part="1" 
AR Path="/402A224D4AC3EEFD" Ref="#PWR026"  Part="1" 
AR Path="/402A55814AC3EEFD" Ref="#PWR025"  Part="1" 
AR Path="/4026224D4AC3EEFD" Ref="#PWR013"  Part="1" 
AR Path="/3D6220004AC3EEFD" Ref="#PWR025"  Part="1" 
AR Path="/3D9720004AC3EEFD" Ref="#PWR026"  Part="1" 
AR Path="/2600004AC3EEFD" Ref="#PWR039"  Part="1" 
AR Path="/402C3BE74AC3EEFD" Ref="#PWR013"  Part="1" 
AR Path="/402955814AC3EEFD" Ref="#PWR020"  Part="1" 
AR Path="/40293BE74AC3EEFD" Ref="#PWR024"  Part="1" 
AR Path="/402555814AC3EEFD" Ref="#PWR013"  Part="1" 
AR Path="/23D2034AC3EEFD" Ref="#PWR022"  Part="1" 
AR Path="/3FED58104AC3EEFD" Ref="#PWR013"  Part="1" 
AR Path="/402688B44AC3EEFD" Ref="#PWR013"  Part="1" 
AR Path="/3FE441894AC3EEFD" Ref="#PWR014"  Part="1" 
AR Path="/B84AC3EEFD" Ref="#PWR8"  Part="1" 
AR Path="/4029D5814AC3EEFD" Ref="#PWR014"  Part="1" 
AR Path="/40256F1A4AC3EEFD" Ref="#PWR022"  Part="1" 
AR Path="/40286F1A4AC3EEFD" Ref="#PWR022"  Part="1" 
AR Path="/402A08B44AC3EEFD" Ref="#PWR022"  Part="1" 
AR Path="/402588B44AC3EEFD" Ref="#PWR022"  Part="1" 
AR Path="/A84AC3EEFD" Ref="#PWR36"  Part="1" 
AR Path="/3FE224DD4AC3EEFD" Ref="#PWR020"  Part="1" 
AR Path="/402C08B44AC3EEFD" Ref="#PWR021"  Part="1" 
AR Path="/402BEF1A4AC3EEFD" Ref="#PWR022"  Part="1" 
AR Path="/402C55814AC3EEFD" Ref="#PWR027"  Part="1" 
AR Path="/40273BE74AC3EEFD" Ref="#PWR028"  Part="1" 
AR Path="/402908B44AC3EEFD" Ref="#PWR024"  Part="1" 
AR Path="/3D5A40004AC3EEFD" Ref="#PWR021"  Part="1" 
AR Path="/402755814AC3EEFD" Ref="#PWR029"  Part="1" 
AR Path="/4030AAC04AC3EEFD" Ref="#PWR029"  Part="1" 
AR Path="/4031DDF34AC3EEFD" Ref="#PWR030"  Part="1" 
AR Path="/4032778D4AC3EEFD" Ref="#PWR036"  Part="1" 
AR Path="/403091264AC3EEFD" Ref="#PWR039"  Part="1" 
AR Path="/403051264AC3EEFD" Ref="#PWR039"  Part="1" 
AR Path="/4032F78D4AC3EEFD" Ref="#PWR039"  Part="1" 
AR Path="/403251264AC3EEFD" Ref="#PWR039"  Part="1" 
AR Path="/4032AAC04AC3EEFD" Ref="#PWR039"  Part="1" 
AR Path="/4030D1264AC3EEFD" Ref="#PWR039"  Part="1" 
AR Path="/4031778D4AC3EEFD" Ref="#PWR039"  Part="1" 
AR Path="/3FEA24DD4AC3EEFD" Ref="#PWR039"  Part="1" 
AR Path="/6FE934E34AC3EEFD" Ref="#PWR055"  Part="1" 
AR Path="/773F65F14AC3EEFD" Ref="#PWR057"  Part="1" 
AR Path="/773F8EB44AC3EEFD" Ref="#PWR055"  Part="1" 
AR Path="/23C9F04AC3EEFD" Ref="#PWR56"  Part="1" 
AR Path="/23BC884AC3EEFD" Ref="#PWR057"  Part="1" 
AR Path="/DC0C124AC3EEFD" Ref="#PWR039"  Part="1" 
AR Path="/6684D64AC3EEFD" Ref="#PWR055"  Part="1" 
AR Path="/23C34C4AC3EEFD" Ref="#PWR056"  Part="1" 
AR Path="/23CBC44AC3EEFD" Ref="#PWR055"  Part="1" 
AR Path="/39803EA4AC3EEFD" Ref="#PWR040"  Part="1" 
AR Path="/6FE934344AC3EEFD" Ref="#PWR67"  Part="1" 
AR Path="/7E0073254AC3EEFD" Ref="#PWR010"  Part="1" 
AR Path="/73254AC3EEFD" Ref="#PWR083"  Part="1" 
AR Path="/8CEE4AC3EEFD" Ref="#PWR083"  Part="1" 
AR Path="/23D9004AC3EEFD" Ref="#PWR055"  Part="1" 
AR Path="/23C6504AC3EEFD" Ref="#PWR067"  Part="1" 
AR Path="/91964AC3EEFD" Ref="#PWR063"  Part="1" 
AR Path="/77F16B254AC3EEFD" Ref="#PWR050"  Part="1" 
AR Path="/23D83C4AC3EEFD" Ref="#PWR69"  Part="1" 
AR Path="/47907FA4AC3EEFD" Ref="#PWR010"  Part="1" 
AR Path="/14AC3EEFD" Ref="#PWR070"  Part="1" 
AR Path="/8D384AC3EEFD" Ref="#PWR070"  Part="1" 
AR Path="/D058E04AC3EEFD" Ref="#PWR057"  Part="1" 
AR Path="/3C64AC3EEFD" Ref="#PWR071"  Part="1" 
AR Path="/2F4A4AC3EEFD" Ref="#PWR071"  Part="1" 
AR Path="/24AC3EEFD" Ref="#PWR56"  Part="1" 
AR Path="/D1C3384AC3EEFD" Ref="#PWR057"  Part="1" 
F 0 "#PWR051" H 32650 16600 30  0001 C CNN
F 1 "GND" H 32650 16530 30  0001 C CNN
F 2 "" H 32650 16600 50  0001 C CNN
F 3 "" H 32650 16600 50  0001 C CNN
	1    32650 16600
	1    0    0    -1  
$EndComp
Text Label 32350 16150 0    60   ~ 0
VCC
$Comp
L power-rescue:PWR_FLAG-s100_Z80-V2-rescue #FLG?
U 1 1 4AECD1B8
P 32650 16150
AR Path="/69698AFC4AECD1B8" Ref="#FLG?"  Part="1" 
AR Path="/393639364AECD1B8" Ref="#FLG?"  Part="1" 
AR Path="/25E4AECD1B8" Ref="#FLG035"  Part="1" 
AR Path="/FFFFFFFF4AECD1B8" Ref="#FLG054"  Part="1" 
AR Path="/4AECD1B8" Ref="#FLG048"  Part="1" 
AR Path="/94AECD1B8" Ref="#FLG2"  Part="1" 
AR Path="/23C7004AECD1B8" Ref="#FLG07"  Part="1" 
AR Path="/5AD7153D4AECD1B8" Ref="#FLG036"  Part="1" 
AR Path="/DCBAABCD4AECD1B8" Ref="#FLG025"  Part="1" 
AR Path="/FFFFFFF04AECD1B8" Ref="#FLG2"  Part="1" 
AR Path="/A4AECD1B8" Ref="#FLG049"  Part="1" 
AR Path="/14AECD1B8" Ref="#FLG067"  Part="1" 
AR Path="/6FF0DD404AECD1B8" Ref="#FLG054"  Part="1" 
AR Path="/3FEFFFFF4AECD1B8" Ref="#FLG036"  Part="1" 
AR Path="/23C2344AECD1B8" Ref="#FLG01"  Part="1" 
AR Path="/755D912A4AECD1B8" Ref="#FLG013"  Part="1" 
AR Path="/3D7E00004AECD1B8" Ref="#FLG017"  Part="1" 
AR Path="/3D8EA0004AECD1B8" Ref="#FLG025"  Part="1" 
AR Path="/23D9304AECD1B8" Ref="#FLG02"  Part="1" 
AR Path="/6FE901F74AECD1B8" Ref="#FLG017"  Part="1" 
AR Path="/5AD746F64AECD1B8" Ref="#FLG02"  Part="1" 
AR Path="/4027EF1A4AECD1B8" Ref="#FLG02"  Part="1" 
AR Path="/402A6F1A4AECD1B8" Ref="#FLG02"  Part="1" 
AR Path="/4029BBE74AECD1B8" Ref="#FLG02"  Part="1" 
AR Path="/402A224D4AECD1B8" Ref="#FLG02"  Part="1" 
AR Path="/23D8D44AECD1B8" Ref="#FLG036"  Part="1" 
AR Path="/402A55814AECD1B8" Ref="#FLG01"  Part="1" 
AR Path="/4026224D4AECD1B8" Ref="#FLG06"  Part="1" 
AR Path="/3D6220004AECD1B8" Ref="#FLG01"  Part="1" 
AR Path="/3D6CC0004AECD1B8" Ref="#FLG018"  Part="1" 
AR Path="/3D9720004AECD1B8" Ref="#FLG02"  Part="1" 
AR Path="/2600004AECD1B8" Ref="#FLG036"  Part="1" 
AR Path="/402C3BE74AECD1B8" Ref="#FLG06"  Part="1" 
AR Path="/402955814AECD1B8" Ref="#FLG017"  Part="1" 
AR Path="/40293BE74AECD1B8" Ref="#FLG021"  Part="1" 
AR Path="/402555814AECD1B8" Ref="#FLG06"  Part="1" 
AR Path="/3FE88B434AECD1B8" Ref="#FLG027"  Part="1" 
AR Path="/23D2034AECD1B8" Ref="#FLG017"  Part="1" 
AR Path="/402988B44AECD1B8" Ref="#FLG06"  Part="1" 
AR Path="/3FED58104AECD1B8" Ref="#FLG06"  Part="1" 
AR Path="/402688B44AECD1B8" Ref="#FLG06"  Part="1" 
AR Path="/3FE441894AECD1B8" Ref="#FLG07"  Part="1" 
AR Path="/B84AECD1B8" Ref="#FLG2"  Part="1" 
AR Path="/3DA360004AECD1B8" Ref="#FLG017"  Part="1" 
AR Path="/4029D5814AECD1B8" Ref="#FLG09"  Part="1" 
AR Path="/40256F1A4AECD1B8" Ref="#FLG017"  Part="1" 
AR Path="/40286F1A4AECD1B8" Ref="#FLG017"  Part="1" 
AR Path="/402A08B44AECD1B8" Ref="#FLG017"  Part="1" 
AR Path="/402588B44AECD1B8" Ref="#FLG017"  Part="1" 
AR Path="/A84AECD1B8" Ref="#FLG2"  Part="1" 
AR Path="/363030314AECD1B8" Ref="#FLG035"  Part="1" 
AR Path="/3FE224DD4AECD1B8" Ref="#FLG017"  Part="1" 
AR Path="/402C08B44AECD1B8" Ref="#FLG018"  Part="1" 
AR Path="/314AECD1B8" Ref="#FLG019"  Part="1" 
AR Path="/402BEF1A4AECD1B8" Ref="#FLG019"  Part="1" 
AR Path="/402C55814AECD1B8" Ref="#FLG024"  Part="1" 
AR Path="/40273BE74AECD1B8" Ref="#FLG025"  Part="1" 
AR Path="/402908B44AECD1B8" Ref="#FLG021"  Part="1" 
AR Path="/3D5A40004AECD1B8" Ref="#FLG018"  Part="1" 
AR Path="/402755814AECD1B8" Ref="#FLG026"  Part="1" 
AR Path="/4030AAC04AECD1B8" Ref="#FLG026"  Part="1" 
AR Path="/4031DDF34AECD1B8" Ref="#FLG027"  Part="1" 
AR Path="/4032778D4AECD1B8" Ref="#FLG033"  Part="1" 
AR Path="/403091264AECD1B8" Ref="#FLG036"  Part="1" 
AR Path="/403051264AECD1B8" Ref="#FLG036"  Part="1" 
AR Path="/4032F78D4AECD1B8" Ref="#FLG036"  Part="1" 
AR Path="/403251264AECD1B8" Ref="#FLG036"  Part="1" 
AR Path="/4032AAC04AECD1B8" Ref="#FLG036"  Part="1" 
AR Path="/4030D1264AECD1B8" Ref="#FLG036"  Part="1" 
AR Path="/4031778D4AECD1B8" Ref="#FLG036"  Part="1" 
AR Path="/3FEA24DD4AECD1B8" Ref="#FLG036"  Part="1" 
AR Path="/6FE934E34AECD1B8" Ref="#FLG052"  Part="1" 
AR Path="/773F65F14AECD1B8" Ref="#FLG054"  Part="1" 
AR Path="/773F8EB44AECD1B8" Ref="#FLG052"  Part="1" 
AR Path="/23C9F04AECD1B8" Ref="#FLG2"  Part="1" 
AR Path="/23BC884AECD1B8" Ref="#FLG054"  Part="1" 
AR Path="/DC0C124AECD1B8" Ref="#FLG036"  Part="1" 
AR Path="/6684D64AECD1B8" Ref="#FLG052"  Part="1" 
AR Path="/23C34C4AECD1B8" Ref="#FLG053"  Part="1" 
AR Path="/23CBC44AECD1B8" Ref="#FLG052"  Part="1" 
AR Path="/39803EA4AECD1B8" Ref="#FLG037"  Part="1" 
AR Path="/6FE934344AECD1B8" Ref="#FLG2"  Part="1" 
AR Path="/7E0073254AECD1B8" Ref="#FLG07"  Part="1" 
AR Path="/73254AECD1B8" Ref="#FLG080"  Part="1" 
AR Path="/8CEE4AECD1B8" Ref="#FLG080"  Part="1" 
AR Path="/23D9004AECD1B8" Ref="#FLG052"  Part="1" 
AR Path="/23C6504AECD1B8" Ref="#FLG064"  Part="1" 
AR Path="/91964AECD1B8" Ref="#FLG060"  Part="1" 
AR Path="/77F16B254AECD1B8" Ref="#FLG047"  Part="1" 
AR Path="/23D83C4AECD1B8" Ref="#FLG2"  Part="1" 
AR Path="/47907FA4AECD1B8" Ref="#FLG067"  Part="1" 
AR Path="/8D384AECD1B8" Ref="#FLG067"  Part="1" 
AR Path="/D058E04AECD1B8" Ref="#FLG054"  Part="1" 
AR Path="/3C64AECD1B8" Ref="#FLG068"  Part="1" 
AR Path="/2F4A4AECD1B8" Ref="#FLG068"  Part="1" 
AR Path="/24AECD1B8" Ref="#FLG2"  Part="1" 
AR Path="/D1C3384AECD1B8" Ref="#FLG054"  Part="1" 
F 0 "#FLG048" H 32650 16420 30  0001 C CNN
F 1 "PWR_FLAG" H 32650 16380 30  0000 C CNN
F 2 "" H 32650 16150 50  0001 C CNN
F 3 "" H 32650 16150 50  0001 C CNN
	1    32650 16150
	1    0    0    -1  
$EndComp
Text Label 32400 16550 0    60   ~ 0
0V
$Comp
L power-rescue:7805-s100_Z80-V2-rescue U?
U 1 1 4BB79089
P 31650 16200
AR Path="/384BB79089" Ref="U?"  Part="1" 
AR Path="/4BB79089" Ref="U48"  Part="1" 
AR Path="/773F65F14BB79089" Ref="U48"  Part="1" 
AR Path="/23C34C4BB79089" Ref="U48"  Part="1" 
AR Path="/2F4A4BB79089" Ref="U0"  Part="1" 
AR Path="/24BB79089" Ref="U48"  Part="1" 
AR Path="/23BC884BB79089" Ref="U48"  Part="1" 
AR Path="/2D347C4BB79089" Ref="U?"  Part="1" 
AR Path="/7E42B4154BB79089" Ref="U0"  Part="1" 
AR Path="/393038394BB79089" Ref="U0"  Part="1" 
AR Path="/6FE934E34BB79089" Ref="U48"  Part="1" 
AR Path="/FFFFFFFF4BB79089" Ref="U48"  Part="1" 
AR Path="/773F8EB44BB79089" Ref="U48"  Part="1" 
AR Path="/23C9F04BB79089" Ref="U48"  Part="1" 
AR Path="/94BB79089" Ref="U"  Part="1" 
AR Path="/23D9004BB79089" Ref="U48"  Part="1" 
AR Path="/23CBC44BB79089" Ref="U48"  Part="1" 
AR Path="/2824BB79089" Ref="U48"  Part="1" 
AR Path="/69549BC04BB79089" Ref="U48"  Part="1" 
AR Path="/14BB79089" Ref="U48"  Part="1" 
AR Path="/D058E04BB79089" Ref="U48"  Part="1" 
AR Path="/D1C3384BB79089" Ref="U48"  Part="1" 
F 0 "U48" H 31800 16000 60  0000 C CNN
F 1 "7805" H 31650 16400 60  0000 C CNN
F 2 "TO3" H 31650 16500 60  0001 C CNN
F 3 "" H 31650 16200 50  0001 C CNN
	1    31650 16200
	1    0    0    -1  
$EndComp
Wire Wire Line
	32650 16150 32050 16150
Wire Wire Line
	31250 16150 31200 16150
Wire Wire Line
	32650 16550 32650 16600
Wire Wire Line
	31650 16550 32050 16550
Connection ~ 31650 16550
Wire Wire Line
	31650 16550 31650 16450
Connection ~ 32650 16550
Connection ~ 31200 16150
Wire Wire Line
	31200 16150 30700 16150
Wire Wire Line
	31200 16550 31200 16450
Wire Wire Line
	31200 16550 31650 16550
Wire Wire Line
	32050 16200 32050 16150
Connection ~ 32050 16150
Wire Wire Line
	32050 16500 32050 16550
Connection ~ 32050 16550
Wire Wire Line
	32050 16550 32650 16550
$EndSCHEMATC
