(export (version D)
  (design
    (source "/home/mixotricha/workspace/s100_stuff/s100_beagle_cape/S100_Bus Terminator.sch")
    (date "Sat 29 Jan 2022 21:29:06")
    (tool "Eeschema 5.1.5+dfsg1-2build2")
    (sheet (number 1) (name /) (tstamps /)
      (title_block
        (title noname.sch)
        (company)
        (rev)
        (date "10 feb 2013")
        (source "S100_Bus Terminator.sch")
        (comment (number 1) (value ""))
        (comment (number 2) (value ""))
        (comment (number 3) (value ""))
        (comment (number 4) (value "")))))
  (components
    (comp (ref P2)
      (value CONN_1)
      (footprint PGA15X15)
      (libsource (lib S100_Bus-Terminator-rescue) (part CONN_1) (description ""))
      (sheetpath (names /) (tstamps /))
      (tstamp 5117DE89))
    (comp (ref P4)
      (value CONN_1)
      (footprint PGA15X15)
      (libsource (lib S100_Bus-Terminator-rescue) (part CONN_1) (description ""))
      (sheetpath (names /) (tstamps /))
      (tstamp 5117DE83))
    (comp (ref P7)
      (value CONN_1)
      (footprint PGA15X15)
      (libsource (lib S100_Bus-Terminator-rescue) (part CONN_1) (description ""))
      (sheetpath (names /) (tstamps /))
      (tstamp 5117DE7D))
    (comp (ref P11)
      (value CONN_1)
      (footprint PGA15X15)
      (libsource (lib S100_Bus-Terminator-rescue) (part CONN_1) (description ""))
      (sheetpath (names /) (tstamps /))
      (tstamp 5117DE77))
    (comp (ref P3)
      (value CONN_1)
      (footprint PGA15X15)
      (libsource (lib S100_Bus-Terminator-rescue) (part CONN_1) (description ""))
      (sheetpath (names /) (tstamps /))
      (tstamp 5117DE65))
    (comp (ref P5)
      (value CONN_1)
      (footprint PGA15X15)
      (libsource (lib S100_Bus-Terminator-rescue) (part CONN_1) (description ""))
      (sheetpath (names /) (tstamps /))
      (tstamp 5117DE5F))
    (comp (ref P8)
      (value CONN_1)
      (footprint PGA15X15)
      (libsource (lib S100_Bus-Terminator-rescue) (part CONN_1) (description ""))
      (sheetpath (names /) (tstamps /))
      (tstamp 5117DE59))
    (comp (ref P12)
      (value CONN_1)
      (footprint PGA15X15)
      (libsource (lib S100_Bus-Terminator-rescue) (part CONN_1) (description ""))
      (sheetpath (names /) (tstamps /))
      (tstamp 5117DE53))
    (comp (ref P10)
      (value CONN_1)
      (footprint PGA15X15)
      (libsource (lib S100_Bus-Terminator-rescue) (part CONN_1) (description ""))
      (sheetpath (names /) (tstamps /))
      (tstamp 5117DE41))
    (comp (ref P6)
      (value CONN_1)
      (footprint PGA15X15)
      (libsource (lib S100_Bus-Terminator-rescue) (part CONN_1) (description ""))
      (sheetpath (names /) (tstamps /))
      (tstamp 5117DE3B))
    (comp (ref P9)
      (value CONN_1)
      (footprint PGA15X15)
      (libsource (lib S100_Bus-Terminator-rescue) (part CONN_1) (description ""))
      (sheetpath (names /) (tstamps /))
      (tstamp 5117DE35))
    (comp (ref P13)
      (value CONN_1)
      (footprint PGA15X15)
      (libsource (lib S100_Bus-Terminator-rescue) (part CONN_1) (description ""))
      (sheetpath (names /) (tstamps /))
      (tstamp 5117DE2F))
    (comp (ref P14)
      (value CONN_1)
      (footprint PGA15X15)
      (libsource (lib S100_Bus-Terminator-rescue) (part CONN_1) (description ""))
      (sheetpath (names /) (tstamps /))
      (tstamp 5117DE23))
    (comp (ref P1)
      (value S100_MALE)
      (footprint Sockets:S100_MALE)
      (libsource (lib S100_Bus-Terminator-rescue) (part S100_MALE) (description ""))
      (sheetpath (names /) (tstamps /))
      (tstamp 4A06E881))
    (comp (ref P15)
      (value CONN_1)
      (footprint PGA15X15)
      (libsource (lib S100_Bus-Terminator-rescue) (part CONN_1) (description ""))
      (sheetpath (names /) (tstamps /))
      (tstamp 61F7CD47))
    (comp (ref J1)
      (value Conn_01x01_Female)
      (footprint Wire_Pads:SolderWirePad_single_0-8mmDrill)
      (datasheet ~)
      (libsource (lib Connector) (part Conn_01x01_Female) (description "Generic connector, single row, 01x01, script generated (kicad-library-utils/schlib/autogen/connector/)"))
      (sheetpath (names /) (tstamps /))
      (tstamp 6202E70D))
    (comp (ref J2)
      (value Conn_01x01_Female)
      (footprint Wire_Pads:SolderWirePad_single_0-8mmDrill)
      (datasheet ~)
      (libsource (lib Connector) (part Conn_01x01_Female) (description "Generic connector, single row, 01x01, script generated (kicad-library-utils/schlib/autogen/connector/)"))
      (sheetpath (names /) (tstamps /))
      (tstamp 6204279A))
    (comp (ref J3)
      (value Conn_01x01_Female)
      (footprint Wire_Pads:SolderWirePad_single_0-8mmDrill)
      (datasheet ~)
      (libsource (lib Connector) (part Conn_01x01_Female) (description "Generic connector, single row, 01x01, script generated (kicad-library-utils/schlib/autogen/connector/)"))
      (sheetpath (names /) (tstamps /))
      (tstamp 62042DE5))
    (comp (ref J4)
      (value Conn_01x01_Female)
      (footprint Wire_Pads:SolderWirePad_single_0-8mmDrill)
      (datasheet ~)
      (libsource (lib Connector) (part Conn_01x01_Female) (description "Generic connector, single row, 01x01, script generated (kicad-library-utils/schlib/autogen/connector/)"))
      (sheetpath (names /) (tstamps /))
      (tstamp 620433D4))
    (comp (ref J5)
      (value Conn_01x01_Female)
      (footprint Wire_Pads:SolderWirePad_single_0-8mmDrill)
      (datasheet ~)
      (libsource (lib Connector) (part Conn_01x01_Female) (description "Generic connector, single row, 01x01, script generated (kicad-library-utils/schlib/autogen/connector/)"))
      (sheetpath (names /) (tstamps /))
      (tstamp 620439AF))
    (comp (ref J6)
      (value Conn_01x01_Female)
      (footprint Wire_Pads:SolderWirePad_single_0-8mmDrill)
      (datasheet ~)
      (libsource (lib Connector) (part Conn_01x01_Female) (description "Generic connector, single row, 01x01, script generated (kicad-library-utils/schlib/autogen/connector/)"))
      (sheetpath (names /) (tstamps /))
      (tstamp 620450BF))
    (comp (ref J7)
      (value Conn_01x01_Female)
      (footprint Wire_Pads:SolderWirePad_single_0-8mmDrill)
      (datasheet ~)
      (libsource (lib Connector) (part Conn_01x01_Female) (description "Generic connector, single row, 01x01, script generated (kicad-library-utils/schlib/autogen/connector/)"))
      (sheetpath (names /) (tstamps /))
      (tstamp 620454E6))
    (comp (ref J8)
      (value Conn_01x01_Female)
      (footprint Wire_Pads:SolderWirePad_single_0-8mmDrill)
      (datasheet ~)
      (libsource (lib Connector) (part Conn_01x01_Female) (description "Generic connector, single row, 01x01, script generated (kicad-library-utils/schlib/autogen/connector/)"))
      (sheetpath (names /) (tstamps /))
      (tstamp 620458D6))
    (comp (ref J9)
      (value Conn_01x01_Female)
      (footprint Wire_Pads:SolderWirePad_single_0-8mmDrill)
      (datasheet ~)
      (libsource (lib Connector) (part Conn_01x01_Female) (description "Generic connector, single row, 01x01, script generated (kicad-library-utils/schlib/autogen/connector/)"))
      (sheetpath (names /) (tstamps /))
      (tstamp 62046FF3))
    (comp (ref J10)
      (value Conn_01x01_Female)
      (footprint Wire_Pads:SolderWirePad_single_0-8mmDrill)
      (datasheet ~)
      (libsource (lib Connector) (part Conn_01x01_Female) (description "Generic connector, single row, 01x01, script generated (kicad-library-utils/schlib/autogen/connector/)"))
      (sheetpath (names /) (tstamps /))
      (tstamp 62047455))
    (comp (ref J11)
      (value Conn_01x01_Female)
      (footprint Wire_Pads:SolderWirePad_single_0-8mmDrill)
      (datasheet ~)
      (libsource (lib Connector) (part Conn_01x01_Female) (description "Generic connector, single row, 01x01, script generated (kicad-library-utils/schlib/autogen/connector/)"))
      (sheetpath (names /) (tstamps /))
      (tstamp 620478A6))
    (comp (ref J12)
      (value Conn_01x01_Female)
      (footprint Wire_Pads:SolderWirePad_single_0-8mmDrill)
      (datasheet ~)
      (libsource (lib Connector) (part Conn_01x01_Female) (description "Generic connector, single row, 01x01, script generated (kicad-library-utils/schlib/autogen/connector/)"))
      (sheetpath (names /) (tstamps /))
      (tstamp 62048BD7))
    (comp (ref J13)
      (value Conn_01x01_Female)
      (footprint Wire_Pads:SolderWirePad_single_0-8mmDrill)
      (datasheet ~)
      (libsource (lib Connector) (part Conn_01x01_Female) (description "Generic connector, single row, 01x01, script generated (kicad-library-utils/schlib/autogen/connector/)"))
      (sheetpath (names /) (tstamps /))
      (tstamp 6204902E))
    (comp (ref J14)
      (value Conn_01x01_Female)
      (footprint Wire_Pads:SolderWirePad_single_0-8mmDrill)
      (datasheet ~)
      (libsource (lib Connector) (part Conn_01x01_Female) (description "Generic connector, single row, 01x01, script generated (kicad-library-utils/schlib/autogen/connector/)"))
      (sheetpath (names /) (tstamps /))
      (tstamp 620494F6))
    (comp (ref J15)
      (value Conn_01x01_Female)
      (footprint Wire_Pads:SolderWirePad_single_0-8mmDrill)
      (datasheet ~)
      (libsource (lib Connector) (part Conn_01x01_Female) (description "Generic connector, single row, 01x01, script generated (kicad-library-utils/schlib/autogen/connector/)"))
      (sheetpath (names /) (tstamps /))
      (tstamp 62049963))
    (comp (ref J16)
      (value Conn_01x01_Female)
      (footprint Wire_Pads:SolderWirePad_single_0-8mmDrill)
      (datasheet ~)
      (libsource (lib Connector) (part Conn_01x01_Female) (description "Generic connector, single row, 01x01, script generated (kicad-library-utils/schlib/autogen/connector/)"))
      (sheetpath (names /) (tstamps /))
      (tstamp 62049EA8))
    (comp (ref J17)
      (value Conn_01x01_Female)
      (footprint Wire_Pads:SolderWirePad_single_0-8mmDrill)
      (datasheet ~)
      (libsource (lib Connector) (part Conn_01x01_Female) (description "Generic connector, single row, 01x01, script generated (kicad-library-utils/schlib/autogen/connector/)"))
      (sheetpath (names /) (tstamps /))
      (tstamp 6204A42D))
    (comp (ref J18)
      (value Conn_01x01_Female)
      (footprint Wire_Pads:SolderWirePad_single_0-8mmDrill)
      (datasheet ~)
      (libsource (lib Connector) (part Conn_01x01_Female) (description "Generic connector, single row, 01x01, script generated (kicad-library-utils/schlib/autogen/connector/)"))
      (sheetpath (names /) (tstamps /))
      (tstamp 6204A919))
    (comp (ref J19)
      (value Conn_01x01_Female)
      (footprint Wire_Pads:SolderWirePad_single_0-8mmDrill)
      (datasheet ~)
      (libsource (lib Connector) (part Conn_01x01_Female) (description "Generic connector, single row, 01x01, script generated (kicad-library-utils/schlib/autogen/connector/)"))
      (sheetpath (names /) (tstamps /))
      (tstamp 62061FEC))
    (comp (ref J20)
      (value Conn_01x01_Female)
      (footprint Wire_Pads:SolderWirePad_single_0-8mmDrill)
      (datasheet ~)
      (libsource (lib Connector) (part Conn_01x01_Female) (description "Generic connector, single row, 01x01, script generated (kicad-library-utils/schlib/autogen/connector/)"))
      (sheetpath (names /) (tstamps /))
      (tstamp 62062478))
    (comp (ref J21)
      (value Conn_01x01_Female)
      (footprint Wire_Pads:SolderWirePad_single_0-8mmDrill)
      (datasheet ~)
      (libsource (lib Connector) (part Conn_01x01_Female) (description "Generic connector, single row, 01x01, script generated (kicad-library-utils/schlib/autogen/connector/)"))
      (sheetpath (names /) (tstamps /))
      (tstamp 6206293C))
    (comp (ref J22)
      (value Conn_01x01_Female)
      (footprint Wire_Pads:SolderWirePad_single_0-8mmDrill)
      (datasheet ~)
      (libsource (lib Connector) (part Conn_01x01_Female) (description "Generic connector, single row, 01x01, script generated (kicad-library-utils/schlib/autogen/connector/)"))
      (sheetpath (names /) (tstamps /))
      (tstamp 62062E17))
    (comp (ref J23)
      (value Conn_01x01_Female)
      (footprint Wire_Pads:SolderWirePad_single_0-8mmDrill)
      (datasheet ~)
      (libsource (lib Connector) (part Conn_01x01_Female) (description "Generic connector, single row, 01x01, script generated (kicad-library-utils/schlib/autogen/connector/)"))
      (sheetpath (names /) (tstamps /))
      (tstamp 620632A1))
    (comp (ref J24)
      (value Conn_01x01_Female)
      (footprint Wire_Pads:SolderWirePad_single_0-8mmDrill)
      (datasheet ~)
      (libsource (lib Connector) (part Conn_01x01_Female) (description "Generic connector, single row, 01x01, script generated (kicad-library-utils/schlib/autogen/connector/)"))
      (sheetpath (names /) (tstamps /))
      (tstamp 620637C5))
    (comp (ref J25)
      (value Conn_01x01_Female)
      (footprint Wire_Pads:SolderWirePad_single_0-8mmDrill)
      (datasheet ~)
      (libsource (lib Connector) (part Conn_01x01_Female) (description "Generic connector, single row, 01x01, script generated (kicad-library-utils/schlib/autogen/connector/)"))
      (sheetpath (names /) (tstamps /))
      (tstamp 620688A9))
    (comp (ref J26)
      (value Conn_01x01_Female)
      (footprint Wire_Pads:SolderWirePad_single_0-8mmDrill)
      (datasheet ~)
      (libsource (lib Connector) (part Conn_01x01_Female) (description "Generic connector, single row, 01x01, script generated (kicad-library-utils/schlib/autogen/connector/)"))
      (sheetpath (names /) (tstamps /))
      (tstamp 62068C9C))
    (comp (ref J27)
      (value Conn_01x01_Female)
      (footprint Wire_Pads:SolderWirePad_single_0-8mmDrill)
      (datasheet ~)
      (libsource (lib Connector) (part Conn_01x01_Female) (description "Generic connector, single row, 01x01, script generated (kicad-library-utils/schlib/autogen/connector/)"))
      (sheetpath (names /) (tstamps /))
      (tstamp 6206911A))
    (comp (ref J28)
      (value Conn_01x01_Female)
      (footprint Wire_Pads:SolderWirePad_single_0-8mmDrill)
      (datasheet ~)
      (libsource (lib Connector) (part Conn_01x01_Female) (description "Generic connector, single row, 01x01, script generated (kicad-library-utils/schlib/autogen/connector/)"))
      (sheetpath (names /) (tstamps /))
      (tstamp 6206973C))
    (comp (ref J29)
      (value Conn_01x01_Female)
      (footprint Wire_Pads:SolderWirePad_single_0-8mmDrill)
      (datasheet ~)
      (libsource (lib Connector) (part Conn_01x01_Female) (description "Generic connector, single row, 01x01, script generated (kicad-library-utils/schlib/autogen/connector/)"))
      (sheetpath (names /) (tstamps /))
      (tstamp 62069C0B))
    (comp (ref J30)
      (value Conn_01x01_Female)
      (footprint Wire_Pads:SolderWirePad_single_0-8mmDrill)
      (datasheet ~)
      (libsource (lib Connector) (part Conn_01x01_Female) (description "Generic connector, single row, 01x01, script generated (kicad-library-utils/schlib/autogen/connector/)"))
      (sheetpath (names /) (tstamps /))
      (tstamp 6206A269))
    (comp (ref J31)
      (value Conn_01x01_Female)
      (footprint Wire_Pads:SolderWirePad_single_0-8mmDrill)
      (datasheet ~)
      (libsource (lib Connector) (part Conn_01x01_Female) (description "Generic connector, single row, 01x01, script generated (kicad-library-utils/schlib/autogen/connector/)"))
      (sheetpath (names /) (tstamps /))
      (tstamp 6206A6DA))
    (comp (ref J32)
      (value Conn_01x01_Female)
      (footprint Wire_Pads:SolderWirePad_single_0-8mmDrill)
      (datasheet ~)
      (libsource (lib Connector) (part Conn_01x01_Female) (description "Generic connector, single row, 01x01, script generated (kicad-library-utils/schlib/autogen/connector/)"))
      (sheetpath (names /) (tstamps /))
      (tstamp 6206D642))
    (comp (ref J33)
      (value Conn_01x01_Female)
      (footprint Wire_Pads:SolderWirePad_single_0-8mmDrill)
      (datasheet ~)
      (libsource (lib Connector) (part Conn_01x01_Female) (description "Generic connector, single row, 01x01, script generated (kicad-library-utils/schlib/autogen/connector/)"))
      (sheetpath (names /) (tstamps /))
      (tstamp 6206DACE))
    (comp (ref J34)
      (value Conn_01x01_Female)
      (footprint Wire_Pads:SolderWirePad_single_0-8mmDrill)
      (datasheet ~)
      (libsource (lib Connector) (part Conn_01x01_Female) (description "Generic connector, single row, 01x01, script generated (kicad-library-utils/schlib/autogen/connector/)"))
      (sheetpath (names /) (tstamps /))
      (tstamp 6206DF48))
    (comp (ref J35)
      (value Conn_01x01_Female)
      (footprint Wire_Pads:SolderWirePad_single_0-8mmDrill)
      (datasheet ~)
      (libsource (lib Connector) (part Conn_01x01_Female) (description "Generic connector, single row, 01x01, script generated (kicad-library-utils/schlib/autogen/connector/)"))
      (sheetpath (names /) (tstamps /))
      (tstamp 6206E694))
    (comp (ref J36)
      (value Conn_01x01_Female)
      (footprint Wire_Pads:SolderWirePad_single_0-8mmDrill)
      (datasheet ~)
      (libsource (lib Connector) (part Conn_01x01_Female) (description "Generic connector, single row, 01x01, script generated (kicad-library-utils/schlib/autogen/connector/)"))
      (sheetpath (names /) (tstamps /))
      (tstamp 6206EC7F))
    (comp (ref J37)
      (value Conn_01x01_Female)
      (footprint Wire_Pads:SolderWirePad_single_0-8mmDrill)
      (datasheet ~)
      (libsource (lib Connector) (part Conn_01x01_Female) (description "Generic connector, single row, 01x01, script generated (kicad-library-utils/schlib/autogen/connector/)"))
      (sheetpath (names /) (tstamps /))
      (tstamp 6206F193))
    (comp (ref J38)
      (value Conn_01x01_Female)
      (footprint Wire_Pads:SolderWirePad_single_0-8mmDrill)
      (datasheet ~)
      (libsource (lib Connector) (part Conn_01x01_Female) (description "Generic connector, single row, 01x01, script generated (kicad-library-utils/schlib/autogen/connector/)"))
      (sheetpath (names /) (tstamps /))
      (tstamp 6206F6D8))
    (comp (ref J39)
      (value Conn_01x01_Female)
      (footprint Wire_Pads:SolderWirePad_single_0-8mmDrill)
      (datasheet ~)
      (libsource (lib Connector) (part Conn_01x01_Female) (description "Generic connector, single row, 01x01, script generated (kicad-library-utils/schlib/autogen/connector/)"))
      (sheetpath (names /) (tstamps /))
      (tstamp 62070E93))
    (comp (ref J40)
      (value Conn_01x01_Female)
      (footprint Wire_Pads:SolderWirePad_single_0-8mmDrill)
      (datasheet ~)
      (libsource (lib Connector) (part Conn_01x01_Female) (description "Generic connector, single row, 01x01, script generated (kicad-library-utils/schlib/autogen/connector/)"))
      (sheetpath (names /) (tstamps /))
      (tstamp 6207131E))
    (comp (ref J41)
      (value Conn_01x01_Female)
      (footprint Wire_Pads:SolderWirePad_single_0-8mmDrill)
      (datasheet ~)
      (libsource (lib Connector) (part Conn_01x01_Female) (description "Generic connector, single row, 01x01, script generated (kicad-library-utils/schlib/autogen/connector/)"))
      (sheetpath (names /) (tstamps /))
      (tstamp 62071782))
    (comp (ref J42)
      (value Conn_01x01_Female)
      (footprint Wire_Pads:SolderWirePad_single_0-8mmDrill)
      (datasheet ~)
      (libsource (lib Connector) (part Conn_01x01_Female) (description "Generic connector, single row, 01x01, script generated (kicad-library-utils/schlib/autogen/connector/)"))
      (sheetpath (names /) (tstamps /))
      (tstamp 62071C56))
    (comp (ref J43)
      (value Conn_01x01_Female)
      (footprint Wire_Pads:SolderWirePad_single_0-8mmDrill)
      (datasheet ~)
      (libsource (lib Connector) (part Conn_01x01_Female) (description "Generic connector, single row, 01x01, script generated (kicad-library-utils/schlib/autogen/connector/)"))
      (sheetpath (names /) (tstamps /))
      (tstamp 620721FD))
    (comp (ref J44)
      (value Conn_01x01_Female)
      (footprint Wire_Pads:SolderWirePad_single_0-8mmDrill)
      (datasheet ~)
      (libsource (lib Connector) (part Conn_01x01_Female) (description "Generic connector, single row, 01x01, script generated (kicad-library-utils/schlib/autogen/connector/)"))
      (sheetpath (names /) (tstamps /))
      (tstamp 6207352C))
    (comp (ref J45)
      (value Conn_01x01_Female)
      (footprint Wire_Pads:SolderWirePad_single_0-8mmDrill)
      (datasheet ~)
      (libsource (lib Connector) (part Conn_01x01_Female) (description "Generic connector, single row, 01x01, script generated (kicad-library-utils/schlib/autogen/connector/)"))
      (sheetpath (names /) (tstamps /))
      (tstamp 620739FE))
    (comp (ref J46)
      (value Conn_01x01_Female)
      (footprint Wire_Pads:SolderWirePad_single_0-8mmDrill)
      (datasheet ~)
      (libsource (lib Connector) (part Conn_01x01_Female) (description "Generic connector, single row, 01x01, script generated (kicad-library-utils/schlib/autogen/connector/)"))
      (sheetpath (names /) (tstamps /))
      (tstamp 62073ED8))
    (comp (ref J47)
      (value Conn_01x01_Female)
      (footprint Wire_Pads:SolderWirePad_single_0-8mmDrill)
      (datasheet ~)
      (libsource (lib Connector) (part Conn_01x01_Female) (description "Generic connector, single row, 01x01, script generated (kicad-library-utils/schlib/autogen/connector/)"))
      (sheetpath (names /) (tstamps /))
      (tstamp 620780F7))
    (comp (ref J48)
      (value Conn_01x01_Female)
      (footprint Wire_Pads:SolderWirePad_single_0-8mmDrill)
      (datasheet ~)
      (libsource (lib Connector) (part Conn_01x01_Female) (description "Generic connector, single row, 01x01, script generated (kicad-library-utils/schlib/autogen/connector/)"))
      (sheetpath (names /) (tstamps /))
      (tstamp 62078686))
    (comp (ref J49)
      (value Conn_01x01_Female)
      (footprint Wire_Pads:SolderWirePad_single_0-8mmDrill)
      (datasheet ~)
      (libsource (lib Connector) (part Conn_01x01_Female) (description "Generic connector, single row, 01x01, script generated (kicad-library-utils/schlib/autogen/connector/)"))
      (sheetpath (names /) (tstamps /))
      (tstamp 62078BA6))
    (comp (ref J50)
      (value Conn_01x01_Female)
      (footprint Wire_Pads:SolderWirePad_single_0-8mmDrill)
      (datasheet ~)
      (libsource (lib Connector) (part Conn_01x01_Female) (description "Generic connector, single row, 01x01, script generated (kicad-library-utils/schlib/autogen/connector/)"))
      (sheetpath (names /) (tstamps /))
      (tstamp 620790DD))
    (comp (ref J51)
      (value Conn_01x01_Female)
      (footprint Wire_Pads:SolderWirePad_single_0-8mmDrill)
      (datasheet ~)
      (libsource (lib Connector) (part Conn_01x01_Female) (description "Generic connector, single row, 01x01, script generated (kicad-library-utils/schlib/autogen/connector/)"))
      (sheetpath (names /) (tstamps /))
      (tstamp 62079A73))
    (comp (ref J52)
      (value Conn_01x01_Female)
      (footprint Wire_Pads:SolderWirePad_single_0-8mmDrill)
      (datasheet ~)
      (libsource (lib Connector) (part Conn_01x01_Female) (description "Generic connector, single row, 01x01, script generated (kicad-library-utils/schlib/autogen/connector/)"))
      (sheetpath (names /) (tstamps /))
      (tstamp 6207A13C))
    (comp (ref J53)
      (value Conn_01x01_Female)
      (footprint Wire_Pads:SolderWirePad_single_0-8mmDrill)
      (datasheet ~)
      (libsource (lib Connector) (part Conn_01x01_Female) (description "Generic connector, single row, 01x01, script generated (kicad-library-utils/schlib/autogen/connector/)"))
      (sheetpath (names /) (tstamps /))
      (tstamp 6207A5E9))
    (comp (ref J54)
      (value Conn_01x01_Female)
      (footprint Wire_Pads:SolderWirePad_single_0-8mmDrill)
      (datasheet ~)
      (libsource (lib Connector) (part Conn_01x01_Female) (description "Generic connector, single row, 01x01, script generated (kicad-library-utils/schlib/autogen/connector/)"))
      (sheetpath (names /) (tstamps /))
      (tstamp 6207AC4F))
    (comp (ref J55)
      (value Conn_01x01_Female)
      (footprint Wire_Pads:SolderWirePad_single_0-8mmDrill)
      (datasheet ~)
      (libsource (lib Connector) (part Conn_01x01_Female) (description "Generic connector, single row, 01x01, script generated (kicad-library-utils/schlib/autogen/connector/)"))
      (sheetpath (names /) (tstamps /))
      (tstamp 6207B103))
    (comp (ref J56)
      (value Conn_01x01_Female)
      (footprint Wire_Pads:SolderWirePad_single_0-8mmDrill)
      (datasheet ~)
      (libsource (lib Connector) (part Conn_01x01_Female) (description "Generic connector, single row, 01x01, script generated (kicad-library-utils/schlib/autogen/connector/)"))
      (sheetpath (names /) (tstamps /))
      (tstamp 6207B7F9))
    (comp (ref J57)
      (value Conn_01x01_Female)
      (footprint Wire_Pads:SolderWirePad_single_0-8mmDrill)
      (datasheet ~)
      (libsource (lib Connector) (part Conn_01x01_Female) (description "Generic connector, single row, 01x01, script generated (kicad-library-utils/schlib/autogen/connector/)"))
      (sheetpath (names /) (tstamps /))
      (tstamp 6207BD3A))
    (comp (ref J58)
      (value Conn_01x01_Female)
      (footprint Wire_Pads:SolderWirePad_single_0-8mmDrill)
      (datasheet ~)
      (libsource (lib Connector) (part Conn_01x01_Female) (description "Generic connector, single row, 01x01, script generated (kicad-library-utils/schlib/autogen/connector/)"))
      (sheetpath (names /) (tstamps /))
      (tstamp 6207C45F))
    (comp (ref J59)
      (value Conn_01x01_Female)
      (footprint Wire_Pads:SolderWirePad_single_0-8mmDrill)
      (datasheet ~)
      (libsource (lib Connector) (part Conn_01x01_Female) (description "Generic connector, single row, 01x01, script generated (kicad-library-utils/schlib/autogen/connector/)"))
      (sheetpath (names /) (tstamps /))
      (tstamp 6207C9BD))
    (comp (ref J60)
      (value Conn_01x01_Female)
      (footprint Wire_Pads:SolderWirePad_single_0-8mmDrill)
      (datasheet ~)
      (libsource (lib Connector) (part Conn_01x01_Female) (description "Generic connector, single row, 01x01, script generated (kicad-library-utils/schlib/autogen/connector/)"))
      (sheetpath (names /) (tstamps /))
      (tstamp 6207D267))
    (comp (ref J61)
      (value Conn_01x01_Female)
      (footprint Wire_Pads:SolderWirePad_single_0-8mmDrill)
      (datasheet ~)
      (libsource (lib Connector) (part Conn_01x01_Female) (description "Generic connector, single row, 01x01, script generated (kicad-library-utils/schlib/autogen/connector/)"))
      (sheetpath (names /) (tstamps /))
      (tstamp 6207D81A))
    (comp (ref J62)
      (value Conn_01x01_Female)
      (footprint Wire_Pads:SolderWirePad_single_0-8mmDrill)
      (datasheet ~)
      (libsource (lib Connector) (part Conn_01x01_Female) (description "Generic connector, single row, 01x01, script generated (kicad-library-utils/schlib/autogen/connector/)"))
      (sheetpath (names /) (tstamps /))
      (tstamp 6207DDBA))
    (comp (ref J63)
      (value Conn_01x01_Female)
      (footprint Wire_Pads:SolderWirePad_single_0-8mmDrill)
      (datasheet ~)
      (libsource (lib Connector) (part Conn_01x01_Female) (description "Generic connector, single row, 01x01, script generated (kicad-library-utils/schlib/autogen/connector/)"))
      (sheetpath (names /) (tstamps /))
      (tstamp 6207E2FF))
    (comp (ref J64)
      (value Conn_01x01_Female)
      (footprint Wire_Pads:SolderWirePad_single_0-8mmDrill)
      (datasheet ~)
      (libsource (lib Connector) (part Conn_01x01_Female) (description "Generic connector, single row, 01x01, script generated (kicad-library-utils/schlib/autogen/connector/)"))
      (sheetpath (names /) (tstamps /))
      (tstamp 6207E818))
    (comp (ref J65)
      (value Conn_01x01_Female)
      (footprint Wire_Pads:SolderWirePad_single_0-8mmDrill)
      (datasheet ~)
      (libsource (lib Connector) (part Conn_01x01_Female) (description "Generic connector, single row, 01x01, script generated (kicad-library-utils/schlib/autogen/connector/)"))
      (sheetpath (names /) (tstamps /))
      (tstamp 6207F6F8))
    (comp (ref J66)
      (value Conn_01x01_Female)
      (footprint Wire_Pads:SolderWirePad_single_0-8mmDrill)
      (datasheet ~)
      (libsource (lib Connector) (part Conn_01x01_Female) (description "Generic connector, single row, 01x01, script generated (kicad-library-utils/schlib/autogen/connector/)"))
      (sheetpath (names /) (tstamps /))
      (tstamp 6207FC56))
    (comp (ref J67)
      (value Conn_01x01_Female)
      (footprint Wire_Pads:SolderWirePad_single_0-8mmDrill)
      (datasheet ~)
      (libsource (lib Connector) (part Conn_01x01_Female) (description "Generic connector, single row, 01x01, script generated (kicad-library-utils/schlib/autogen/connector/)"))
      (sheetpath (names /) (tstamps /))
      (tstamp 620801A7))
    (comp (ref J68)
      (value Conn_01x01_Female)
      (footprint Wire_Pads:SolderWirePad_single_0-8mmDrill)
      (datasheet ~)
      (libsource (lib Connector) (part Conn_01x01_Female) (description "Generic connector, single row, 01x01, script generated (kicad-library-utils/schlib/autogen/connector/)"))
      (sheetpath (names /) (tstamps /))
      (tstamp 62080715))
    (comp (ref J69)
      (value Conn_01x01_Female)
      (footprint Wire_Pads:SolderWirePad_single_0-8mmDrill)
      (datasheet ~)
      (libsource (lib Connector) (part Conn_01x01_Female) (description "Generic connector, single row, 01x01, script generated (kicad-library-utils/schlib/autogen/connector/)"))
      (sheetpath (names /) (tstamps /))
      (tstamp 62080D68))
    (comp (ref J70)
      (value Conn_01x01_Female)
      (footprint Wire_Pads:SolderWirePad_single_0-8mmDrill)
      (datasheet ~)
      (libsource (lib Connector) (part Conn_01x01_Female) (description "Generic connector, single row, 01x01, script generated (kicad-library-utils/schlib/autogen/connector/)"))
      (sheetpath (names /) (tstamps /))
      (tstamp 620812F6))
    (comp (ref J71)
      (value Conn_01x01_Female)
      (footprint Wire_Pads:SolderWirePad_single_0-8mmDrill)
      (datasheet ~)
      (libsource (lib Connector) (part Conn_01x01_Female) (description "Generic connector, single row, 01x01, script generated (kicad-library-utils/schlib/autogen/connector/)"))
      (sheetpath (names /) (tstamps /))
      (tstamp 62081AF6))
    (comp (ref J72)
      (value Conn_01x01_Female)
      (footprint Wire_Pads:SolderWirePad_single_0-8mmDrill)
      (datasheet ~)
      (libsource (lib Connector) (part Conn_01x01_Female) (description "Generic connector, single row, 01x01, script generated (kicad-library-utils/schlib/autogen/connector/)"))
      (sheetpath (names /) (tstamps /))
      (tstamp 6208205A))
    (comp (ref J73)
      (value Conn_01x01_Female)
      (footprint Wire_Pads:SolderWirePad_single_0-8mmDrill)
      (datasheet ~)
      (libsource (lib Connector) (part Conn_01x01_Female) (description "Generic connector, single row, 01x01, script generated (kicad-library-utils/schlib/autogen/connector/)"))
      (sheetpath (names /) (tstamps /))
      (tstamp 62083279))
    (comp (ref J74)
      (value Conn_01x01_Female)
      (footprint Wire_Pads:SolderWirePad_single_0-8mmDrill)
      (datasheet ~)
      (libsource (lib Connector) (part Conn_01x01_Female) (description "Generic connector, single row, 01x01, script generated (kicad-library-utils/schlib/autogen/connector/)"))
      (sheetpath (names /) (tstamps /))
      (tstamp 620837F0))
    (comp (ref J75)
      (value Conn_01x01_Female)
      (footprint Wire_Pads:SolderWirePad_single_0-8mmDrill)
      (datasheet ~)
      (libsource (lib Connector) (part Conn_01x01_Female) (description "Generic connector, single row, 01x01, script generated (kicad-library-utils/schlib/autogen/connector/)"))
      (sheetpath (names /) (tstamps /))
      (tstamp 62083DB4))
    (comp (ref J76)
      (value Conn_01x01_Female)
      (footprint Wire_Pads:SolderWirePad_single_0-8mmDrill)
      (datasheet ~)
      (libsource (lib Connector) (part Conn_01x01_Female) (description "Generic connector, single row, 01x01, script generated (kicad-library-utils/schlib/autogen/connector/)"))
      (sheetpath (names /) (tstamps /))
      (tstamp 62086FA0))
    (comp (ref J77)
      (value Conn_01x01_Female)
      (footprint Wire_Pads:SolderWirePad_single_0-8mmDrill)
      (datasheet ~)
      (libsource (lib Connector) (part Conn_01x01_Female) (description "Generic connector, single row, 01x01, script generated (kicad-library-utils/schlib/autogen/connector/)"))
      (sheetpath (names /) (tstamps /))
      (tstamp 620873BF))
    (comp (ref J78)
      (value Conn_01x01_Female)
      (footprint Wire_Pads:SolderWirePad_single_0-8mmDrill)
      (datasheet ~)
      (libsource (lib Connector) (part Conn_01x01_Female) (description "Generic connector, single row, 01x01, script generated (kicad-library-utils/schlib/autogen/connector/)"))
      (sheetpath (names /) (tstamps /))
      (tstamp 620877C8))
    (comp (ref J79)
      (value Conn_01x01_Female)
      (footprint Wire_Pads:SolderWirePad_single_0-8mmDrill)
      (datasheet ~)
      (libsource (lib Connector) (part Conn_01x01_Female) (description "Generic connector, single row, 01x01, script generated (kicad-library-utils/schlib/autogen/connector/)"))
      (sheetpath (names /) (tstamps /))
      (tstamp 620880DD))
    (comp (ref J80)
      (value Conn_01x01_Female)
      (footprint Wire_Pads:SolderWirePad_single_0-8mmDrill)
      (datasheet ~)
      (libsource (lib Connector) (part Conn_01x01_Female) (description "Generic connector, single row, 01x01, script generated (kicad-library-utils/schlib/autogen/connector/)"))
      (sheetpath (names /) (tstamps /))
      (tstamp 6208866C))
    (comp (ref J81)
      (value Conn_01x01_Female)
      (footprint Wire_Pads:SolderWirePad_single_0-8mmDrill)
      (datasheet ~)
      (libsource (lib Connector) (part Conn_01x01_Female) (description "Generic connector, single row, 01x01, script generated (kicad-library-utils/schlib/autogen/connector/)"))
      (sheetpath (names /) (tstamps /))
      (tstamp 62088C81))
    (comp (ref J82)
      (value Conn_01x01_Female)
      (footprint Wire_Pads:SolderWirePad_single_0-8mmDrill)
      (datasheet ~)
      (libsource (lib Connector) (part Conn_01x01_Female) (description "Generic connector, single row, 01x01, script generated (kicad-library-utils/schlib/autogen/connector/)"))
      (sheetpath (names /) (tstamps /))
      (tstamp 62089254))
    (comp (ref J83)
      (value Conn_01x01_Female)
      (footprint Wire_Pads:SolderWirePad_single_0-8mmDrill)
      (datasheet ~)
      (libsource (lib Connector) (part Conn_01x01_Female) (description "Generic connector, single row, 01x01, script generated (kicad-library-utils/schlib/autogen/connector/)"))
      (sheetpath (names /) (tstamps /))
      (tstamp 6208AD1C))
    (comp (ref J84)
      (value Conn_01x01_Female)
      (footprint Wire_Pads:SolderWirePad_single_0-8mmDrill)
      (datasheet ~)
      (libsource (lib Connector) (part Conn_01x01_Female) (description "Generic connector, single row, 01x01, script generated (kicad-library-utils/schlib/autogen/connector/)"))
      (sheetpath (names /) (tstamps /))
      (tstamp 6208B2E4))
    (comp (ref J85)
      (value Conn_01x01_Female)
      (footprint Wire_Pads:SolderWirePad_single_0-8mmDrill)
      (datasheet ~)
      (libsource (lib Connector) (part Conn_01x01_Female) (description "Generic connector, single row, 01x01, script generated (kicad-library-utils/schlib/autogen/connector/)"))
      (sheetpath (names /) (tstamps /))
      (tstamp 6208B88A))
    (comp (ref J86)
      (value Conn_01x01_Female)
      (footprint Wire_Pads:SolderWirePad_single_0-8mmDrill)
      (datasheet ~)
      (libsource (lib Connector) (part Conn_01x01_Female) (description "Generic connector, single row, 01x01, script generated (kicad-library-utils/schlib/autogen/connector/)"))
      (sheetpath (names /) (tstamps /))
      (tstamp 6208BDF5))
    (comp (ref J87)
      (value Conn_01x01_Female)
      (footprint Wire_Pads:SolderWirePad_single_0-8mmDrill)
      (datasheet ~)
      (libsource (lib Connector) (part Conn_01x01_Female) (description "Generic connector, single row, 01x01, script generated (kicad-library-utils/schlib/autogen/connector/)"))
      (sheetpath (names /) (tstamps /))
      (tstamp 6208D75C))
    (comp (ref J88)
      (value Conn_01x01_Female)
      (footprint Wire_Pads:SolderWirePad_single_0-8mmDrill)
      (datasheet ~)
      (libsource (lib Connector) (part Conn_01x01_Female) (description "Generic connector, single row, 01x01, script generated (kicad-library-utils/schlib/autogen/connector/)"))
      (sheetpath (names /) (tstamps /))
      (tstamp 6208DD25))
    (comp (ref J89)
      (value Conn_01x01_Female)
      (footprint Wire_Pads:SolderWirePad_single_0-8mmDrill)
      (datasheet ~)
      (libsource (lib Connector) (part Conn_01x01_Female) (description "Generic connector, single row, 01x01, script generated (kicad-library-utils/schlib/autogen/connector/)"))
      (sheetpath (names /) (tstamps /))
      (tstamp 6208E819))
    (comp (ref J90)
      (value Conn_01x01_Female)
      (footprint Wire_Pads:SolderWirePad_single_0-8mmDrill)
      (datasheet ~)
      (libsource (lib Connector) (part Conn_01x01_Female) (description "Generic connector, single row, 01x01, script generated (kicad-library-utils/schlib/autogen/connector/)"))
      (sheetpath (names /) (tstamps /))
      (tstamp 6208F7A7))
    (comp (ref J91)
      (value Conn_01x01_Female)
      (footprint Wire_Pads:SolderWirePad_single_0-8mmDrill)
      (datasheet ~)
      (libsource (lib Connector) (part Conn_01x01_Female) (description "Generic connector, single row, 01x01, script generated (kicad-library-utils/schlib/autogen/connector/)"))
      (sheetpath (names /) (tstamps /))
      (tstamp 62090177))
    (comp (ref J92)
      (value Conn_01x01_Female)
      (footprint Wire_Pads:SolderWirePad_single_0-8mmDrill)
      (datasheet ~)
      (libsource (lib Connector) (part Conn_01x01_Female) (description "Generic connector, single row, 01x01, script generated (kicad-library-utils/schlib/autogen/connector/)"))
      (sheetpath (names /) (tstamps /))
      (tstamp 6209074E))
    (comp (ref J93)
      (value Conn_01x01_Female)
      (footprint Wire_Pads:SolderWirePad_single_0-8mmDrill)
      (datasheet ~)
      (libsource (lib Connector) (part Conn_01x01_Female) (description "Generic connector, single row, 01x01, script generated (kicad-library-utils/schlib/autogen/connector/)"))
      (sheetpath (names /) (tstamps /))
      (tstamp 62090D18))
    (comp (ref J94)
      (value Conn_01x01_Female)
      (footprint Wire_Pads:SolderWirePad_single_0-8mmDrill)
      (datasheet ~)
      (libsource (lib Connector) (part Conn_01x01_Female) (description "Generic connector, single row, 01x01, script generated (kicad-library-utils/schlib/autogen/connector/)"))
      (sheetpath (names /) (tstamps /))
      (tstamp 62091AF7))
    (comp (ref J95)
      (value Conn_01x01_Female)
      (footprint Wire_Pads:SolderWirePad_single_0-8mmDrill)
      (datasheet ~)
      (libsource (lib Connector) (part Conn_01x01_Female) (description "Generic connector, single row, 01x01, script generated (kicad-library-utils/schlib/autogen/connector/)"))
      (sheetpath (names /) (tstamps /))
      (tstamp 62092089))
    (comp (ref J96)
      (value Conn_01x01_Female)
      (footprint Wire_Pads:SolderWirePad_single_0-8mmDrill)
      (datasheet ~)
      (libsource (lib Connector) (part Conn_01x01_Female) (description "Generic connector, single row, 01x01, script generated (kicad-library-utils/schlib/autogen/connector/)"))
      (sheetpath (names /) (tstamps /))
      (tstamp 620925CB))
    (comp (ref J97)
      (value Conn_01x01_Female)
      (footprint Wire_Pads:SolderWirePad_single_0-8mmDrill)
      (datasheet ~)
      (libsource (lib Connector) (part Conn_01x01_Female) (description "Generic connector, single row, 01x01, script generated (kicad-library-utils/schlib/autogen/connector/)"))
      (sheetpath (names /) (tstamps /))
      (tstamp 62092BFF))
    (comp (ref J98)
      (value Conn_01x01_Female)
      (footprint Wire_Pads:SolderWirePad_single_0-8mmDrill)
      (datasheet ~)
      (libsource (lib Connector) (part Conn_01x01_Female) (description "Generic connector, single row, 01x01, script generated (kicad-library-utils/schlib/autogen/connector/)"))
      (sheetpath (names /) (tstamps /))
      (tstamp 6209327B))
    (comp (ref P16)
      (value CONN_1)
      (footprint PGA15X15)
      (libsource (lib S100_Bus-Terminator-rescue) (part CONN_1) (description ""))
      (sheetpath (names /) (tstamps /))
      (tstamp 61FA2D75))
    (comp (ref P17)
      (value CONN_1)
      (footprint PGA15X15)
      (libsource (lib S100_Bus-Terminator-rescue) (part CONN_1) (description ""))
      (sheetpath (names /) (tstamps /))
      (tstamp 61FADE1C))
    (comp (ref U1)
      (value LM7805_TO220)
      (footprint TO_SOT_Packages_THT:TO-3)
      (datasheet http://www.fairchildsemi.com/ds/LM/LM7805.pdf)
      (libsource (lib Regulator_Linear) (part LM7805_TO220) (description "Positive 1A 35V Linear Regulator, Fixed Output 5V, TO-220"))
      (sheetpath (names /) (tstamps /))
      (tstamp 61FB9D16))
    (comp (ref P18)
      (value CONN_1)
      (footprint PGA15X15)
      (libsource (lib S100_Bus-Terminator-rescue) (part CONN_1) (description ""))
      (sheetpath (names /) (tstamps /))
      (tstamp 620C9DA6))
    (comp (ref C1)
      (value CAP)
      (footprint Capacitors_THT:CP_Radial_D4.0mm_P2.00mm)
      (datasheet ~)
      (libsource (lib pspice) (part CAP) (description "Capacitor symbol for simulation only"))
      (sheetpath (names /) (tstamps /))
      (tstamp 61F3D48E))
    (comp (ref C2)
      (value CAP)
      (footprint Capacitors_THT:CP_Radial_D4.0mm_P2.00mm)
      (datasheet ~)
      (libsource (lib pspice) (part CAP) (description "Capacitor symbol for simulation only"))
      (sheetpath (names /) (tstamps /))
      (tstamp 61F61CAD))
    (comp (ref J99)
      (value Conn_01x01_Female)
      (footprint Wire_Pads:SolderWirePad_single_0-8mmDrill)
      (datasheet ~)
      (libsource (lib Connector) (part Conn_01x01_Female) (description "Generic connector, single row, 01x01, script generated (kicad-library-utils/schlib/autogen/connector/)"))
      (sheetpath (names /) (tstamps /))
      (tstamp 61F45494))
    (comp (ref H1)
      (value MountingHole_Pad)
      (footprint Sockets:1pin)
      (datasheet ~)
      (libsource (lib Mechanical) (part MountingHole_Pad) (description "Mounting Hole with connection"))
      (sheetpath (names /) (tstamps /))
      (tstamp 61F3142A))
    (comp (ref H2)
      (value MountingHole_Pad)
      (footprint Sockets:1pin)
      (datasheet ~)
      (libsource (lib Mechanical) (part MountingHole_Pad) (description "Mounting Hole with connection"))
      (sheetpath (names /) (tstamps /))
      (tstamp 61F579FB)))
  (libparts
    (libpart (lib Connector) (part Conn_01x01_Female)
      (description "Generic connector, single row, 01x01, script generated (kicad-library-utils/schlib/autogen/connector/)")
      (docs ~)
      (footprints
        (fp Connector*:*))
      (fields
        (field (name Reference) J)
        (field (name Value) Conn_01x01_Female))
      (pins
        (pin (num 1) (name Pin_1) (type passive))))
    (libpart (lib Mechanical) (part MountingHole_Pad)
      (description "Mounting Hole with connection")
      (docs ~)
      (footprints
        (fp MountingHole*Pad*))
      (fields
        (field (name Reference) H)
        (field (name Value) MountingHole_Pad))
      (pins
        (pin (num 1) (name 1) (type input))))
    (libpart (lib Regulator_Linear) (part LM7805_TO220)
      (aliases
        (alias LM7806_TO220)
        (alias LM7808_TO220)
        (alias LM7809_TO220)
        (alias LM7810_TO220)
        (alias LM7812_TO220)
        (alias LM7815_TO220)
        (alias LM7818_TO220)
        (alias LM7824_TO220)
        (alias LM78M05_TO220)
        (alias SPX2920U-3.3_TO220)
        (alias SPX2920U-5.0_TO220)
        (alias LF15_TO220)
        (alias LF18_TO220)
        (alias LF25_TO220)
        (alias LF33_TO220)
        (alias LF50_TO220)
        (alias LF60_TO220)
        (alias LF80_TO220)
        (alias LF85_TO220)
        (alias LF120_TO220)
        (alias LF47_TO220)
        (alias LF90_TO220)
        (alias LM341T-05_TO220)
        (alias LM341T-12_TO220)
        (alias LM341T-15_TO220)
        (alias LM2937xT)
        (alias LM2931-3.3_TO220)
        (alias LM2931-5.0_TO220))
      (description "Positive 1A 35V Linear Regulator, Fixed Output 5V, TO-220")
      (docs http://www.fairchildsemi.com/ds/LM/LM7805.pdf)
      (footprints
        (fp TO?220*))
      (fields
        (field (name Reference) U)
        (field (name Value) LM7805_TO220)
        (field (name Footprint) Package_TO_SOT_THT:TO-220-3_Vertical))
      (pins
        (pin (num 1) (name VI) (type power_in))
        (pin (num 2) (name GND) (type power_in))
        (pin (num 3) (name VO) (type power_out))))
    (libpart (lib S100_Bus-Terminator-rescue) (part CONN_1)
      (fields
        (field (name Reference) P)
        (field (name Value) CONN_1))
      (pins
        (pin (num 1) (name 1) (type passive))))
    (libpart (lib S100_Bus-Terminator-rescue) (part S100_MALE)
      (fields
        (field (name Reference) P)
        (field (name Value) S100_MALE))
      (pins
        (pin (num 1) (name +8_V) (type power_in))
        (pin (num 2) (name +16_V) (type power_in))
        (pin (num 3) (name XRDY) (type BiDi))
        (pin (num 4) (name VIO*) (type BiDi))
        (pin (num 5) (name VI1*) (type BiDi))
        (pin (num 6) (name VI2*) (type BiDi))
        (pin (num 7) (name VI3*) (type BiDi))
        (pin (num 8) (name VI4*) (type BiDi))
        (pin (num 9) (name VI5*) (type BiDi))
        (pin (num 10) (name VI6*) (type BiDi))
        (pin (num 11) (name VI7*) (type BiDi))
        (pin (num 12) (name NMI*) (type BiDi))
        (pin (num 13) (name PWRFAIL*) (type BiDi))
        (pin (num 14) (name TMA3*) (type BiDi))
        (pin (num 15) (name A18) (type BiDi))
        (pin (num 16) (name A16) (type BiDi))
        (pin (num 17) (name A17) (type BiDi))
        (pin (num 18) (name SDSB*) (type BiDi))
        (pin (num 19) (name CDSB*) (type BiDi))
        (pin (num 20) (name 0_V1) (type BiDi))
        (pin (num 21) (name NDEF1) (type BiDi))
        (pin (num 22) (name ADSB*) (type BiDi))
        (pin (num 23) (name DODSB*) (type BiDi))
        (pin (num 24) (name PHI) (type BiDi))
        (pin (num 25) (name pSTVAL*) (type BiDi))
        (pin (num 26) (name pHDLA) (type BiDi))
        (pin (num 27) (name RFU_1) (type BiDi))
        (pin (num 28) (name RFU_2) (type BiDi))
        (pin (num 29) (name A5) (type BiDi))
        (pin (num 30) (name A4) (type BiDi))
        (pin (num 31) (name A3) (type BiDi))
        (pin (num 32) (name A15) (type BiDi))
        (pin (num 33) (name A12) (type BiDi))
        (pin (num 34) (name A9) (type BiDi))
        (pin (num 35) (name DO1_ED1) (type BiDi))
        (pin (num 36) (name DO0_ED0) (type BiDi))
        (pin (num 37) (name A10) (type BiDi))
        (pin (num 38) (name DO4_ED4) (type BiDi))
        (pin (num 39) (name DO5_ED5) (type BiDi))
        (pin (num 40) (name DO6_ED6) (type BiDi))
        (pin (num 41) (name D12_OD2) (type BiDi))
        (pin (num 42) (name D13_OD3) (type BiDi))
        (pin (num 43) (name D17_OD7) (type BiDi))
        (pin (num 44) (name sM1) (type BiDi))
        (pin (num 45) (name sOUT) (type BiDi))
        (pin (num 46) (name sINP) (type BiDi))
        (pin (num 47) (name sMEMR) (type BiDi))
        (pin (num 48) (name sHLTA) (type BiDi))
        (pin (num 49) (name CLOCK) (type BiDi))
        (pin (num 50) (name 0_V2) (type power_in))
        (pin (num 51) (name +8_V) (type power_in))
        (pin (num 52) (name -16_V) (type power_in))
        (pin (num 53) (name 0_V3) (type BiDi))
        (pin (num 54) (name SLAVE_CLR*) (type BiDi))
        (pin (num 55) (name TMA0*) (type BiDi))
        (pin (num 56) (name TMA1*) (type BiDi))
        (pin (num 57) (name TMA2*) (type BiDi))
        (pin (num 58) (name sXTRQ*) (type BiDi))
        (pin (num 59) (name A19) (type BiDi))
        (pin (num 60) (name SIXTN*) (type BiDi))
        (pin (num 61) (name A20) (type BiDi))
        (pin (num 62) (name A21) (type BiDi))
        (pin (num 63) (name A22) (type BiDi))
        (pin (num 64) (name A23) (type BiDi))
        (pin (num 65) (name NDEF2) (type BiDi))
        (pin (num 66) (name NDEF3) (type BiDi))
        (pin (num 67) (name PHANTOM*) (type BiDi))
        (pin (num 68) (name MWRT) (type BiDi))
        (pin (num 69) (name RFU3) (type BiDi))
        (pin (num 70) (name 0_V4) (type BiDi))
        (pin (num 71) (name RFU4) (type BiDi))
        (pin (num 72) (name RDY) (type BiDi))
        (pin (num 73) (name INT*) (type BiDi))
        (pin (num 74) (name HOLD*) (type BiDi))
        (pin (num 75) (name RESET*) (type BiDi))
        (pin (num 76) (name pSYNC) (type BiDi))
        (pin (num 77) (name pWR*) (type BiDi))
        (pin (num 78) (name pDBIN) (type BiDi))
        (pin (num 79) (name A0) (type BiDi))
        (pin (num 80) (name A1) (type BiDi))
        (pin (num 81) (name A2) (type BiDi))
        (pin (num 82) (name A6) (type BiDi))
        (pin (num 83) (name A7) (type BiDi))
        (pin (num 84) (name A8) (type BiDi))
        (pin (num 85) (name A13) (type BiDi))
        (pin (num 86) (name A14) (type BiDi))
        (pin (num 87) (name A11) (type BiDi))
        (pin (num 88) (name DO2_ED2) (type BiDi))
        (pin (num 89) (name DO3_ED3) (type BiDi))
        (pin (num 90) (name DO7_ED7) (type BiDi))
        (pin (num 91) (name DI4_OD4) (type BiDi))
        (pin (num 92) (name DI5_OD5) (type BiDi))
        (pin (num 93) (name DI6_OD6) (type BiDi))
        (pin (num 94) (name DI1_OD1) (type BiDi))
        (pin (num 95) (name DI1_OD1) (type BiDi))
        (pin (num 96) (name sINTA) (type BiDi))
        (pin (num 97) (name sWO*) (type BiDi))
        (pin (num 98) (name ERROR*) (type BiDi))
        (pin (num 99) (name POC*) (type BiDi))
        (pin (num 100) (name 0_V5) (type power_in))))
    (libpart (lib pspice) (part CAP)
      (aliases
        (alias C))
      (description "Capacitor symbol for simulation only")
      (docs ~)
      (fields
        (field (name Reference) C)
        (field (name Value) CAP))
      (pins
        (pin (num 1) (name ~) (type passive))
        (pin (num 2) (name ~) (type passive)))))
  (libraries
    (library (logical Connector)
      (uri /usr/share/kicad/library/Connector.lib))
    (library (logical Mechanical)
      (uri /usr/share/kicad/library/Mechanical.lib))
    (library (logical Regulator_Linear)
      (uri /usr/share/kicad/library/Regulator_Linear.lib))
    (library (logical S100_Bus-Terminator-rescue)
      (uri "/home/mixotricha/workspace/s100_stuff/s100_beagle_cape/S100_Bus Terminator-rescue.lib"))
    (library (logical pspice)
      (uri /usr/share/kicad/library/pspice.lib)))
  (nets
    (net (code 1) (name "Net-(P15-Pad1)")
      (node (ref P15) (pin 1)))
    (net (code 2) (name "Net-(P18-Pad1)")
      (node (ref P18) (pin 1)))
    (net (code 3) (name "Net-(P17-Pad1)")
      (node (ref P17) (pin 1)))
    (net (code 4) (name "Net-(P16-Pad1)")
      (node (ref P16) (pin 1)))
    (net (code 5) (name GND)
      (node (ref U1) (pin 2))
      (node (ref C2) (pin 2))
      (node (ref J98) (pin 1))
      (node (ref C1) (pin 2))
      (node (ref P1) (pin 50))
      (node (ref P1) (pin 100))
      (node (ref J49) (pin 1))
      (node (ref H1) (pin 1))
      (node (ref H2) (pin 1)))
    (net (code 6) (name /+8_V)
      (node (ref J50) (pin 1))
      (node (ref C1) (pin 1))
      (node (ref J1) (pin 1))
      (node (ref P1) (pin 1))
      (node (ref U1) (pin 1))
      (node (ref P1) (pin 51)))
    (net (code 7) (name /VCC)
      (node (ref C2) (pin 1))
      (node (ref J99) (pin 1))
      (node (ref U1) (pin 3)))
    (net (code 8) (name "Net-(P4-Pad1)")
      (node (ref P4) (pin 1)))
    (net (code 9) (name "/UNPROT(T5)")
      (node (ref J19) (pin 1))
      (node (ref P1) (pin 20)))
    (net (code 10) (name //SSW_DSBL)
      (node (ref P1) (pin 53))
      (node (ref J51) (pin 1)))
    (net (code 11) (name "Net-(P12-Pad1)")
      (node (ref P12) (pin 1)))
    (net (code 12) (name "Net-(P10-Pad1)")
      (node (ref P10) (pin 1)))
    (net (code 13) (name "Net-(P6-Pad1)")
      (node (ref P6) (pin 1)))
    (net (code 14) (name "Net-(P9-Pad1)")
      (node (ref P9) (pin 1)))
    (net (code 15) (name "Net-(P13-Pad1)")
      (node (ref P13) (pin 1)))
    (net (code 16) (name "Net-(P14-Pad1)")
      (node (ref P14) (pin 1)))
    (net (code 17) (name "Net-(P8-Pad1)")
      (node (ref P8) (pin 1)))
    (net (code 18) (name "Net-(P5-Pad1)")
      (node (ref P5) (pin 1)))
    (net (code 19) (name "Net-(P3-Pad1)")
      (node (ref P3) (pin 1)))
    (net (code 20) (name "Net-(P11-Pad1)")
      (node (ref P11) (pin 1)))
    (net (code 21) (name "Net-(P7-Pad1)")
      (node (ref P7) (pin 1)))
    (net (code 22) (name "Net-(P2-Pad1)")
      (node (ref P2) (pin 1)))
    (net (code 23) (name /DO1)
      (node (ref P1) (pin 35))
      (node (ref J34) (pin 1)))
    (net (code 24) (name /SS)
      (node (ref J20) (pin 1))
      (node (ref P1) (pin 21)))
    (net (code 25) (name //ADDDSB)
      (node (ref J21) (pin 1))
      (node (ref P1) (pin 22)))
    (net (code 26) (name //DODSB)
      (node (ref J22) (pin 1))
      (node (ref P1) (pin 23)))
    (net (code 27) (name /phi2)
      (node (ref P1) (pin 24))
      (node (ref J23) (pin 1)))
    (net (code 28) (name /phi1)
      (node (ref J24) (pin 1))
      (node (ref P1) (pin 25)))
    (net (code 29) (name /PHLDA)
      (node (ref J25) (pin 1))
      (node (ref P1) (pin 26)))
    (net (code 30) (name /PWAIT)
      (node (ref P1) (pin 27))
      (node (ref J26) (pin 1)))
    (net (code 31) (name /PINTE)
      (node (ref J27) (pin 1))
      (node (ref P1) (pin 28)))
    (net (code 32) (name /A5)
      (node (ref J28) (pin 1))
      (node (ref P1) (pin 29)))
    (net (code 33) (name /A4)
      (node (ref J29) (pin 1))
      (node (ref P1) (pin 30)))
    (net (code 34) (name /A3)
      (node (ref J30) (pin 1))
      (node (ref P1) (pin 31)))
    (net (code 35) (name /A15)
      (node (ref P1) (pin 32))
      (node (ref J31) (pin 1)))
    (net (code 36) (name /A12)
      (node (ref P1) (pin 33))
      (node (ref J32) (pin 1)))
    (net (code 37) (name /A9)
      (node (ref J33) (pin 1))
      (node (ref P1) (pin 34)))
    (net (code 38) (name //CCDSB)
      (node (ref J18) (pin 1))
      (node (ref P1) (pin 19)))
    (net (code 39) (name /DO0)
      (node (ref P1) (pin 36))
      (node (ref J35) (pin 1)))
    (net (code 40) (name /A10)
      (node (ref P1) (pin 37))
      (node (ref J36) (pin 1)))
    (net (code 41) (name /DO4)
      (node (ref J37) (pin 1))
      (node (ref P1) (pin 38)))
    (net (code 42) (name /DO5)
      (node (ref J38) (pin 1))
      (node (ref P1) (pin 39)))
    (net (code 43) (name /DO6)
      (node (ref P1) (pin 40))
      (node (ref J39) (pin 1)))
    (net (code 44) (name /DI2)
      (node (ref J40) (pin 1))
      (node (ref P1) (pin 41)))
    (net (code 45) (name /DI3)
      (node (ref J41) (pin 1))
      (node (ref P1) (pin 42)))
    (net (code 46) (name /DI7)
      (node (ref P1) (pin 43))
      (node (ref J42) (pin 1)))
    (net (code 47) (name /SM1)
      (node (ref P1) (pin 44))
      (node (ref J43) (pin 1)))
    (net (code 48) (name /SOUT)
      (node (ref J44) (pin 1))
      (node (ref P1) (pin 45)))
    (net (code 49) (name /SINP)
      (node (ref P1) (pin 46))
      (node (ref J45) (pin 1)))
    (net (code 50) (name /SMEMR)
      (node (ref J46) (pin 1))
      (node (ref P1) (pin 47)))
    (net (code 51) (name /SHLTA)
      (node (ref J47) (pin 1))
      (node (ref P1) (pin 48)))
    (net (code 52) (name /VI_1)
      (node (ref P1) (pin 5))
      (node (ref J4) (pin 1)))
    (net (code 53) (name /+18_V)
      (node (ref P1) (pin 2)))
    (net (code 54) (name /XRDY)
      (node (ref P1) (pin 3))
      (node (ref J2) (pin 1)))
    (net (code 55) (name /VI_0)
      (node (ref P1) (pin 4))
      (node (ref J3) (pin 1)))
    (net (code 56) (name //CLOCK)
      (node (ref J48) (pin 1))
      (node (ref P1) (pin 49)))
    (net (code 57) (name /VI_2)
      (node (ref P1) (pin 6))
      (node (ref J5) (pin 1)))
    (net (code 58) (name /VI_3)
      (node (ref J6) (pin 1))
      (node (ref P1) (pin 7)))
    (net (code 59) (name /VI_4)
      (node (ref J7) (pin 1))
      (node (ref P1) (pin 8)))
    (net (code 60) (name /VI_5)
      (node (ref P1) (pin 9))
      (node (ref J8) (pin 1)))
    (net (code 61) (name /VI_6)
      (node (ref J9) (pin 1))
      (node (ref P1) (pin 10)))
    (net (code 62) (name /VI_7)
      (node (ref P1) (pin 11))
      (node (ref J10) (pin 1)))
    (net (code 63) (name /pin_12)
      (node (ref J11) (pin 1))
      (node (ref P1) (pin 12)))
    (net (code 64) (name /pin_13)
      (node (ref J12) (pin 1))
      (node (ref P1) (pin 13)))
    (net (code 65) (name /pin_14)
      (node (ref J13) (pin 1))
      (node (ref P1) (pin 14)))
    (net (code 66) (name /pin_15)
      (node (ref P1) (pin 15))
      (node (ref J14) (pin 1)))
    (net (code 67) (name /pin_16)
      (node (ref J15) (pin 1))
      (node (ref P1) (pin 16)))
    (net (code 68) (name /pin_17)
      (node (ref P1) (pin 17))
      (node (ref J16) (pin 1)))
    (net (code 69) (name //STADSB)
      (node (ref J17) (pin 1))
      (node (ref P1) (pin 18)))
    (net (code 70) (name /DI1)
      (node (ref J92) (pin 1))
      (node (ref P1) (pin 94)))
    (net (code 71) (name /A1)
      (node (ref P1) (pin 80))
      (node (ref J78) (pin 1)))
    (net (code 72) (name /A2)
      (node (ref P1) (pin 81))
      (node (ref J79) (pin 1)))
    (net (code 73) (name /A6)
      (node (ref J80) (pin 1))
      (node (ref P1) (pin 82)))
    (net (code 74) (name /A7)
      (node (ref P1) (pin 83))
      (node (ref J81) (pin 1)))
    (net (code 75) (name /A8)
      (node (ref J82) (pin 1))
      (node (ref P1) (pin 84)))
    (net (code 76) (name /A13)
      (node (ref J83) (pin 1))
      (node (ref P1) (pin 85)))
    (net (code 77) (name /A14)
      (node (ref J84) (pin 1))
      (node (ref P1) (pin 86)))
    (net (code 78) (name /A11)
      (node (ref J85) (pin 1))
      (node (ref P1) (pin 87)))
    (net (code 79) (name /DO2)
      (node (ref P1) (pin 88))
      (node (ref J86) (pin 1)))
    (net (code 80) (name /DO3)
      (node (ref P1) (pin 89))
      (node (ref J87) (pin 1)))
    (net (code 81) (name /DO7)
      (node (ref P1) (pin 90))
      (node (ref J88) (pin 1)))
    (net (code 82) (name /DI4)
      (node (ref P1) (pin 91))
      (node (ref J89) (pin 1)))
    (net (code 83) (name /DI5)
      (node (ref J90) (pin 1))
      (node (ref P1) (pin 92)))
    (net (code 84) (name /DI6)
      (node (ref P1) (pin 93))
      (node (ref J91) (pin 1)))
    (net (code 85) (name /A0)
      (node (ref P1) (pin 79))
      (node (ref J77) (pin 1)))
    (net (code 86) (name /DI0)
      (node (ref J93) (pin 1))
      (node (ref P1) (pin 95)))
    (net (code 87) (name /SINTA)
      (node (ref J94) (pin 1))
      (node (ref P1) (pin 96)))
    (net (code 88) (name //SWO)
      (node (ref J95) (pin 1))
      (node (ref P1) (pin 97)))
    (net (code 89) (name /SSTACK)
      (node (ref J96) (pin 1))
      (node (ref P1) (pin 98)))
    (net (code 90) (name //POC)
      (node (ref P1) (pin 99))
      (node (ref J97) (pin 1)))
    (net (code 91) (name /pin_65)
      (node (ref P1) (pin 65))
      (node (ref J63) (pin 1)))
    (net (code 92) (name /-16_V)
      (node (ref P1) (pin 52)))
    (net (code 93) (name //EXTCLR)
      (node (ref P1) (pin 54))
      (node (ref J52) (pin 1)))
    (net (code 94) (name "/RTC(---)")
      (node (ref J53) (pin 1))
      (node (ref P1) (pin 55)))
    (net (code 95) (name "//STSTB(---)")
      (node (ref P1) (pin 56))
      (node (ref J54) (pin 1)))
    (net (code 96) (name "/DIG1(---)")
      (node (ref J55) (pin 1))
      (node (ref P1) (pin 57)))
    (net (code 97) (name "/FRDY(---)")
      (node (ref P1) (pin 58))
      (node (ref J56) (pin 1)))
    (net (code 98) (name /pin_59)
      (node (ref P1) (pin 59))
      (node (ref J57) (pin 1)))
    (net (code 99) (name /pin_60)
      (node (ref P1) (pin 60))
      (node (ref J58) (pin 1)))
    (net (code 100) (name /pin_61)
      (node (ref J59) (pin 1))
      (node (ref P1) (pin 61)))
    (net (code 101) (name /pin_62)
      (node (ref J60) (pin 1))
      (node (ref P1) (pin 62)))
    (net (code 102) (name /pin_63)
      (node (ref J61) (pin 1))
      (node (ref P1) (pin 63)))
    (net (code 103) (name /pin_64)
      (node (ref P1) (pin 64))
      (node (ref J62) (pin 1)))
    (net (code 104) (name /pin_66)
      (node (ref J64) (pin 1))
      (node (ref P1) (pin 66)))
    (net (code 105) (name "/---(/PHANT)")
      (node (ref P1) (pin 67))
      (node (ref J65) (pin 1)))
    (net (code 106) (name /MWRT)
      (node (ref J66) (pin 1))
      (node (ref P1) (pin 68)))
    (net (code 107) (name "//PS(---)")
      (node (ref J67) (pin 1))
      (node (ref P1) (pin 69)))
    (net (code 108) (name "/PROT(GND)")
      (node (ref J68) (pin 1))
      (node (ref P1) (pin 70)))
    (net (code 109) (name /RUN)
      (node (ref J69) (pin 1))
      (node (ref P1) (pin 71)))
    (net (code 110) (name /PRDY)
      (node (ref J70) (pin 1))
      (node (ref P1) (pin 72)))
    (net (code 111) (name //PINT)
      (node (ref P1) (pin 73))
      (node (ref J71) (pin 1)))
    (net (code 112) (name //PHOLD)
      (node (ref P1) (pin 74))
      (node (ref J72) (pin 1)))
    (net (code 113) (name //PRESET)
      (node (ref J73) (pin 1))
      (node (ref P1) (pin 75)))
    (net (code 114) (name /PSYNC)
      (node (ref J74) (pin 1))
      (node (ref P1) (pin 76)))
    (net (code 115) (name //PWR)
      (node (ref P1) (pin 77))
      (node (ref J75) (pin 1)))
    (net (code 116) (name /PDBIN)
      (node (ref P1) (pin 78))
      (node (ref J76) (pin 1)))))