(export (version D)
  (design
    (source /home/mixotricha/workspace/gir/gir.sch)
    (date "Sat 25 Apr 2020 17:02:30 AEST")
    (tool "Eeschema 5.0.2-bee76a0~70~ubuntu18.04.1")
    (sheet (number 1) (name /) (tstamps /)
      (title_block
        (title)
        (company)
        (rev)
        (date)
        (source gir.sch)
        (comment (number 1) (value ""))
        (comment (number 2) (value ""))
        (comment (number 3) (value ""))
        (comment (number 4) (value "")))))
  (components
    (comp (ref IC1)
      (value GTL2003PW)
      (footprint GTL2003PW:SOP65P640X110-20N)
      (datasheet http://www.nxp.com/documents/data_sheet/GTL2003.pdf)
      (fields
        (field (name Description) "NXP - GTL2003PW - IC, GTL LO-VOLT TRANSLATOR, 20TSSOP")
        (field (name Height) 1.1)
        (field (name Manufacturer_Name) Nexperia)
        (field (name Manufacturer_Part_Number) GTL2003PW)
        (field (name "RS Part Number") 510960)
        (field (name Supplier_Name) RS))
      (libsource (lib GTL2003PW) (part GTL2003PW) (description ""))
      (sheetpath (names /) (tstamps /))
      (tstamp 5E9A909C))
    (comp (ref R9)
      (value 10K)
      (footprint library:R_0805_2012Metric)
      (datasheet ~)
      (libsource (lib Device) (part R_Small) (description "Resistor, small symbol"))
      (sheetpath (names /) (tstamps /))
      (tstamp 5E9D548A))
    (comp (ref R10)
      (value 200K)
      (footprint library:R_0805_2012Metric)
      (datasheet ~)
      (libsource (lib Device) (part R_Small) (description "Resistor, small symbol"))
      (sheetpath (names /) (tstamps /))
      (tstamp 5E9D5D2B))
    (comp (ref C1)
      (value 0.1u)
      (footprint library:C_0805_2012Metric)
      (datasheet ~)
      (libsource (lib Device) (part C_Small) (description "Unpolarized capacitor, small symbol"))
      (sheetpath (names /) (tstamps /))
      (tstamp 5EA36D80))
    (comp (ref NC1)
      (value Conn_2Rows-21Pins)
      (footprint library:PinHeader_2x11_P2.54mm_Horizontal)
      (datasheet ~)
      (libsource (lib Connector_Generic) (part Conn_2Rows-21Pins) (description "Generic connector, double row, 21 pins, odd/even pin numbering scheme (row 1 odd numbers, row 2 even numbers), script generated (kicad-library-utils/schlib/autogen/connector/)"))
      (sheetpath (names /) (tstamps /))
      (tstamp 5E9AD053))
    (comp (ref R2)
      (value 10K)
      (footprint library:R_0805_2012Metric)
      (datasheet ~)
      (libsource (lib Device) (part R_Small) (description "Resistor, small symbol"))
      (sheetpath (names /) (tstamps /))
      (tstamp 5EA7857A))
    (comp (ref R3)
      (value 10K)
      (footprint library:R_0805_2012Metric)
      (datasheet ~)
      (libsource (lib Device) (part R_Small) (description "Resistor, small symbol"))
      (sheetpath (names /) (tstamps /))
      (tstamp 5EA7A707))
    (comp (ref R4)
      (value 10K)
      (footprint library:R_0805_2012Metric)
      (datasheet ~)
      (libsource (lib Device) (part R_Small) (description "Resistor, small symbol"))
      (sheetpath (names /) (tstamps /))
      (tstamp 5EA7C9C4))
    (comp (ref R5)
      (value 10K)
      (footprint library:R_0805_2012Metric)
      (datasheet ~)
      (libsource (lib Device) (part R_Small) (description "Resistor, small symbol"))
      (sheetpath (names /) (tstamps /))
      (tstamp 5EA7EC49))
    (comp (ref R6)
      (value 10K)
      (footprint library:R_0805_2012Metric)
      (datasheet ~)
      (libsource (lib Device) (part R_Small) (description "Resistor, small symbol"))
      (sheetpath (names /) (tstamps /))
      (tstamp 5EA80EDB))
    (comp (ref R7)
      (value 10K)
      (footprint library:R_0805_2012Metric)
      (datasheet ~)
      (libsource (lib Device) (part R_Small) (description "Resistor, small symbol"))
      (sheetpath (names /) (tstamps /))
      (tstamp 5EA831CB))
    (comp (ref R8)
      (value 10K)
      (footprint library:R_0805_2012Metric)
      (datasheet ~)
      (libsource (lib Device) (part R_Small) (description "Resistor, small symbol"))
      (sheetpath (names /) (tstamps /))
      (tstamp 5EA87CD7))
    (comp (ref R1)
      (value 10K)
      (footprint library:R_0805_2012Metric)
      (datasheet ~)
      (libsource (lib Device) (part R_Small) (description "Resistor, small symbol"))
      (sheetpath (names /) (tstamps /))
      (tstamp 5EBCF132))
    (comp (ref D1)
      (value LED_Small)
      (footprint library:LED_0805_2012Metric)
      (datasheet ~)
      (libsource (lib Device) (part LED_Small) (description "Light emitting diode, small symbol"))
      (sheetpath (names /) (tstamps /))
      (tstamp 5E9ED0E1))
    (comp (ref R14)
      (value 330)
      (footprint library:R_0805_2012Metric)
      (datasheet ~)
      (libsource (lib Device) (part R_Small) (description "Resistor, small symbol"))
      (sheetpath (names /) (tstamps /))
      (tstamp 5E9F5DD7)))
  (libparts
    (libpart (lib Connector_Generic) (part Conn_2Rows-21Pins)
      (description "Generic connector, double row, 21 pins, odd/even pin numbering scheme (row 1 odd numbers, row 2 even numbers), script generated (kicad-library-utils/schlib/autogen/connector/)")
      (docs ~)
      (footprints
        (fp Connector*:*2Rows*Pins__*)
        (fp *FCC*2Rows*Pins__*))
      (fields
        (field (name Reference) J)
        (field (name Value) Conn_2Rows-21Pins))
      (pins
        (pin (num 1) (name Pin_1) (type passive))
        (pin (num 2) (name Pin_2) (type passive))
        (pin (num 3) (name Pin_3) (type passive))
        (pin (num 4) (name Pin_4) (type passive))
        (pin (num 5) (name Pin_5) (type passive))
        (pin (num 6) (name Pin_6) (type passive))
        (pin (num 7) (name Pin_7) (type passive))
        (pin (num 8) (name Pin_8) (type passive))
        (pin (num 9) (name Pin_9) (type passive))
        (pin (num 10) (name Pin_10) (type passive))
        (pin (num 11) (name Pin_11) (type passive))
        (pin (num 12) (name Pin_12) (type passive))
        (pin (num 13) (name Pin_13) (type passive))
        (pin (num 14) (name Pin_14) (type passive))
        (pin (num 15) (name Pin_15) (type passive))
        (pin (num 16) (name Pin_16) (type passive))
        (pin (num 17) (name Pin_17) (type passive))
        (pin (num 18) (name Pin_18) (type passive))
        (pin (num 19) (name Pin_19) (type passive))
        (pin (num 20) (name Pin_20) (type passive))
        (pin (num 21) (name Pin_21) (type passive))))
    (libpart (lib Device) (part C_Small)
      (description "Unpolarized capacitor, small symbol")
      (docs ~)
      (footprints
        (fp C_*))
      (fields
        (field (name Reference) C)
        (field (name Value) C_Small))
      (pins
        (pin (num 1) (name ~) (type passive))
        (pin (num 2) (name ~) (type passive))))
    (libpart (lib Device) (part LED_Small)
      (description "Light emitting diode, small symbol")
      (docs ~)
      (footprints
        (fp LED*)
        (fp LED_SMD:*)
        (fp LED_THT:*))
      (fields
        (field (name Reference) D)
        (field (name Value) LED_Small))
      (pins
        (pin (num 1) (name K) (type passive))
        (pin (num 2) (name A) (type passive))))
    (libpart (lib Device) (part R_Small)
      (description "Resistor, small symbol")
      (docs ~)
      (footprints
        (fp R_*))
      (fields
        (field (name Reference) R)
        (field (name Value) R_Small))
      (pins
        (pin (num 1) (name ~) (type passive))
        (pin (num 2) (name ~) (type passive))))
    (libpart (lib GTL2003PW) (part GTL2003PW)
      (fields
        (field (name Reference) IC)
        (field (name Value) GTL2003PW)
        (field (name Footprint) SOP65P640X110-20N)
        (field (name Datasheet) http://www.nxp.com/documents/data_sheet/GTL2003.pdf)
        (field (name Description) "NXP - GTL2003PW - IC, GTL LO-VOLT TRANSLATOR, 20TSSOP")
        (field (name Supplier_Name) RS)
        (field (name "RS Part Number") 510960)
        (field (name Manufacturer_Name) Nexperia)
        (field (name Manufacturer_Part_Number) GTL2003PW)
        (field (name Height) 1.1))
      (pins
        (pin (num 1) (name GND) (type power_in))
        (pin (num 2) (name SREF) (type input))
        (pin (num 3) (name S1) (type BiDi))
        (pin (num 4) (name S2) (type BiDi))
        (pin (num 5) (name S3) (type BiDi))
        (pin (num 6) (name S4) (type BiDi))
        (pin (num 7) (name S5) (type BiDi))
        (pin (num 8) (name S6) (type BiDi))
        (pin (num 9) (name S7) (type BiDi))
        (pin (num 10) (name S8) (type BiDi))
        (pin (num 11) (name D8) (type BiDi))
        (pin (num 12) (name D7) (type BiDi))
        (pin (num 13) (name D6) (type BiDi))
        (pin (num 14) (name D5) (type BiDi))
        (pin (num 15) (name D4) (type BiDi))
        (pin (num 16) (name D3) (type BiDi))
        (pin (num 17) (name D2) (type BiDi))
        (pin (num 18) (name D1) (type BiDi))
        (pin (num 19) (name DREF) (type input))
        (pin (num 20) (name GREF) (type input)))))
  (libraries
    (library (logical Connector_Generic)
      (uri /usr/share/kicad/library/Connector_Generic.lib))
    (library (logical Device)
      (uri /usr/share/kicad/library/Device.lib))
    (library (logical GTL2003PW)
      (uri /home/mixotricha/workspace/gir/library/GTL2003PW.lib)))
  (nets
    (net (code 1) (name "Net-(IC1-Pad9)")
      (node (ref NC1) (pin 16))
      (node (ref IC1) (pin 9)))
    (net (code 2) (name "Net-(IC1-Pad8)")
      (node (ref NC1) (pin 14))
      (node (ref IC1) (pin 8)))
    (net (code 3) (name "Net-(IC1-Pad12)")
      (node (ref IC1) (pin 12))
      (node (ref R2) (pin 1)))
    (net (code 4) (name "Net-(NC1-Pad5)")
      (node (ref R1) (pin 2))
      (node (ref NC1) (pin 5)))
    (net (code 5) (name "Net-(NC1-Pad7)")
      (node (ref R2) (pin 2))
      (node (ref NC1) (pin 7)))
    (net (code 6) (name "Net-(NC1-Pad9)")
      (node (ref NC1) (pin 9))
      (node (ref R3) (pin 2)))
    (net (code 7) (name "Net-(NC1-Pad11)")
      (node (ref NC1) (pin 11))
      (node (ref R4) (pin 2)))
    (net (code 8) (name "Net-(NC1-Pad13)")
      (node (ref NC1) (pin 13))
      (node (ref R5) (pin 2)))
    (net (code 9) (name "Net-(NC1-Pad15)")
      (node (ref R6) (pin 2))
      (node (ref NC1) (pin 15)))
    (net (code 10) (name +3V3)
      (node (ref NC1) (pin 1))
      (node (ref R9) (pin 2)))
    (net (code 11) (name GNDD)
      (node (ref IC1) (pin 1))
      (node (ref C1) (pin 2))
      (node (ref D1) (pin 1))
      (node (ref NC1) (pin 3)))
    (net (code 12) (name "Net-(NC1-Pad17)")
      (node (ref NC1) (pin 17))
      (node (ref R7) (pin 2)))
    (net (code 13) (name "Net-(IC1-Pad3)")
      (node (ref IC1) (pin 3))
      (node (ref NC1) (pin 4)))
    (net (code 14) (name "Net-(IC1-Pad4)")
      (node (ref IC1) (pin 4))
      (node (ref NC1) (pin 6)))
    (net (code 15) (name "Net-(IC1-Pad5)")
      (node (ref NC1) (pin 8))
      (node (ref IC1) (pin 5)))
    (net (code 16) (name "Net-(IC1-Pad6)")
      (node (ref IC1) (pin 6))
      (node (ref NC1) (pin 10)))
    (net (code 17) (name "Net-(IC1-Pad7)")
      (node (ref IC1) (pin 7))
      (node (ref NC1) (pin 12)))
    (net (code 18) (name "Net-(IC1-Pad11)")
      (node (ref IC1) (pin 11))
      (node (ref R1) (pin 1)))
    (net (code 19) (name "Net-(IC1-Pad10)")
      (node (ref NC1) (pin 18))
      (node (ref IC1) (pin 10)))
    (net (code 20) (name "Net-(D1-Pad2)")
      (node (ref R14) (pin 1))
      (node (ref D1) (pin 2)))
    (net (code 21) (name "Net-(IC1-Pad16)")
      (node (ref R6) (pin 1))
      (node (ref IC1) (pin 16)))
    (net (code 22) (name "Net-(NC1-Pad19)")
      (node (ref R8) (pin 2))
      (node (ref NC1) (pin 19)))
    (net (code 23) (name "Net-(NC1-Pad21)")
      (node (ref NC1) (pin 21)))
    (net (code 24) (name "Net-(NC1-Pad20)")
      (node (ref NC1) (pin 20)))
    (net (code 25) (name "Net-(IC1-Pad18)")
      (node (ref IC1) (pin 18))
      (node (ref R8) (pin 1)))
    (net (code 26) (name "Net-(IC1-Pad17)")
      (node (ref R7) (pin 1))
      (node (ref IC1) (pin 17)))
    (net (code 27) (name "Net-(IC1-Pad15)")
      (node (ref R5) (pin 1))
      (node (ref IC1) (pin 15)))
    (net (code 28) (name "Net-(IC1-Pad14)")
      (node (ref IC1) (pin 14))
      (node (ref R4) (pin 1)))
    (net (code 29) (name "Net-(IC1-Pad13)")
      (node (ref R3) (pin 1))
      (node (ref IC1) (pin 13)))
    (net (code 30) (name "Net-(IC1-Pad2)")
      (node (ref R9) (pin 1))
      (node (ref IC1) (pin 2)))
    (net (code 31) (name +5V)
      (node (ref NC1) (pin 2))
      (node (ref R10) (pin 1))
      (node (ref R14) (pin 2)))
    (net (code 32) (name "Net-(C1-Pad1)")
      (node (ref R10) (pin 2))
      (node (ref C1) (pin 1))
      (node (ref IC1) (pin 20))
      (node (ref IC1) (pin 19)))))