EESchema Schematic File Version 4
LIBS:spice_tutorial-cache
LIBS:serial_parallel-cache
EELAYER 26 0
EELAYER END
$Descr A4 11693 8268
encoding utf-8
Sheet 1 1
Title ""
Date ""
Rev ""
Comp ""
Comment1 ""
Comment2 ""
Comment3 ""
Comment4 ""
$EndDescr
$Comp
L spice_tutorial-rescue:LM555-Timer U2
U 1 1 5EA0F828
P 7750 3550
F 0 "U2" H 7350 3900 50  0000 L CNN
F 1 "LM555" H 7850 3900 50  0000 L CNN
F 2 "" H 7750 3550 50  0001 C CNN
F 3 "http://www.ti.com/lit/ds/symlink/lm555.pdf" H 7750 3550 50  0001 C CNN
F 4 "X" H 7750 3550 50  0001 C CNN "Spice_Primitive"
F 5 "TLC555" H 7750 3550 50  0001 C CNN "Spice_Model"
F 6 "Y" H 7750 3550 50  0001 C CNN "Spice_Netlist_Enabled"
F 7 "tlc555.lib" H 7750 3550 50  0001 C CNN "Spice_Lib_File"
	1    7750 3550
	1    0    0    -1  
$EndComp
$Comp
L power:VCC #PWR0101
U 1 1 5EA0FCE7
P 7750 2850
F 0 "#PWR0101" H 7750 2700 50  0001 C CNN
F 1 "VCC" H 7767 3023 50  0000 C CNN
F 2 "" H 7750 2850 50  0001 C CNN
F 3 "" H 7750 2850 50  0001 C CNN
	1    7750 2850
	1    0    0    -1  
$EndComp
Wire Wire Line
	7750 2850 7750 3150
$Comp
L spice_tutorial-rescue:R_Small-Device R3
U 1 1 5E9FAE68
P 8800 3350
F 0 "R3" V 8604 3350 50  0000 C CNN
F 1 "330" V 8695 3350 50  0000 C CNN
F 2 "" H 8800 3350 50  0001 C CNN
F 3 "~" H 8800 3350 50  0001 C CNN
	1    8800 3350
	0    1    1    0   
$EndComp
$Comp
L power:GND #PWR0102
U 1 1 5E9FB607
P 7750 4200
F 0 "#PWR0102" H 7750 3950 50  0001 C CNN
F 1 "GND" H 7755 4027 50  0000 C CNN
F 2 "" H 7750 4200 50  0001 C CNN
F 3 "" H 7750 4200 50  0001 C CNN
	1    7750 4200
	1    0    0    -1  
$EndComp
$Comp
L power:GND #PWR0103
U 1 1 5E9FB830
P 9100 3600
F 0 "#PWR0103" H 9100 3350 50  0001 C CNN
F 1 "GND" H 9105 3427 50  0000 C CNN
F 2 "" H 9100 3600 50  0001 C CNN
F 3 "" H 9100 3600 50  0001 C CNN
	1    9100 3600
	1    0    0    -1  
$EndComp
Wire Wire Line
	9100 3350 9100 3600
Wire Wire Line
	7750 4200 7750 3950
$Comp
L spice_tutorial-rescue:C-Device C2
U 1 1 5E9FC0C2
P 8600 4650
F 0 "C2" H 8715 4696 50  0000 L CNN
F 1 "6000n" H 8715 4605 50  0000 L CNN
F 2 "" H 8638 4500 50  0001 C CNN
F 3 "~" H 8600 4650 50  0001 C CNN
	1    8600 4650
	1    0    0    -1  
$EndComp
$Comp
L power:GND #PWR0104
U 1 1 5E9FC37F
P 8600 4800
F 0 "#PWR0104" H 8600 4550 50  0001 C CNN
F 1 "GND" H 8605 4627 50  0000 C CNN
F 2 "" H 8600 4800 50  0001 C CNN
F 3 "" H 8600 4800 50  0001 C CNN
	1    8600 4800
	1    0    0    -1  
$EndComp
$Comp
L spice_tutorial-rescue:R_Small-Device R2
U 1 1 5E9FD964
P 8600 4250
F 0 "R2" H 8541 4204 50  0000 R CNN
F 1 "50k" H 8541 4295 50  0000 R CNN
F 2 "" H 8600 4250 50  0001 C CNN
F 3 "~" H 8600 4250 50  0001 C CNN
	1    8600 4250
	-1   0    0    1   
$EndComp
$Comp
L spice_tutorial-rescue:R_Small-Device R1
U 1 1 5E9FE2A1
P 8600 3950
F 0 "R1" H 8541 3904 50  0000 R CNN
F 1 "3k" H 8541 3995 50  0000 R CNN
F 2 "" H 8600 3950 50  0001 C CNN
F 3 "~" H 8600 3950 50  0001 C CNN
	1    8600 3950
	-1   0    0    1   
$EndComp
$Comp
L power:VCC #PWR0105
U 1 1 5E9FE6D5
P 8600 3800
F 0 "#PWR0105" H 8600 3650 50  0001 C CNN
F 1 "VCC" H 8617 3973 50  0000 C CNN
F 2 "" H 8600 3800 50  0001 C CNN
F 3 "" H 8600 3800 50  0001 C CNN
	1    8600 3800
	1    0    0    -1  
$EndComp
Wire Wire Line
	8600 3800 8600 3850
Wire Wire Line
	8600 4050 8600 4100
Wire Wire Line
	8600 4350 8600 4450
Wire Wire Line
	7250 3350 6450 3350
Wire Wire Line
	6450 3350 6450 4450
Wire Wire Line
	6450 4450 8250 4450
Connection ~ 8600 4450
Wire Wire Line
	8600 4450 8600 4500
Wire Wire Line
	8250 3550 8450 3550
Wire Wire Line
	8450 3550 8450 4100
Wire Wire Line
	8450 4100 8600 4100
Connection ~ 8600 4100
Wire Wire Line
	8600 4100 8600 4150
Wire Wire Line
	8250 3750 8250 4450
Connection ~ 8250 4450
Wire Wire Line
	8250 4450 8600 4450
$Comp
L power:VCC #PWR0106
U 1 1 5EA90B9E
P 7200 4050
F 0 "#PWR0106" H 7200 3900 50  0001 C CNN
F 1 "VCC" H 7217 4223 50  0000 C CNN
F 2 "" H 7200 4050 50  0001 C CNN
F 3 "" H 7200 4050 50  0001 C CNN
	1    7200 4050
	-1   0    0    1   
$EndComp
Wire Wire Line
	7250 3750 7200 3750
Wire Wire Line
	7200 3750 7200 4050
$Comp
L spice_tutorial-rescue:C-Device C1
U 1 1 5EA90F3B
P 5900 3950
F 0 "C1" H 6015 3996 50  0000 L CNN
F 1 "10n" H 6015 3905 50  0000 L CNN
F 2 "" H 5938 3800 50  0001 C CNN
F 3 "~" H 5900 3950 50  0001 C CNN
	1    5900 3950
	1    0    0    -1  
$EndComp
$Comp
L power:GND #PWR0107
U 1 1 5EA90FC9
P 5900 4100
F 0 "#PWR0107" H 5900 3850 50  0001 C CNN
F 1 "GND" H 5905 3927 50  0000 C CNN
F 2 "" H 5900 4100 50  0001 C CNN
F 3 "" H 5900 4100 50  0001 C CNN
	1    5900 4100
	1    0    0    -1  
$EndComp
Wire Wire Line
	7250 3550 5900 3550
Wire Wire Line
	5900 3550 5900 3800
$Comp
L Device:Battery_Cell V1
U 1 1 5EA91C7A
P 6400 2650
F 0 "V1" H 6518 2746 50  0000 L CNN
F 1 "DC 5" H 6518 2655 50  0000 L CNN
F 2 "" V 6400 2710 50  0001 C CNN
F 3 "~" V 6400 2710 50  0001 C CNN
	1    6400 2650
	1    0    0    -1  
$EndComp
$Comp
L power:VCC #PWR0108
U 1 1 5EA91D78
P 6400 2450
F 0 "#PWR0108" H 6400 2300 50  0001 C CNN
F 1 "VCC" H 6417 2623 50  0000 C CNN
F 2 "" H 6400 2450 50  0001 C CNN
F 3 "" H 6400 2450 50  0001 C CNN
	1    6400 2450
	1    0    0    -1  
$EndComp
$Comp
L power:GND #PWR0109
U 1 1 5EA91D98
P 6400 2750
F 0 "#PWR0109" H 6400 2500 50  0001 C CNN
F 1 "GND" H 6405 2577 50  0000 C CNN
F 2 "" H 6400 2750 50  0001 C CNN
F 3 "" H 6400 2750 50  0001 C CNN
	1    6400 2750
	1    0    0    -1  
$EndComp
Text Notes 6850 1300 0    50   ~ 0
.tran 1000u 1000m 0 uic
$Comp
L power:PWR_FLAG #FLG0101
U 1 1 5EA9203E
P 5950 2050
F 0 "#FLG0101" H 5950 2125 50  0001 C CNN
F 1 "PWR_FLAG" H 5950 2224 50  0000 C CNN
F 2 "" H 5950 2050 50  0001 C CNN
F 3 "~" H 5950 2050 50  0001 C CNN
	1    5950 2050
	1    0    0    -1  
$EndComp
$Comp
L power:GND #PWR0110
U 1 1 5EA9206C
P 5950 2050
F 0 "#PWR0110" H 5950 1800 50  0001 C CNN
F 1 "GND" H 5955 1877 50  0000 C CNN
F 2 "" H 5950 2050 50  0001 C CNN
F 3 "" H 5950 2050 50  0001 C CNN
	1    5950 2050
	1    0    0    -1  
$EndComp
$Comp
L power:PWR_FLAG #FLG0102
U 1 1 5EA920A2
P 6450 1950
F 0 "#FLG0102" H 6450 2025 50  0001 C CNN
F 1 "PWR_FLAG" H 6450 2124 50  0000 C CNN
F 2 "" H 6450 1950 50  0001 C CNN
F 3 "~" H 6450 1950 50  0001 C CNN
	1    6450 1950
	1    0    0    -1  
$EndComp
$Comp
L power:VCC #PWR0111
U 1 1 5EA920C2
P 6450 1950
F 0 "#PWR0111" H 6450 1800 50  0001 C CNN
F 1 "VCC" H 6467 2123 50  0000 C CNN
F 2 "" H 6450 1950 50  0001 C CNN
F 3 "" H 6450 1950 50  0001 C CNN
	1    6450 1950
	-1   0    0    1   
$EndComp
Wire Wire Line
	8900 3350 9100 3350
Wire Wire Line
	8250 3350 8450 3350
Wire Wire Line
	5950 6500 5950 5350
Wire Wire Line
	5950 5350 9850 5350
Wire Wire Line
	9850 5350 9850 2500
Wire Wire Line
	9850 2500 8450 2500
Wire Wire Line
	8450 2500 8450 3350
Connection ~ 8450 3350
Wire Wire Line
	8450 3350 8700 3350
$Comp
L 74xx:74LS273 U1
U 1 1 5EB38134
P 2850 4150
F 0 "U1" H 2850 5128 50  0000 C CNN
F 1 "74LS273" H 2850 5037 50  0000 C CNN
F 2 "" H 2850 4150 50  0001 C CNN
F 3 "http://www.ti.com/lit/gpn/sn74LS273" H 2850 4150 50  0001 C CNN
F 4 "X" H 2850 4150 50  0001 C CNN "Spice_Primitive"
F 5 "74LS273" H 2850 4150 50  0001 C CNN "Spice_Model"
F 6 "Y" H 2850 4150 50  0001 C CNN "Spice_Netlist_Enabled"
F 7 "libraries/74LS.LIB" H 2850 4150 50  0001 C CNN "Spice_Lib_File"
	1    2850 4150
	1    0    0    -1  
$EndComp
$Comp
L power:GND #PWR0112
U 1 1 5EB3823B
P 2850 4950
F 0 "#PWR0112" H 2850 4700 50  0001 C CNN
F 1 "GND" H 2855 4777 50  0000 C CNN
F 2 "" H 2850 4950 50  0001 C CNN
F 3 "" H 2850 4950 50  0001 C CNN
	1    2850 4950
	1    0    0    -1  
$EndComp
NoConn ~ 4000 4350
Wire Wire Line
	4000 4350 3350 4350
$Comp
L power:VCC #PWR0113
U 1 1 5EB3B298
P 2000 3650
F 0 "#PWR0113" H 2000 3500 50  0001 C CNN
F 1 "VCC" H 2017 3823 50  0000 C CNN
F 2 "" H 2000 3650 50  0001 C CNN
F 3 "" H 2000 3650 50  0001 C CNN
	1    2000 3650
	0    -1   -1   0   
$EndComp
Wire Wire Line
	2000 3650 2350 3650
Wire Wire Line
	2350 3750 1700 3750
Wire Wire Line
	1700 3750 1700 3100
Wire Wire Line
	1700 3100 3550 3100
Wire Wire Line
	3550 3100 3550 3650
Wire Wire Line
	3550 3650 3350 3650
Wire Wire Line
	2350 3850 1600 3850
Wire Wire Line
	1600 3850 1600 3000
Wire Wire Line
	1600 3000 3650 3000
Wire Wire Line
	3650 3000 3650 3750
Wire Wire Line
	3650 3750 3350 3750
Wire Wire Line
	2350 3950 1500 3950
Wire Wire Line
	1500 3950 1500 2900
Wire Wire Line
	1500 2900 3750 2900
Wire Wire Line
	3750 2900 3750 3850
Wire Wire Line
	3750 3850 3350 3850
Wire Wire Line
	2350 4050 1400 4050
Wire Wire Line
	1400 4050 1400 2850
Wire Wire Line
	1400 2850 3850 2850
Wire Wire Line
	3850 2850 3850 3950
Wire Wire Line
	3850 3950 3350 3950
Wire Wire Line
	2350 4150 1300 4150
Wire Wire Line
	1300 4150 1300 2800
Wire Wire Line
	1300 2800 4000 2800
Wire Wire Line
	4000 2800 4000 4050
Wire Wire Line
	4000 4050 3350 4050
Wire Wire Line
	2350 4250 1200 4250
Wire Wire Line
	1200 4250 1200 2700
Wire Wire Line
	1200 2700 4150 2700
Wire Wire Line
	4150 2700 4150 4150
Wire Wire Line
	4150 4150 3350 4150
Wire Wire Line
	2350 4350 1100 4350
Wire Wire Line
	1100 4350 1100 2600
Wire Wire Line
	1100 2600 4250 2600
Wire Wire Line
	4250 2600 4250 4250
Wire Wire Line
	4250 4250 3350 4250
$Comp
L power:VCC #PWR0114
U 1 1 5EB4FFB3
P 2900 2350
F 0 "#PWR0114" H 2900 2200 50  0001 C CNN
F 1 "VCC" H 2917 2523 50  0000 C CNN
F 2 "" H 2900 2350 50  0001 C CNN
F 3 "" H 2900 2350 50  0001 C CNN
	1    2900 2350
	1    0    0    -1  
$EndComp
Wire Wire Line
	2900 2350 2900 3350
Wire Wire Line
	2900 3350 2850 3350
$Comp
L power:GND #PWR0115
U 1 1 5EB55A25
P 2200 4650
F 0 "#PWR0115" H 2200 4400 50  0001 C CNN
F 1 "GND" H 2205 4477 50  0000 C CNN
F 2 "" H 2200 4650 50  0001 C CNN
F 3 "" H 2200 4650 50  0001 C CNN
	1    2200 4650
	0    1    1    0   
$EndComp
Wire Wire Line
	2350 4650 2200 4650
Wire Wire Line
	2350 4550 1450 4550
Wire Wire Line
	1450 4550 1450 6450
Wire Wire Line
	1450 6450 5500 6450
Wire Wire Line
	5500 6450 5500 6500
Wire Wire Line
	5500 6500 5950 6500
$EndSCHEMATC
