G04 (created by PCBNEW (2013-07-07 BZR 4022)-stable) date 13/10/2017 16:14:57*
%MOIN*%
G04 Gerber Fmt 3.4, Leading zero omitted, Abs format*
%FSLAX34Y34*%
G01*
G70*
G90*
G04 APERTURE LIST*
%ADD10C,0.00393701*%
%ADD11C,0.015*%
G04 APERTURE END LIST*
G54D10*
G54D11*
X84500Y-24500D02*
X22500Y-24500D01*
X84500Y-50500D02*
X84500Y-24500D01*
X22500Y-50500D02*
X84500Y-50500D01*
X22500Y-24500D02*
X22500Y-50500D01*
M02*
