M48
;DRILL file {KiCad 5.0.2-bee76a0~70~ubuntu18.04.1} date Mon 27 Apr 2020 11:34:01 AEST
;FORMAT={-:-/ absolute / metric / decimal}
FMAT,2
METRIC,TZ
T1C0.400
T2C1.000
%
G90
G05
T1
X114.569Y-29.835
X114.595Y-33.564
X117.734Y-29.837
X117.74Y-35.151
X120.409Y-40.03
X122.141Y-39.378
X123.728Y-38.997
X124.676Y-39.36
X125.461Y-39.98
X126.57Y-40.104
X127.589Y-40.058
X128.764Y-39.908
X129.553Y-48.28
X129.992Y-43.188
X131.387Y-43.779
T2
X109.428Y-29.934
X109.428Y-32.474
X109.428Y-35.014
X109.428Y-37.554
X109.428Y-40.094
X109.428Y-42.634
X109.428Y-45.174
X109.428Y-47.714
X109.428Y-50.254
X109.428Y-52.794
X109.428Y-55.334
X111.968Y-29.934
X111.968Y-32.474
X111.968Y-35.014
X111.968Y-37.554
X111.968Y-40.094
X111.968Y-42.634
X111.968Y-45.174
X111.968Y-47.714
X111.968Y-50.254
X111.968Y-52.794
X111.968Y-55.334
T0
M30
