FileVersion,1
Sprites,64
SpriteSize,256,256
Colorselector,0,0,0,0
Colorselector,1,36,0,0
Colorselector,2,72,0,0
Colorselector,3,108,0,0
Colorselector,4,144,0,0
Colorselector,5,180,0,0
Colorselector,6,216,0,0
Colorselector,7,252,0,0
Colorselector,8,0,36,0
Colorselector,9,36,36,0
Colorselector,10,72,36,0
Colorselector,11,108,36,0
Colorselector,12,144,36,0
Colorselector,13,180,36,0
Colorselector,14,216,36,0
Colorselector,15,252,36,0
Colorselector,16,0,72,0
Colorselector,17,36,72,0
Colorselector,18,72,72,0
Colorselector,19,108,72,0
Colorselector,20,144,72,0
Colorselector,21,180,72,0
Colorselector,22,216,72,0
Colorselector,23,252,72,0
Colorselector,24,0,108,0
Colorselector,25,36,108,0
Colorselector,26,72,108,0
Colorselector,27,108,108,0
Colorselector,28,144,108,0
Colorselector,29,180,108,0
Colorselector,30,216,108,0
Colorselector,31,252,108,0
Colorselector,32,0,144,0
Colorselector,33,36,144,0
Colorselector,34,72,144,0
Colorselector,35,108,144,0
Colorselector,36,144,144,0
Colorselector,37,180,144,0
Colorselector,38,216,144,0
Colorselector,39,252,144,0
Colorselector,40,0,180,0
Colorselector,41,36,180,0
Colorselector,42,72,180,0
Colorselector,43,108,180,0
Colorselector,44,144,180,0
Colorselector,45,180,180,0
Colorselector,46,216,180,0
Colorselector,47,252,180,0
Colorselector,48,0,216,0
Colorselector,49,36,216,0
Colorselector,50,72,216,0
Colorselector,51,108,216,0
Colorselector,52,144,216,0
Colorselector,53,180,216,0
Colorselector,54,216,216,0
Colorselector,55,252,216,0
Colorselector,56,0,252,0
Colorselector,57,36,252,0
Colorselector,58,72,252,0
Colorselector,59,108,252,0
Colorselector,60,144,252,0
Colorselector,61,180,252,0
Colorselector,62,216,252,0
Colorselector,63,252,252,0
Colorselector,64,0,0,85
Colorselector,65,36,0,85
Colorselector,66,72,0,85
Colorselector,67,108,0,85
Colorselector,68,144,0,85
Colorselector,69,180,0,85
Colorselector,70,216,0,85
Colorselector,71,252,0,85
Colorselector,72,0,36,85
Colorselector,73,36,36,85
Colorselector,74,72,36,85
Colorselector,75,108,36,85
Colorselector,76,144,36,85
Colorselector,77,180,36,85
Colorselector,78,216,36,85
Colorselector,79,252,36,85
Colorselector,80,0,72,85
Colorselector,81,36,72,85
Colorselector,82,72,72,85
Colorselector,83,108,72,85
Colorselector,84,144,72,85
Colorselector,85,180,72,85
Colorselector,86,216,72,85
Colorselector,87,252,72,85
Colorselector,88,0,108,85
Colorselector,89,36,108,85
Colorselector,90,72,108,85
Colorselector,91,108,108,85
Colorselector,92,144,108,85
Colorselector,93,180,108,85
Colorselector,94,216,108,85
Colorselector,95,252,108,85
Colorselector,96,0,144,85
Colorselector,97,36,144,85
Colorselector,98,72,144,85
Colorselector,99,108,144,85
Colorselector,100,144,144,85
Colorselector,101,180,144,85
Colorselector,102,216,144,85
Colorselector,103,252,144,85
Colorselector,104,0,180,85
Colorselector,105,36,180,85
Colorselector,106,72,180,85
Colorselector,107,108,180,85
Colorselector,108,144,180,85
Colorselector,109,180,180,85
Colorselector,110,216,180,85
Colorselector,111,252,180,85
Colorselector,112,0,216,85
Colorselector,113,36,216,85
Colorselector,114,72,216,85
Colorselector,115,108,216,85
Colorselector,116,144,216,85
Colorselector,117,180,216,85
Colorselector,118,216,216,85
Colorselector,119,252,216,85
Colorselector,120,0,252,85
Colorselector,121,36,252,85
Colorselector,122,72,252,85
Colorselector,123,108,252,85
Colorselector,124,144,252,85
Colorselector,125,180,252,85
Colorselector,126,216,252,85
Colorselector,127,252,252,85
Colorselector,128,0,0,170
Colorselector,129,36,0,170
Colorselector,130,72,0,170
Colorselector,131,108,0,170
Colorselector,132,144,0,170
Colorselector,133,180,0,170
Colorselector,134,216,0,170
Colorselector,135,252,0,170
Colorselector,136,0,36,170
Colorselector,137,36,36,170
Colorselector,138,72,36,170
Colorselector,139,108,36,170
Colorselector,140,144,36,170
Colorselector,141,180,36,170
Colorselector,142,216,36,170
Colorselector,143,252,36,170
Colorselector,144,0,72,170
Colorselector,145,36,72,170
Colorselector,146,72,72,170
Colorselector,147,108,72,170
Colorselector,148,144,72,170
Colorselector,149,180,72,170
Colorselector,150,216,72,170
Colorselector,151,252,72,170
Colorselector,152,0,108,170
Colorselector,153,36,108,170
Colorselector,154,72,108,170
Colorselector,155,108,108,170
Colorselector,156,144,108,170
Colorselector,157,180,108,170
Colorselector,158,216,108,170
Colorselector,159,252,108,170
Colorselector,160,0,144,170
Colorselector,161,36,144,170
Colorselector,162,72,144,170
Colorselector,163,108,144,170
Colorselector,164,144,144,170
Colorselector,165,180,144,170
Colorselector,166,216,144,170
Colorselector,167,252,144,170
Colorselector,168,0,180,170
Colorselector,169,36,180,170
Colorselector,170,72,180,170
Colorselector,171,108,180,170
Colorselector,172,144,180,170
Colorselector,173,180,180,170
Colorselector,174,216,180,170
Colorselector,175,252,180,170
Colorselector,176,0,216,170
Colorselector,177,36,216,170
Colorselector,178,72,216,170
Colorselector,179,108,216,170
Colorselector,180,144,216,170
Colorselector,181,180,216,170
Colorselector,182,216,216,170
Colorselector,183,252,216,170
Colorselector,184,0,252,170
Colorselector,185,36,252,170
Colorselector,186,72,252,170
Colorselector,187,108,252,170
Colorselector,188,144,252,170
Colorselector,189,180,252,170
Colorselector,190,216,252,170
Colorselector,191,252,252,170
Colorselector,192,0,0,255
Colorselector,193,36,0,255
Colorselector,194,72,0,255
Colorselector,195,108,0,255
Colorselector,196,144,0,255
Colorselector,197,180,0,255
Colorselector,198,216,0,255
Colorselector,199,252,0,255
Colorselector,200,0,36,255
Colorselector,201,36,36,255
Colorselector,202,72,36,255
Colorselector,203,108,36,255
Colorselector,204,144,36,255
Colorselector,205,180,36,255
Colorselector,206,216,36,255
Colorselector,207,252,36,255
Colorselector,208,0,72,255
Colorselector,209,36,72,255
Colorselector,210,72,72,255
Colorselector,211,108,72,255
Colorselector,212,144,72,255
Colorselector,213,180,72,255
Colorselector,214,216,72,255
Colorselector,215,252,72,255
Colorselector,216,0,108,255
Colorselector,217,36,108,255
Colorselector,218,72,108,255
Colorselector,219,108,108,255
Colorselector,220,144,108,255
Colorselector,221,180,108,255
Colorselector,222,216,108,255
Colorselector,223,252,108,255
Colorselector,224,0,144,255
Colorselector,225,36,144,255
Colorselector,226,72,144,255
Colorselector,227,108,144,255
Colorselector,228,144,144,255
Colorselector,229,180,144,255
Colorselector,230,216,144,255
Colorselector,231,252,144,255
Colorselector,232,0,180,255
Colorselector,233,36,180,255
Colorselector,234,72,180,255
Colorselector,235,108,180,255
Colorselector,236,144,180,255
Colorselector,237,180,180,255
Colorselector,238,216,180,255
Colorselector,239,252,180,255
Colorselector,240,0,216,255
Colorselector,241,36,216,255
Colorselector,242,72,216,255
Colorselector,243,108,216,255
Colorselector,244,144,216,255
Colorselector,245,180,216,255
Colorselector,246,216,216,255
Colorselector,247,252,216,255
Colorselector,248,0,252,255
Colorselector,249,36,252,255
Colorselector,250,72,252,255
Colorselector,251,108,252,255
Colorselector,252,144,252,255
Colorselector,253,180,252,255
Colorselector,254,216,252,255
Colorselector,255,252,252,255
spritebank,0
SpriteStart
SpriteBitmapBlock,0,104,128
11,11,75,75,75,74,74,10,10,10,10,10,10,10,10,10,10,10,10,10,10,10,10,74,9,9,9,9,9,9,9,9,9,9,9,9,9,9,75,130,148,247,174,27,18,1,75,175,85,75,75,74,74,74,74,74,74,73,65,65,73,138,137,138,138,137,137,73,9,9,9,9,9,9,9,9,9,9,9,9,9,9,9,9,9,9,9,9,9,9,9,9,9,9,9,9,9,9,9,9,9,9,9,9,9,9,9,9,9,9,9,9,9,9,9,9,8,9,9,9,9,9,9,8,8,8,9,9
75,75,75,75,11,11,75,10,10,10,10,10,10,10,10,10,10,10,10,10,74,10,10,10,9,10,10,9,9,9,9,9,9,9,9,9,9,9,74,129,93,247,157,74,74,130,130,139,130,130,130,138,138,138,138,138,138,137,129,137,138,138,137,137,137,137,137,137,81,9,9,9,9,9,9,9,9,9,9,9,9,9,9,9,9,9,9,9,9,9,9,9,9,9,9,9,9,8,9,9,9,9,9,9,9,9,9,9,9,9,9,9,9,9,9,9,9,9,9,9,9,9,9,9,8,9,9,8
75,75,75,75,75,75,75,11,10,10,74,74,10,10,10,10,74,10,10,10,10,74,10,10,10,9,9,9,9,9,9,9,9,9,9,9,9,9,74,65,76,215,130,130,130,130,130,130,130,130,130,138,138,138,138,138,138,138,138,138,138,146,146,146,146,146,137,73,82,9,9,9,9,9,9,9,9,9,9,9,9,9,9,9,9,9,9,9,9,9,9,9,9,8,9,9,9,9,9,9,9,9,9,9,9,9,9,9,9,9,9,9,9,9,9,9,9,9,9,9,9,9,9,9,9,9,9,8
75,75,75,75,75,75,75,75,10,10,10,74,74,10,74,74,74,74,74,74,10,10,10,74,10,10,9,9,9,9,9,9,9,9,9,9,9,9,9,73,66,142,138,138,138,138,138,138,138,138,137,138,137,137,137,137,137,137,137,137,137,137,81,137,82,82,82,82,91,9,9,9,9,9,9,9,9,9,9,9,9,9,9,9,9,9,9,9,9,9,9,9,9,9,9,9,9,9,9,9,9,9,9,9,9,9,9,9,9,9,9,9,9,9,9,9,9,9,9,9,9,9,9,8,9,9,9,9
75,75,75,75,75,75,75,75,75,10,74,10,74,74,10,10,74,74,74,74,74,10,10,10,10,10,10,9,10,10,10,9,9,9,9,9,9,9,9,9,74,139,137,74,74,82,138,130,130,137,138,138,129,129,129,129,129,129,129,129,137,137,73,73,82,82,82,82,18,9,9,9,9,9,9,9,9,9,9,9,9,9,9,9,9,9,9,9,9,9,9,9,9,9,9,9,9,9,9,9,9,9,9,9,9,9,9,9,9,9,9,9,9,9,9,9,9,9,9,9,9,9,9,9,9,8,8,9
75,75,75,75,75,75,75,75,75,10,74,74,10,74,74,74,74,74,74,74,74,74,10,10,10,10,10,10,10,10,10,9,9,9,9,9,9,9,9,9,74,84,74,74,74,74,129,129,130,129,129,129,129,129,129,129,129,129,129,129,137,137,81,9,17,74,27,18,9,9,9,9,9,9,9,9,9,9,9,9,9,9,9,9,9,9,9,9,9,9,9,9,9,9,9,9,9,9,9,9,9,9,9,9,9,9,9,9,9,9,9,9,9,9,9,9,9,9,9,9,9,9,9,9,9,9,9,9
75,75,75,75,75,75,75,75,75,10,74,74,74,74,74,74,74,74,74,74,74,74,10,10,10,10,10,10,10,10,10,9,9,9,9,9,9,9,9,9,74,75,74,73,73,65,129,129,130,129,129,129,129,129,129,129,129,129,129,129,137,137,73,9,8,73,27,26,9,9,9,9,9,9,9,9,9,9,9,9,9,9,9,9,9,9,9,9,9,9,9,9,9,9,9,9,17,17,17,17,17,17,90,90,17,9,9,9,9,9,9,9,9,9,9,9,9,9,9,9,9,9,9,9,9,9,9,9
75,75,75,75,75,75,75,75,75,10,74,74,74,74,74,74,74,74,74,74,74,74,10,10,10,10,10,10,10,10,10,10,9,9,9,10,10,9,9,9,74,74,74,75,73,65,129,129,131,130,129,129,129,129,129,129,137,137,137,137,137,137,81,8,9,9,9,9,9,9,9,9,8,9,8,9,9,9,9,9,9,9,17,17,17,9,17,17,17,17,17,17,18,26,27,35,44,44,108,109,100,109,109,100,100,17,9,9,9,9,9,9,9,9,9,9,9,9,9,9,9,9,9,9,9,9,9,9
75,75,75,75,75,75,75,75,75,11,10,74,74,74,74,74,74,74,74,74,74,10,10,10,10,10,10,10,10,10,10,9,9,10,9,10,10,9,9,9,75,74,74,75,73,65,129,129,139,137,137,137,137,137,137,137,137,137,137,137,137,73,73,0,9,9,9,9,9,9,9,9,9,9,9,9,9,9,17,17,18,18,18,18,18,26,26,26,27,27,27,35,99,36,45,53,117,45,109,109,109,109,100,100,101,100,9,17,17,9,9,9,9,9,9,9,9,9,9,9,9,9,9,9,9,9,9,8
76,76,76,75,75,75,75,75,75,11,10,74,74,74,74,74,74,74,74,74,74,10,10,10,10,10,10,10,10,10,10,10,10,9,9,10,9,9,9,10,75,76,65,65,65,65,65,65,129,65,65,65,65,65,65,73,73,73,73,73,73,73,73,9,73,73,82,74,73,82,82,82,82,82,82,18,18,18,82,82,82,91,91,91,91,91,91,91,91,27,99,99,100,36,44,53,117,109,109,109,100,100,100,100,100,100,17,9,9,9,17,8,8,9,9,9,9,9,8,9,9,9,9,9,9,8,9,8
76,76,76,76,75,75,75,75,75,75,10,74,74,74,74,74,74,74,74,74,10,10,10,10,10,10,10,10,10,10,10,10,10,10,10,10,10,74,74,74,76,76,75,74,74,74,74,74,74,74,73,73,73,74,74,74,74,74,74,74,73,73,73,74,74,74,82,82,82,82,82,91,83,82,83,83,83,82,18,18,18,26,26,26,18,18,18,82,82,82,82,82,82,90,91,100,109,164,165,164,100,100,100,101,100,100,17,17,17,17,17,17,17,16,9,9,9,9,9,9,9,9,9,9,9,9,9,9
76,76,76,76,76,75,76,75,75,75,10,74,74,74,74,74,74,74,74,74,74,74,74,74,74,75,75,75,75,75,75,75,76,76,76,76,76,84,76,76,76,76,75,75,75,75,75,75,75,74,74,74,74,74,74,74,74,74,74,74,73,74,74,74,82,82,82,82,74,74,82,82,82,82,82,82,82,82,82,83,155,155,155,155,155,155,156,164,164,164,164,164,164,164,164,164,164,164,173,165,100,36,101,109,100,101,17,17,17,17,17,17,17,9,17,17,9,17,17,9,9,9,9,9,9,9,9,9
76,76,76,76,76,76,77,85,76,76,149,149,149,150,149,149,77,76,76,76,76,77,76,76,76,76,76,76,76,76,76,84,84,76,85,85,85,85,85,84,76,76,75,75,75,75,75,75,74,74,74,74,74,74,74,74,74,74,74,74,138,138,138,138,138,139,147,147,147,147,155,156,156,156,156,156,164,164,164,164,156,164,164,164,164,164,164,164,164,164,164,164,163,155,163,164,164,164,164,164,100,36,100,109,92,100,18,17,17,17,17,17,17,17,17,17,17,17,17,17,17,17,9,9,9,9,9,9
76,76,76,76,76,85,159,158,149,149,150,150,150,150,159,159,85,76,76,76,76,76,76,76,76,84,84,84,84,84,76,85,85,85,85,76,75,75,75,75,75,139,139,139,139,130,130,130,130,130,130,130,130,130,130,130,130,130,138,138,138,138,139,139,139,147,147,147,147,147,155,155,156,156,156,156,156,156,156,156,156,156,164,164,164,164,164,164,164,156,155,155,155,164,164,164,164,164,164,147,92,27,36,109,92,101,27,17,17,17,17,17,17,17,17,17,17,17,17,17,17,17,17,17,17,9,9,17
76,76,76,76,76,158,158,158,150,158,158,158,158,159,159,158,85,93,85,85,85,85,85,85,85,85,85,85,85,85,84,85,76,76,85,140,130,130,130,130,66,130,130,130,130,130,130,130,130,130,130,130,130,130,130,130,130,130,138,138,138,138,138,139,139,139,147,147,147,147,147,155,155,156,156,156,156,156,156,156,156,156,164,164,164,164,164,164,156,155,155,155,155,155,155,164,164,164,164,155,91,18,27,101,100,100,91,17,17,17,17,17,17,17,17,17,17,17,17,17,17,17,17,17,17,17,17,17
76,76,76,76,76,85,158,159,167,167,158,159,159,158,158,94,85,93,85,85,85,93,85,85,85,85,85,85,85,84,85,85,75,76,85,140,130,130,130,130,66,130,130,130,130,130,130,130,130,130,130,130,130,130,130,130,130,130,138,138,138,139,139,139,139,147,147,147,147,147,156,156,156,156,164,164,164,164,164,165,165,165,165,165,165,173,165,165,165,165,164,155,155,155,155,155,155,164,164,156,155,18,27,101,100,100,100,17,17,17,17,17,17,17,17,17,17,17,17,17,17,17,17,17,17,17,17,17
76,76,76,76,76,158,159,167,175,167,159,159,158,158,158,94,85,85,85,85,85,85,85,85,85,85,85,85,85,85,85,85,76,75,85,140,130,130,130,130,130,66,130,130,130,130,131,131,131,139,139,139,139,139,139,139,139,139,148,148,148,148,148,156,157,157,157,157,165,165,165,165,164,92,92,92,92,92,92,92,92,92,92,92,92,100,100,100,92,92,165,156,155,155,155,155,155,155,156,155,156,18,19,100,100,100,100,17,17,17,17,17,17,17,17,17,17,17,17,17,17,17,17,17,17,17,17,17
76,76,76,76,76,158,159,167,167,167,158,158,158,158,158,94,94,85,85,85,85,93,85,85,85,85,85,85,85,85,85,85,75,75,76,140,130,130,130,130,130,66,130,130,130,131,148,149,149,149,149,149,148,148,84,84,84,84,84,84,84,84,84,84,84,84,84,84,84,92,84,12,12,12,12,12,13,12,21,21,21,21,21,21,21,21,93,102,110,102,100,164,155,155,155,155,155,155,155,155,155,18,19,36,100,100,109,26,17,17,17,17,17,17,17,17,17,17,17,17,17,17,17,17,17,17,17,17
76,76,76,76,76,158,159,167,167,159,94,94,94,94,94,94,94,85,85,85,85,85,85,85,85,85,85,93,85,85,85,85,75,75,76,76,130,130,130,130,130,130,66,130,131,149,84,84,148,149,157,157,157,158,158,166,166,166,166,239,239,175,175,175,175,175,175,175,175,175,174,12,85,166,166,85,12,76,12,84,84,84,85,84,93,93,85,166,166,93,92,164,155,147,155,155,155,155,155,155,147,91,27,36,100,36,36,26,17,17,17,17,17,17,17,17,17,17,17,17,17,17,17,17,17,17,17,17
76,76,76,76,76,94,94,167,167,159,94,94,94,86,85,94,85,85,85,85,85,85,85,85,85,85,85,85,85,85,85,76,10,10,76,76,130,130,130,130,130,130,130,130,140,148,158,239,239,239,239,239,239,239,239,239,239,239,175,239,175,175,175,175,175,175,175,174,174,175,175,76,84,174,166,174,174,174,165,174,166,174,174,101,182,182,101,182,84,21,92,165,156,147,147,147,147,155,155,155,155,91,27,27,100,36,100,27,17,17,17,17,17,17,17,17,17,17,17,17,17,17,17,17,17,17,17,17
76,76,76,76,76,158,95,167,167,159,94,94,94,94,85,85,85,85,93,85,93,86,85,85,85,85,85,85,85,86,85,76,11,11,76,77,130,130,130,130,130,130,131,66,140,148,158,239,175,175,175,166,175,166,93,165,175,166,92,83,165,174,83,10,83,166,92,9,74,83,174,85,84,183,101,84,174,93,174,93,183,174,182,92,182,101,93,182,12,12,19,165,155,147,147,147,147,155,155,155,155,92,27,27,36,92,36,100,17,17,17,17,17,17,17,17,17,17,17,17,17,17,17,17,17,17,17,17
76,76,76,76,76,94,95,167,167,159,94,94,94,94,85,85,85,85,85,85,86,86,85,85,93,85,85,85,85,86,85,76,75,10,76,77,131,130,130,130,130,130,130,139,139,148,85,157,9,83,75,9,92,9,83,9,92,74,74,82,9,92,9,91,9,83,82,9,91,9,166,85,12,174,84,12,93,174,93,11,101,84,93,11,20,93,84,20,12,12,11,165,156,147,147,147,147,147,155,155,147,92,18,27,27,92,100,100,17,17,17,17,17,17,17,17,17,17,17,17,17,17,17,17,17,17,17,17
76,76,76,76,76,94,95,167,167,159,95,94,94,94,85,85,85,85,85,85,85,86,85,85,85,85,85,85,85,85,85,76,76,10,76,76,139,130,130,130,130,130,130,130,140,149,85,166,9,74,74,9,83,9,156,9,83,74,74,83,9,92,9,83,9,74,83,9,92,9,101,93,11,11,93,93,76,12,12,12,12,12,12,12,76,93,174,85,12,12,11,165,156,147,147,147,147,147,155,155,155,92,18,18,27,28,28,91,17,17,17,17,17,17,17,17,17,17,17,17,17,17,17,17,17,17,17,17
76,76,76,76,76,86,95,167,167,159,95,94,94,94,85,85,85,85,85,86,85,94,94,85,85,85,85,85,85,85,85,76,76,10,75,76,139,130,130,130,130,130,130,130,139,157,84,239,74,9,74,9,156,9,82,9,82,83,9,74,9,92,74,74,73,9,83,9,92,9,92,165,12,166,174,93,84,166,174,93,174,165,101,174,182,101,182,174,93,12,12,101,156,147,83,83,147,147,155,155,155,156,10,18,27,92,36,27,17,17,17,17,17,17,17,17,17,17,17,17,17,17,17,17,17,17,17,17
76,76,76,76,76,85,95,167,167,167,95,94,94,86,85,85,85,85,85,85,85,86,86,85,85,85,85,85,85,85,85,76,76,10,10,75,139,130,130,130,130,130,130,130,139,157,75,239,84,9,9,73,166,83,84,74,74,157,83,92,9,92,83,83,82,9,156,9,83,9,92,166,11,174,165,174,93,183,92,84,174,174,101,165,174,101,182,101,166,12,12,101,156,85,102,94,83,147,147,155,156,156,18,18,27,27,28,26,17,17,17,17,17,17,17,17,17,17,17,17,17,17,17,17,17,17,17,17
76,76,76,76,76,85,95,159,159,167,95,94,94,94,85,85,85,85,85,85,85,86,86,85,85,85,85,85,85,85,85,85,76,10,10,75,140,130,130,130,130,130,130,130,139,213,75,239,157,9,9,74,166,73,74,74,83,156,73,9,73,165,156,74,74,156,174,83,82,83,174,174,12,93,174,174,165,174,84,93,174,174,101,182,174,20,102,92,93,13,174,93,93,110,110,85,83,147,155,164,156,147,18,18,27,27,27,26,17,17,17,17,17,17,17,17,17,17,17,17,17,17,17,17,17,17,17,17
76,76,76,76,76,85,159,167,159,159,95,94,94,94,85,85,85,85,85,85,85,85,85,85,85,85,85,85,85,85,85,76,76,10,10,75,140,130,130,130,130,130,130,130,131,213,75,239,230,148,148,156,239,165,156,157,239,239,166,165,174,239,174,174,174,175,175,175,174,174,175,174,12,11,20,20,11,11,12,11,12,12,20,174,12,12,12,12,12,21,174,102,102,110,93,83,147,164,156,147,147,146,82,10,18,27,27,27,17,17,17,17,17,17,17,17,17,17,17,17,17,17,17,17,17,17,17,17
76,76,76,76,76,85,175,167,159,167,95,94,94,85,85,85,85,85,85,85,85,85,85,85,85,85,85,84,85,85,84,76,76,74,74,75,140,130,130,130,130,130,130,130,130,148,76,167,239,239,239,239,239,239,239,239,239,239,239,239,239,239,239,175,175,175,175,175,174,174,174,94,12,12,12,12,12,12,11,11,12,174,76,75,85,85,84,84,11,93,102,102,94,110,94,92,156,147,147,147,147,147,83,9,18,27,27,27,25,25,25,25,17,17,17,17,25,17,17,17,17,17,17,17,17,17,17,17
76,76,76,76,76,77,175,167,159,159,95,94,86,85,85,85,85,85,85,85,85,85,85,85,85,85,84,85,85,84,84,76,77,75,74,75,140,130,130,130,130,130,130,130,130,140,148,93,167,166,166,166,166,158,94,93,93,93,84,84,84,84,84,84,84,84,84,84,84,84,84,148,156,156,156,156,156,156,156,164,93,166,93,165,85,85,93,102,166,102,174,102,110,21,94,84,147,147,147,147,147,147,83,9,18,27,27,27,25,25,25,25,25,25,25,25,25,17,25,25,17,17,17,17,17,17,17,17
76,76,76,76,76,76,175,167,159,159,95,94,85,85,85,85,85,85,85,85,85,85,85,85,85,85,85,85,85,84,84,76,76,75,74,75,140,130,130,130,130,130,130,130,130,131,148,148,148,148,148,148,148,148,148,148,148,148,157,157,157,157,157,157,157,156,156,156,148,148,148,148,148,148,147,147,147,147,147,85,102,93,147,84,102,94,102,110,110,94,93,84,84,83,83,82,146,147,147,147,147,147,83,18,18,27,27,36,25,25,25,25,25,25,17,17,17,17,17,17,17,17,17,17,26,25,17,17
76,76,76,76,76,76,159,167,95,95,95,94,85,85,85,85,85,85,85,85,85,85,85,85,85,85,85,85,85,84,84,77,76,75,74,76,139,130,130,130,130,130,130,130,130,130,130,139,139,139,139,148,212,139,139,139,139,139,139,139,139,138,138,138,74,74,74,73,73,73,74,138,138,138,138,138,138,138,138,85,102,85,84,93,94,174,102,102,174,85,75,82,82,74,74,74,82,82,82,83,83,82,83,18,18,27,27,27,17,17,9,9,9,9,9,9,9,9,8,8,8,8,9,18,44,35,25,25
76,76,76,76,76,76,86,159,95,95,95,94,94,85,85,85,85,85,85,85,85,85,85,85,85,85,85,85,84,149,148,84,140,76,75,76,139,130,130,130,130,130,130,130,139,139,139,138,130,130,65,65,138,203,138,66,130,130,130,65,65,65,0,0,0,0,0,0,0,0,1,73,138,139,147,147,147,147,147,85,174,94,85,93,84,76,20,94,93,74,74,74,74,73,73,73,73,73,73,73,73,9,9,9,9,9,9,1,0,0,0,0,0,0,0,0,0,0,0,0,0,9,9,18,45,44,25,25
76,76,76,76,76,76,86,159,159,95,95,86,94,85,85,85,85,149,85,149,149,149,85,149,149,149,85,85,85,149,149,84,76,76,75,75,140,130,139,230,157,157,157,148,84,84,230,148,130,130,65,65,65,138,203,138,65,130,65,65,0,0,0,0,0,0,0,0,0,0,0,0,65,73,74,74,74,73,75,92,92,10,73,73,73,9,10,82,1,1,1,0,0,0,0,0,0,0,0,0,0,0,0,9,0,0,0,1,0,0,0,0,0,0,0,0,0,0,0,0,0,9,17,17,27,36,25,25
76,76,76,76,76,76,86,167,95,95,95,86,94,85,85,85,85,149,149,149,149,149,85,85,85,84,85,85,85,85,85,84,76,76,75,75,75,131,139,166,74,74,83,83,84,74,166,148,130,130,129,65,65,65,138,139,138,65,65,0,0,0,0,0,0,0,0,0,0,0,0,0,0,0,1,1,0,1,1,0,0,0,0,0,0,0,0,0,0,0,0,0,0,0,0,0,0,0,0,0,0,0,0,0,0,0,0,1,0,0,0,0,0,0,0,0,0,0,0,0,0,9,17,8,17,26,25,25
76,76,76,76,76,76,76,94,159,95,95,94,94,85,85,85,85,85,85,85,85,85,85,85,85,85,85,85,85,85,84,84,76,76,75,76,141,131,139,158,157,157,84,148,148,157,148,83,65,65,65,65,65,65,65,65,65,0,0,0,0,0,0,0,0,0,0,0,0,0,0,0,0,0,0,0,0,0,0,0,0,0,0,0,0,0,0,0,0,0,0,0,0,0,0,0,0,0,0,0,0,0,0,0,0,0,0,0,0,0,0,0,0,0,0,0,0,0,0,0,0,8,25,25,9,17,26,25
76,76,76,76,76,76,76,85,95,95,87,94,94,86,85,85,85,85,85,85,85,85,85,84,84,76,84,76,76,75,75,75,75,74,66,66,74,65,65,65,65,65,65,65,65,65,65,65,64,64,64,64,0,0,0,0,0,0,0,0,0,0,0,0,0,0,0,0,0,0,0,0,0,0,0,0,0,0,0,0,0,0,0,0,0,0,0,0,0,0,0,0,0,0,0,0,0,0,0,0,0,0,0,0,0,0,0,8,0,0,0,0,0,0,0,0,0,0,0,0,0,0,17,25,17,26,34,25
76,76,76,76,76,77,77,85,86,86,85,85,76,76,75,75,75,76,76,75,74,74,74,65,65,65,65,65,65,65,65,65,65,65,65,65,65,65,65,65,65,65,65,65,65,65,65,65,65,1,0,0,0,0,0,0,0,0,0,0,0,0,0,0,0,0,0,0,0,0,0,0,0,0,0,0,0,0,0,0,0,0,0,0,0,0,0,0,0,0,0,0,0,0,0,0,0,0,0,0,0,0,0,0,0,0,0,0,0,0,0,0,0,0,0,0,0,0,0,0,0,9,26,26,25,26,25,25
76,76,76,76,140,151,141,131,66,66,66,66,65,65,65,65,65,65,65,65,1,0,0,0,0,65,65,65,65,65,65,65,65,65,65,65,65,1,1,1,0,0,0,0,0,0,0,0,0,0,0,0,0,0,0,0,0,0,0,0,0,0,0,0,0,0,0,0,0,0,0,0,0,0,0,0,0,0,0,0,0,0,0,0,0,0,0,0,0,0,0,0,0,0,0,0,0,0,0,0,0,0,0,0,65,64,0,0,0,0,0,0,0,0,0,0,0,0,0,0,0,9,35,35,17,17,17,17
76,76,76,76,139,204,139,129,65,65,77,78,2,0,0,0,0,0,0,0,0,0,0,0,0,1,1,1,1,1,1,1,1,0,0,0,0,0,0,0,0,0,0,0,0,0,0,0,0,0,0,0,0,0,0,0,0,0,0,0,0,0,0,0,0,0,0,0,0,0,0,0,0,0,0,0,0,0,0,0,0,0,0,0,0,0,0,0,0,0,0,0,0,0,0,0,0,0,0,0,0,0,0,0,0,64,0,0,0,0,0,0,0,0,0,0,0,0,0,0,0,0,26,27,18,18,18,18
76,76,76,76,139,130,65,65,64,65,75,11,0,0,0,0,0,0,0,0,0,0,0,0,0,0,1,1,1,0,0,0,0,0,0,0,0,0,0,0,0,0,0,0,0,0,0,0,0,0,0,0,0,0,0,0,0,0,0,0,0,0,0,0,0,0,0,0,0,0,0,0,0,0,0,0,0,0,0,0,0,0,0,0,0,0,0,0,0,0,0,1,0,0,0,0,0,0,0,0,0,0,8,0,0,0,0,0,0,0,0,0,0,0,0,0,0,0,0,0,0,0,9,35,18,18,18,18
76,76,76,76,75,65,0,0,0,0,0,0,0,0,0,0,0,0,0,0,0,0,0,0,0,0,65,0,0,0,0,0,0,0,0,0,0,0,0,0,0,0,0,0,0,0,0,0,0,0,0,0,0,0,0,0,0,0,0,0,0,0,0,0,0,0,0,0,0,0,0,0,0,0,0,0,0,0,0,0,0,0,0,0,0,0,0,0,0,0,0,1,0,0,0,0,0,0,0,0,0,0,0,0,0,0,0,0,0,0,0,0,0,0,0,0,0,0,0,0,0,0,9,27,18,17,17,17
76,76,76,76,75,65,0,0,0,0,0,0,0,0,0,0,0,0,0,0,0,0,0,0,0,64,65,0,0,0,0,0,0,0,0,0,0,0,0,0,0,0,0,0,0,0,0,0,0,0,0,0,0,0,0,0,0,0,0,0,0,0,0,0,0,0,0,0,0,0,0,0,0,0,0,0,0,0,0,0,0,0,0,0,0,0,0,0,0,0,0,0,0,0,0,0,0,0,0,0,0,0,0,0,0,0,0,0,0,0,0,0,0,0,0,0,0,0,0,0,0,0,9,27,18,17,17,17
76,76,76,76,74,65,0,0,0,0,0,0,0,0,0,0,0,0,0,0,0,0,0,0,0,0,65,0,0,0,0,0,0,0,0,0,0,0,0,0,0,0,0,0,0,0,0,0,0,0,0,0,0,0,0,0,0,0,0,0,0,0,0,0,0,0,0,0,0,0,0,0,0,0,0,0,0,0,0,0,0,0,0,0,0,0,0,0,0,0,0,0,0,0,0,0,0,0,0,0,0,0,0,0,0,0,0,0,0,0,0,0,0,0,0,0,0,0,0,0,0,0,9,44,35,17,17,17
76,76,76,76,74,1,0,0,0,64,65,65,0,0,0,0,0,0,0,0,0,0,0,0,0,0,65,0,0,0,0,0,0,0,0,0,0,0,0,0,0,0,0,0,0,0,0,0,0,0,0,0,0,0,0,0,0,0,0,0,0,0,0,0,0,0,0,0,0,0,0,0,0,0,0,0,0,0,0,0,0,0,0,0,0,0,0,0,0,0,0,0,0,0,0,0,0,0,0,0,0,0,0,0,0,0,0,0,0,0,0,0,0,0,0,0,0,0,0,0,0,0,9,62,53,17,17,17
76,76,76,76,75,1,0,0,0,64,65,65,0,0,0,0,0,0,0,0,0,0,0,0,0,0,65,0,0,0,0,64,0,0,0,0,0,0,0,0,0,0,0,0,0,0,0,0,0,0,0,0,0,0,0,0,0,0,0,0,0,0,0,0,0,0,0,0,0,0,0,0,0,0,0,0,0,0,0,0,0,0,0,0,0,0,0,0,0,0,0,0,0,0,0,0,0,0,0,0,0,0,0,0,0,0,0,0,0,64,0,0,0,0,0,0,0,0,0,8,8,8,9,45,44,17,17,17
77,77,77,77,75,1,0,0,0,65,65,65,0,0,0,0,0,0,0,0,0,0,0,0,0,0,64,0,0,0,0,0,0,0,0,0,0,0,0,0,0,0,0,0,0,0,0,0,0,0,0,0,0,0,0,0,0,0,0,0,0,0,0,0,0,0,0,0,0,0,0,0,0,0,0,0,0,0,0,0,0,0,0,0,0,0,0,0,0,0,0,0,0,0,0,0,0,8,8,8,8,8,8,8,16,16,16,16,16,8,8,16,16,16,16,16,24,24,24,24,24,24,8,26,26,17,17,17
78,78,77,77,76,1,0,0,0,65,65,0,0,0,0,0,0,0,0,0,0,0,0,0,0,0,64,64,0,0,0,0,0,0,64,64,0,0,0,0,0,0,0,0,0,0,0,0,0,0,0,0,0,0,0,0,0,0,0,0,0,0,0,0,0,0,0,0,0,0,0,0,0,0,0,0,0,0,0,0,0,0,0,0,0,0,8,8,8,8,8,8,8,8,8,8,8,8,8,8,16,16,16,16,16,16,16,16,8,8,8,16,16,16,16,16,16,16,8,8,8,8,9,18,17,17,17,17
77,76,76,76,75,1,0,0,0,65,65,0,0,0,0,0,0,0,0,0,0,0,0,0,0,0,64,64,64,64,0,0,0,0,0,0,0,0,0,0,0,0,0,0,0,0,0,0,0,0,0,0,0,0,0,0,0,0,0,0,0,0,0,0,0,0,0,0,0,0,0,0,0,0,0,8,8,8,8,8,8,8,8,8,8,8,8,8,8,8,8,8,8,8,8,8,8,8,8,8,0,0,0,0,0,0,0,0,0,0,0,0,0,0,0,0,0,0,0,0,0,0,9,18,9,17,17,17
66,66,66,74,74,65,1,1,0,65,65,65,0,0,0,0,0,0,0,0,0,0,0,0,0,0,0,0,0,0,0,0,0,0,0,0,0,0,0,0,0,0,0,0,0,0,0,0,0,0,0,0,0,0,0,0,0,0,0,0,0,0,0,0,0,0,0,8,8,8,0,0,0,8,8,8,0,0,0,8,8,8,8,8,8,0,0,0,0,0,0,0,0,0,0,0,0,0,0,0,0,0,0,0,0,0,0,0,0,0,0,0,0,0,0,0,0,0,0,0,0,0,9,17,9,17,17,17
65,65,65,65,9,65,65,9,65,65,130,130,65,0,0,0,0,0,0,0,0,0,0,0,0,0,0,0,0,0,0,0,0,0,0,0,0,0,0,0,0,0,0,0,0,0,0,0,0,0,0,0,0,0,0,0,0,0,0,0,0,0,0,0,0,0,0,0,0,0,0,0,0,0,0,0,0,0,0,0,0,0,0,0,0,0,0,0,0,0,0,0,8,0,8,0,0,0,8,0,0,0,0,0,0,0,0,0,0,0,0,0,0,0,0,0,0,0,0,0,0,0,9,9,0,17,17,17
65,65,65,65,1,0,1,1,65,65,195,203,65,0,0,0,0,0,0,0,0,0,0,0,0,0,0,0,0,0,0,0,0,0,0,0,0,0,0,0,0,0,0,0,0,0,0,0,0,0,0,0,0,0,0,0,0,0,0,0,0,0,0,0,0,0,0,0,0,0,0,0,0,0,0,0,0,0,0,0,0,0,8,8,8,8,8,8,8,8,8,8,8,8,8,8,8,8,8,8,8,8,8,0,0,0,8,8,0,0,0,0,0,0,0,0,0,0,0,0,0,0,9,9,0,9,17,17
65,65,65,65,0,0,0,0,65,65,129,129,64,0,0,0,0,0,0,0,0,0,0,0,0,0,0,0,0,0,0,0,0,0,0,0,0,0,0,0,0,0,0,0,0,0,0,0,0,0,0,0,0,0,0,0,0,0,0,0,0,0,0,0,0,0,0,0,0,0,0,0,0,8,8,8,8,8,8,8,8,8,8,8,8,8,8,8,8,8,8,8,8,8,8,16,16,16,16,8,8,8,8,8,8,16,24,88,0,0,0,0,0,0,0,0,0,0,0,0,0,0,9,8,0,9,18,17
65,65,65,65,0,0,0,0,65,65,65,64,0,0,0,0,0,0,0,0,0,0,0,0,0,0,0,0,0,0,0,0,0,0,0,0,0,0,0,0,0,0,0,0,0,0,0,0,0,0,0,0,0,0,0,0,0,0,0,0,8,0,0,0,8,8,8,8,8,8,8,8,8,8,8,8,8,8,8,8,8,8,8,16,80,80,88,16,16,88,96,96,96,88,104,104,104,104,105,96,8,8,8,16,88,104,104,96,0,0,0,0,0,0,0,0,0,0,0,0,0,8,9,0,0,9,17,18
65,65,65,65,1,0,0,0,0,65,65,64,0,0,0,0,0,0,0,0,0,0,0,0,0,0,0,0,0,0,0,0,0,0,0,0,0,0,0,0,0,0,8,8,8,8,8,8,8,8,8,8,8,8,8,8,8,8,8,8,8,8,8,8,8,8,8,8,16,16,80,80,16,88,88,88,88,88,96,88,16,96,96,105,104,104,113,104,104,104,96,104,113,104,113,96,113,96,113,96,8,8,88,96,104,104,104,88,0,0,0,0,0,0,0,0,0,0,0,0,0,9,9,0,0,9,18,18
65,65,65,65,1,0,0,0,0,64,65,64,0,0,0,0,0,0,0,0,0,0,0,0,0,0,0,0,0,0,0,0,0,0,0,8,8,8,8,8,8,8,8,8,8,8,8,8,8,8,8,8,8,16,80,16,8,80,88,88,88,88,88,88,8,8,8,88,104,104,104,105,96,105,104,104,104,96,113,104,96,113,104,113,96,96,113,96,105,104,96,104,105,104,104,88,105,88,96,88,16,96,112,112,104,104,96,80,0,0,0,0,0,0,0,0,0,0,0,0,0,9,9,0,0,9,17,17
65,65,65,65,1,0,0,0,0,0,65,64,0,0,0,0,0,0,0,0,0,0,0,0,0,0,0,8,8,8,0,0,0,8,8,8,8,16,16,80,8,80,80,88,88,80,88,96,96,96,88,88,104,96,104,105,96,105,104,104,104,96,105,96,16,80,16,96,113,104,104,113,96,104,104,104,113,96,105,96,88,105,96,104,88,16,96,88,88,96,88,88,80,16,16,16,16,8,16,88,104,113,112,104,96,96,96,16,0,0,0,0,0,0,0,0,0,0,0,0,0,9,9,0,0,0,17,17
65,65,65,65,1,0,0,0,0,1,65,64,0,0,0,0,0,0,0,0,0,0,0,0,0,0,8,25,17,8,8,8,8,8,88,96,96,97,96,105,96,105,105,104,104,96,105,104,88,96,96,96,113,96,96,113,104,105,96,88,88,80,105,104,96,96,96,96,96,80,88,96,88,96,96,88,88,16,80,16,16,16,16,8,8,8,8,8,8,8,8,8,8,8,8,8,8,16,96,113,113,112,104,96,104,104,104,8,0,0,0,0,0,0,0,0,0,0,0,0,0,9,0,0,0,0,9,17
65,65,65,65,65,0,0,0,0,0,65,64,0,0,0,0,0,0,0,0,0,0,0,0,0,0,16,105,105,89,16,8,8,8,96,96,96,105,88,105,96,105,104,104,104,96,104,105,96,104,96,96,96,80,80,96,88,96,80,8,8,8,80,88,80,80,80,16,16,16,80,80,80,80,80,16,8,8,8,8,8,8,8,8,8,8,8,8,8,8,8,8,8,8,8,16,88,104,113,113,104,104,104,104,112,104,96,8,0,0,0,0,0,0,0,0,0,0,0,0,0,9,0,0,0,0,9,17
65,65,65,65,65,0,0,0,0,0,65,64,0,0,0,0,0,0,0,0,0,0,0,0,0,0,8,97,104,105,97,89,16,8,88,96,88,96,80,96,88,88,96,88,88,80,80,88,80,80,16,8,16,8,8,8,8,8,8,16,16,16,8,80,80,80,80,16,88,88,88,88,80,80,88,80,8,8,8,8,8,8,8,8,0,8,8,0,8,0,8,8,8,8,16,88,112,113,113,112,104,104,112,112,112,112,96,8,0,0,0,0,0,0,0,0,0,0,0,0,0,0,0,0,0,0,9,17
65,65,65,65,65,0,0,0,0,0,64,64,0,0,0,0,0,0,0,0,0,0,0,0,0,0,8,97,105,105,105,105,97,89,16,8,8,8,8,8,8,8,8,8,8,8,8,8,8,8,8,8,8,8,8,8,8,88,96,96,96,96,96,104,96,96,96,96,105,96,96,88,80,96,113,96,16,8,8,0,0,0,0,0,0,0,0,0,8,8,0,8,8,16,88,96,113,177,113,113,112,112,112,112,112,112,96,0,0,0,0,0,0,0,0,0,0,0,0,0,0,0,0,0,0,0,9,17
65,65,65,65,65,0,0,0,0,0,0,64,0,0,0,0,0,0,0,0,0,0,0,0,0,0,16,96,96,105,105,104,105,105,89,16,8,8,8,8,8,8,8,8,8,8,8,8,8,8,8,8,8,8,8,8,8,104,104,104,104,96,104,104,88,88,88,96,105,96,96,96,80,88,96,16,8,8,8,8,0,0,0,0,0,0,0,0,8,8,16,88,96,104,104,113,113,177,113,113,113,113,113,113,112,112,96,0,0,0,0,0,0,0,0,0,0,0,0,0,0,0,0,0,0,0,9,17
65,65,65,65,65,0,0,0,0,0,0,64,0,0,0,0,0,0,0,0,0,0,0,0,0,0,16,96,96,97,105,105,105,104,105,97,16,16,8,8,8,17,17,17,17,17,9,8,8,8,8,8,8,8,8,8,8,96,96,96,104,96,96,96,96,96,88,80,88,88,88,88,16,16,8,8,8,8,8,8,8,0,0,8,8,8,8,80,96,104,104,113,113,113,113,113,113,113,177,113,113,113,113,113,113,112,88,0,0,0,0,0,0,0,0,0,0,0,0,0,0,0,0,0,0,0,8,17
65,65,65,65,65,0,0,0,0,0,0,0,0,0,0,0,0,0,0,0,0,0,0,0,0,0,16,104,105,105,104,104,104,105,105,105,97,25,17,17,17,17,17,25,25,25,17,17,8,8,8,8,8,8,8,8,8,16,80,16,16,8,8,8,8,8,8,8,16,16,16,80,16,8,8,8,8,8,16,16,16,88,96,96,96,104,104,112,113,113,113,177,113,113,113,113,113,113,113,113,113,113,113,113,112,104,16,0,0,0,0,0,0,0,0,0,0,0,0,0,0,0,0,0,0,0,0,9
65,65,65,65,65,0,0,0,0,0,0,0,0,0,0,0,0,0,0,0,0,0,0,0,0,0,16,104,105,104,104,104,105,96,104,105,105,105,97,97,97,97,97,105,105,97,33,17,17,9,8,8,8,8,8,8,8,8,8,8,80,88,88,88,88,88,80,96,96,96,96,104,104,16,8,8,8,88,96,104,104,104,112,112,112,113,113,113,113,113,113,113,113,113,113,113,105,105,105,105,105,105,105,97,96,88,8,0,0,0,0,0,0,0,0,0,0,0,0,0,0,0,0,0,0,0,0,9
65,65,65,65,65,0,0,0,0,0,0,0,0,0,0,0,0,0,0,0,0,0,0,0,0,0,16,104,105,105,104,104,105,105,104,105,105,105,105,105,105,105,105,105,105,105,25,17,9,9,9,8,8,0,0,8,8,8,8,16,104,105,104,104,104,104,88,104,96,88,88,104,104,16,8,8,8,16,80,88,96,96,96,96,96,96,96,96,96,96,96,96,89,89,89,89,81,81,81,81,17,17,17,9,8,8,0,0,0,0,0,0,0,0,0,0,0,0,0,0,0,0,0,0,0,0,0,9
65,65,65,65,65,0,0,0,0,0,0,0,0,0,0,0,0,0,0,0,0,0,0,0,0,0,8,104,104,105,104,105,104,104,104,105,104,113,104,104,104,104,104,104,105,97,16,8,8,8,8,8,0,0,0,0,0,8,8,8,96,96,96,96,104,104,80,96,96,88,88,88,88,8,8,8,8,8,16,80,80,80,80,80,8,8,8,8,8,8,8,9,8,9,9,9,9,9,9,9,9,9,8,8,0,0,0,0,0,0,0,0,0,0,0,0,0,0,0,0,0,0,0,0,0,0,0,9
65,65,65,65,65,0,0,0,0,0,0,0,0,0,0,0,0,0,0,0,0,0,0,0,0,0,8,104,104,104,104,104,104,104,104,105,104,105,105,104,104,105,104,104,96,17,8,8,8,8,0,0,0,0,0,0,0,0,0,8,16,16,16,8,8,8,0,0,0,0,0,0,0,0,0,0,0,0,0,0,0,0,0,0,0,0,0,0,0,0,0,0,0,9,9,9,9,9,9,8,0,0,0,0,0,0,0,0,0,0,0,0,0,0,0,0,0,0,0,0,0,0,0,0,0,0,9,18
65,65,65,65,65,0,0,0,0,0,0,0,0,0,0,0,0,0,0,0,0,0,0,0,0,0,8,96,104,104,104,104,104,104,96,96,97,97,96,97,96,88,24,16,16,8,0,0,0,0,0,0,0,0,0,0,0,0,0,0,0,0,0,0,0,0,0,0,0,0,0,0,0,0,0,0,0,0,0,0,0,0,0,0,0,0,0,0,0,0,0,0,0,0,0,9,9,9,9,8,8,0,0,0,0,0,0,0,0,0,0,0,0,0,0,0,0,0,0,0,0,0,0,8,9,9,9,17
65,65,65,65,65,0,0,0,0,0,0,0,0,0,0,0,0,0,0,0,0,0,0,0,0,0,8,88,88,88,80,80,80,80,80,80,81,72,72,72,8,8,8,0,0,0,0,0,0,0,0,0,0,0,0,0,0,0,0,0,0,0,0,0,0,0,0,0,0,0,0,0,0,0,0,0,0,0,0,0,0,0,0,0,0,0,0,0,0,0,0,0,0,0,0,0,0,8,0,0,0,8,0,0,0,0,0,0,0,8,9,9,9,9,9,9,9,9,9,9,9,9,17,17,17,17,17,17
65,65,65,65,65,0,0,0,0,0,0,0,0,0,0,0,0,0,0,0,0,0,0,0,0,0,0,8,8,8,0,0,0,0,0,0,64,64,64,0,0,0,0,0,0,0,0,0,0,0,0,0,0,0,0,0,0,0,0,0,0,0,0,0,0,0,0,0,0,0,0,0,0,0,0,0,0,0,0,0,0,0,0,0,0,0,0,0,0,0,0,0,0,0,0,0,9,9,9,9,9,9,9,9,9,9,9,9,9,9,9,9,9,9,9,9,9,9,9,9,9,9,9,9,9,9,17,17
65,65,65,65,65,0,0,0,0,0,0,0,0,0,0,0,0,0,0,0,0,0,0,0,0,0,0,0,0,0,0,0,0,0,0,0,0,0,0,0,0,0,0,0,0,0,0,0,0,0,0,0,0,0,0,0,0,0,0,0,0,0,0,0,0,0,0,0,0,0,0,0,0,0,0,0,0,0,0,0,0,0,0,0,0,0,0,0,0,8,8,8,8,9,9,9,9,9,9,9,9,9,9,9,9,9,9,9,9,9,9,9,9,9,9,9,9,9,9,9,9,9,9,9,9,10,18,18
65,65,65,65,65,0,0,0,0,0,0,0,0,0,0,0,0,0,0,0,0,0,0,0,0,0,0,0,0,0,0,0,0,0,0,0,0,0,0,0,0,0,0,0,0,0,0,0,0,0,0,0,0,0,0,0,0,0,0,0,0,0,0,0,0,0,0,0,0,0,0,0,0,0,0,0,0,0,0,0,0,0,0,0,0,0,0,0,0,8,8,8,9,9,9,9,9,9,9,9,9,9,9,9,9,9,9,9,9,9,9,9,9,9,10,10,10,10,10,18,18,18,18,18,19,19,19,19
65,65,65,65,65,65,0,0,0,0,0,0,0,0,0,0,0,0,0,0,0,0,0,0,0,0,0,0,0,0,0,0,0,0,0,0,0,0,0,0,0,0,0,0,0,0,0,0,0,0,0,0,0,0,0,0,0,0,0,0,0,0,0,0,0,0,0,0,0,0,0,0,0,0,0,0,0,0,0,0,0,0,0,0,0,0,0,0,8,8,9,9,9,9,9,9,9,9,9,9,9,9,9,10,10,10,10,10,10,10,10,10,18,18,19,19,19,19,19,19,19,19,19,19,20,20,20,20
65,65,65,65,65,65,0,0,0,0,0,0,0,0,0,0,0,0,0,0,0,0,0,0,0,0,0,0,0,0,64,64,64,64,64,64,64,0,0,0,0,64,64,64,64,64,64,64,64,64,64,64,64,64,64,64,64,64,0,0,0,0,0,0,0,0,0,0,0,0,0,0,0,0,0,0,0,0,0,0,0,1,1,9,9,9,9,9,9,9,9,9,9,10,10,10,10,10,10,10,10,10,10,10,10,18,19,19,19,19,19,19,19,19,19,19,19,19,19,19,19,19,18,18,18,18,18,18
65,65,65,65,65,65,65,1,0,0,0,0,0,0,0,0,0,0,0,0,0,0,0,64,64,65,65,65,65,65,65,65,65,65,65,65,65,65,65,65,65,65,65,64,65,65,64,64,64,64,64,64,64,64,64,64,64,64,0,0,0,0,0,0,0,0,0,0,1,1,1,1,1,9,9,9,9,9,9,9,9,9,9,9,9,9,9,9,10,10,10,10,10,10,10,10,19,19,19,19,19,19,19,18,18,10,10,10,10,10,10,10,9,9,9,9,9,9,9,9,9,9,9,9,9,9,9,9
65,65,65,65,65,65,65,65,65,65,65,65,65,65,65,65,65,65,65,65,65,65,65,65,65,65,65,65,65,65,65,65,65,65,65,65,65,65,65,65,65,65,65,65,65,65,65,65,65,65,65,65,65,65,65,65,65,65,1,1,1,9,1,9,9,9,9,9,9,9,9,9,9,9,9,9,9,9,9,10,10,10,10,10,10,10,10,10,10,10,10,10,10,10,9,9,9,9,9,9,9,9,9,9,9,9,9,9,9,9,9,9,9,9,9,9,9,9,9,9,9,9,9,9,9,9,9,9
65,65,65,65,65,65,65,65,65,65,65,65,65,65,65,65,65,65,65,65,65,65,65,65,65,65,65,65,65,65,65,65,65,65,65,65,65,65,65,65,65,65,65,65,65,65,65,73,73,73,73,73,9,9,9,73,9,9,9,9,9,9,9,9,9,9,9,9,9,10,9,9,9,9,9,9,9,9,9,9,9,9,9,9,9,9,9,9,9,9,9,9,9,9,9,9,9,9,9,9,9,9,9,9,9,9,9,9,9,9,9,9,9,9,9,9,9,9,17,17,16,16,16,16,16,16,16,16
65,65,65,65,65,65,65,65,65,65,65,65,65,65,65,65,65,65,65,65,65,65,65,65,65,65,65,65,65,73,73,73,73,73,73,73,73,73,73,73,73,73,73,73,73,73,73,74,74,74,74,74,74,10,74,74,10,73,73,9,9,9,9,9,9,9,9,1,1,1,1,1,1,1,1,1,1,0,0,8,1,9,9,9,9,9,9,9,9,9,9,9,9,9,9,9,9,9,9,9,9,9,9,9,9,8,8,16,16,16,16,16,16,16,16,16,16,16,16,16,16,16,16,16,16,16,16,16
65,65,65,65,65,65,65,65,65,65,65,66,66,66,66,66,65,73,73,73,73,73,74,74,74,74,74,74,74,74,74,74,74,74,74,74,74,74,74,74,74,74,74,74,74,73,73,73,73,73,73,65,65,65,65,65,1,65,65,0,0,64,0,0,0,0,0,0,1,0,0,0,0,0,1,0,9,8,8,8,9,9,8,8,8,8,8,8,8,8,8,8,8,8,8,8,8,8,8,8,8,8,16,16,16,16,16,16,16,16,16,16,16,16,16,16,16,16,16,24,24,24,24,24,16,16,16,16
74,74,74,74,74,74,74,74,74,74,74,74,74,74,74,74,74,74,74,74,74,74,74,74,74,74,74,74,74,74,74,73,73,73,65,73,65,65,65,65,65,65,65,65,65,65,65,65,65,65,64,64,65,64,64,64,64,64,64,64,0,64,0,0,0,0,8,8,8,8,8,8,8,8,8,8,8,8,8,8,8,8,8,8,8,8,8,8,8,8,8,8,8,8,8,8,8,8,8,8,8,16,16,16,16,16,16,16,16,16,16,16,16,16,16,16,16,16,24,24,88,88,24,24,16,16,8,8
74,74,74,75,75,75,75,75,75,75,75,75,74,74,74,74,74,74,74,65,65,65,65,65,65,65,65,65,65,65,65,65,65,65,65,65,65,65,65,65,65,65,65,65,65,65,65,65,64,65,64,64,64,0,0,0,0,8,8,8,8,8,8,8,8,8,8,8,8,8,8,8,8,8,8,8,8,8,8,8,8,8,8,8,8,8,8,16,16,16,16,16,16,8,8,8,8,8,8,8,8,8,16,16,16,16,16,16,16,16,8,8,8,8,8,8,8,8,16,16,16,16,16,16,8,8,8,0
74,74,74,74,74,66,66,65,65,65,65,65,65,65,65,65,65,65,65,65,65,65,65,65,65,65,65,65,65,65,65,65,65,65,65,64,64,64,65,64,64,64,0,0,0,0,8,8,8,8,8,8,8,8,8,8,8,8,8,8,8,8,8,8,8,8,8,8,8,8,8,8,8,8,8,8,8,8,8,8,8,8,8,8,8,8,8,8,16,16,16,8,8,8,8,8,8,8,8,8,8,8,8,16,16,16,16,8,8,8,8,0,0,0,0,0,0,0,8,8,8,8,8,8,8,0,0,0
65,65,65,65,65,65,65,65,65,65,65,65,65,65,65,65,65,65,65,65,65,65,65,65,65,65,65,65,65,64,64,64,0,0,0,0,0,0,0,0,0,8,8,0,0,8,0,0,8,8,8,8,8,8,8,8,8,0,8,8,8,8,8,8,8,8,8,8,8,8,8,8,8,8,8,8,8,8,8,8,8,8,8,8,8,8,8,8,8,8,8,8,8,8,0,0,0,0,0,0,0,0,8,8,8,8,8,8,8,0,0,0,0,0,0,0,0,0,0,8,8,8,8,8,0,0,0,0
65,65,65,65,65,65,65,65,65,65,65,65,65,65,65,65,64,64,0,0,0,0,0,0,0,0,0,0,0,0,0,0,0,0,0,0,0,0,0,0,0,0,0,0,0,0,0,0,0,0,0,0,0,0,0,0,0,0,0,0,0,0,0,0,0,0,8,8,8,8,8,8,8,8,8,8,8,0,0,0,0,0,0,0,0,0,0,8,8,8,8,8,0,0,0,0,0,0,0,0,0,0,0,0,8,8,8,0,0,0,0,0,0,0,0,0,0,0,0,0,8,8,8,0,0,0,0,0
65,65,64,64,64,0,0,0,0,0,0,0,0,0,0,0,0,0,0,0,0,0,0,0,0,0,0,0,0,0,0,0,0,0,0,0,0,0,0,0,0,0,0,0,0,0,0,0,0,0,0,0,0,0,0,0,0,0,0,0,0,0,0,0,0,0,0,0,8,8,8,8,8,8,8,8,0,0,0,0,0,0,0,0,0,0,0,0,0,8,8,0,0,0,0,0,0,0,0,0,0,0,0,0,0,8,0,0,0,0,0,0,0,0,0,0,0,0,0,0,0,8,8,8,8,0,0,1
0,0,0,0,0,0,0,0,0,0,0,0,0,0,0,0,0,0,0,0,0,0,0,0,0,0,0,0,0,0,0,0,0,0,0,0,0,0,0,0,0,0,0,0,0,0,0,0,0,0,0,0,0,0,0,0,0,0,0,0,0,0,0,0,0,0,0,0,0,0,8,8,8,0,0,0,0,0,0,0,0,0,0,0,0,0,0,0,0,0,0,0,0,0,0,0,0,0,0,0,0,0,0,0,0,0,8,0,0,0,0,0,0,0,0,0,0,0,0,1,9,9,9,9,9,9,9,9
0,0,0,0,0,0,0,0,0,0,0,0,0,0,0,0,0,0,0,0,0,0,0,0,0,0,0,0,0,0,0,0,0,0,0,0,0,0,0,0,0,0,0,0,0,0,0,0,0,0,0,0,0,0,0,0,0,0,0,0,0,0,0,0,0,0,0,0,0,0,0,0,0,0,0,0,0,0,0,0,0,0,0,0,0,0,0,0,0,0,0,0,0,0,0,0,0,0,0,0,0,0,0,1,1,1,9,1,1,1,0,0,0,1,9,9,9,9,9,9,9,9,9,9,9,9,9,9
0,0,0,0,0,0,0,0,0,0,0,0,0,0,0,0,0,0,0,0,0,0,0,0,0,0,0,0,0,0,0,0,0,0,0,0,0,0,0,0,0,0,0,0,0,0,0,0,0,0,0,0,0,0,0,0,0,0,0,0,0,0,0,0,0,0,0,0,0,0,0,0,0,0,0,0,0,0,0,0,0,0,0,0,0,0,0,0,0,1,1,1,1,1,1,1,1,1,1,9,9,9,9,9,9,9,9,9,9,9,9,9,9,9,9,9,9,9,9,9,9,9,9,9,9,9,9,9
0,0,0,0,0,0,0,0,0,0,0,0,0,0,0,0,0,0,0,0,0,0,0,0,0,0,0,0,0,0,0,64,64,64,64,64,64,64,64,64,64,64,64,64,64,64,64,64,64,64,64,64,64,64,64,64,64,64,64,64,64,64,64,64,0,0,0,0,0,0,0,0,0,0,0,0,1,0,1,1,1,1,1,1,1,1,1,1,1,1,1,1,9,9,9,9,9,9,9,9,9,9,9,9,9,9,9,9,9,9,9,1,0,0,0,0,0,0,0,0,0,0,0,0,8,8,0,0
0,0,0,0,64,64,64,64,0,64,0,64,64,64,64,64,64,64,64,64,64,64,64,64,64,65,65,64,65,65,65,65,65,65,65,65,65,65,65,65,65,65,65,65,65,65,65,65,65,65,65,65,65,65,65,65,65,65,65,65,65,65,65,65,65,65,65,64,64,0,0,64,1,1,1,1,1,1,1,1,1,1,1,1,1,1,1,1,1,1,9,1,9,1,1,1,1,0,0,0,0,0,0,0,0,0,0,0,0,0,0,0,0,0,0,0,0,0,0,0,0,0,8,9,17,18,0,1
64,64,64,64,64,64,64,64,64,65,65,65,65,65,65,65,65,65,65,65,65,65,65,65,65,65,65,65,65,65,65,65,65,65,65,65,65,65,65,65,65,65,65,65,65,65,65,65,65,65,65,65,65,65,65,65,65,65,65,65,65,65,65,65,65,65,65,64,65,0,0,0,0,1,1,1,9,1,9,65,1,1,0,0,0,0,0,0,0,0,0,0,0,0,0,0,0,0,0,0,0,0,0,0,0,0,0,8,9,9,18,9,0,9,9,9,0,0,0,0,9,9,9,9,18,27,9,65
65,65,65,65,65,65,65,65,65,65,65,65,65,65,65,65,65,65,65,65,65,65,65,65,65,65,65,65,65,65,65,65,65,65,65,65,65,65,65,65,65,65,65,65,65,65,65,65,65,65,65,65,65,65,65,65,65,65,65,65,65,65,0,0,0,0,0,0,0,0,0,0,0,0,0,0,65,9,9,9,9,9,0,0,0,0,0,0,0,0,0,0,0,0,9,9,9,0,65,9,9,0,0,0,1,9,9,8,9,9,26,9,0,73,9,9,0,0,0,9,10,10,9,9,18,44,9,0
65,65,65,65,65,65,65,65,65,65,65,65,65,65,65,65,65,65,65,65,65,65,65,65,65,65,65,65,65,65,65,65,65,65,65,65,65,65,65,65,65,65,65,65,65,65,65,65,64,65,0,0,0,0,0,0,0,0,0,0,0,0,0,0,0,0,0,0,0,0,0,0,0,0,0,0,65,9,9,9,9,0,0,65,1,9,0,0,0,0,1,9,0,0,9,18,18,0,65,9,9,0,0,0,9,10,9,0,0,9,27,17,0,65,9,0,0,0,0,9,9,10,9,8,9,36,18,0
65,65,65,65,65,65,65,65,65,65,65,65,65,65,65,65,65,65,65,65,65,65,65,65,65,65,65,65,65,65,65,65,65,65,65,65,65,64,64,0,0,0,0,0,0,0,0,0,0,0,0,0,0,0,0,0,0,0,0,0,0,0,0,0,0,0,0,0,0,0,0,0,0,0,0,0,0,0,9,9,1,0,0,65,65,1,0,0,0,1,9,9,9,0,9,18,26,0,65,0,0,0,0,0,9,9,9,9,0,9,27,18,0,0,0,0,0,0,0,9,10,10,9,8,9,26,18,0
65,65,65,65,65,65,65,65,65,65,65,65,65,65,65,65,65,65,65,65,65,65,65,65,65,65,65,64,0,0,0,0,0,0,0,0,0,0,0,0,0,0,0,0,0,0,0,0,0,0,0,0,0,0,0,0,0,0,0,0,0,0,0,0,0,0,0,0,0,0,0,0,0,0,9,9,0,0,8,0,0,0,0,65,65,0,0,0,0,0,9,9,0,0,8,18,26,0,0,0,64,0,0,0,9,9,9,9,0,9,18,17,0,0,0,64,64,0,0,1,9,9,9,8,9,9,9,0
65,65,65,65,65,65,65,65,65,65,65,65,65,65,65,65,65,65,1,1,1,1,0,0,0,0,0,0,0,0,0,0,0,0,0,0,0,0,0,0,0,0,0,0,0,0,0,0,0,0,0,0,0,0,0,0,0,0,0,0,0,0,0,0,0,0,0,0,0,0,0,0,0,0,9,17,0,0,0,0,0,0,0,64,64,64,64,0,0,0,9,9,0,0,0,9,17,0,0,0,64,64,0,0,0,9,9,0,0,8,9,0,0,0,0,0,0,0,0,0,0,0,0,9,8,0,0,0
65,65,65,65,65,65,65,65,1,1,1,1,1,1,1,0,0,1,1,1,1,1,1,0,0,0,0,0,0,0,0,0,0,0,0,0,0,0,0,0,0,0,0,0,0,0,0,0,0,0,0,0,0,0,0,0,0,0,9,9,9,9,9,9,0,0,0,0,0,0,0,0,0,0,8,18,0,0,0,0,0,0,0,0,64,65,65,0,0,0,1,0,0,0,0,9,0,0,0,0,0,0,0,0,0,0,0,0,0,0,0,0,0,0,0,0,0,0,0,0,0,0,0,8,0,0,0,0
2,2,2,2,2,2,2,2,2,2,1,1,1,1,1,0,0,1,1,1,1,0,0,0,0,0,0,0,0,0,0,0,0,0,0,0,0,0,0,0,0,0,0,0,0,0,0,64,0,0,0,0,0,0,0,0,0,1,9,1,9,9,1,9,9,0,0,0,0,0,0,0,0,0,0,17,8,0,0,0,0,0,0,0,0,0,0,0,0,0,0,0,0,0,0,0,0,0,0,0,0,0,0,0,0,0,0,0,0,0,0,0,0,0,0,0,0,0,0,0,0,8,8,0,0,0,0,0
2,2,2,2,2,1,1,1,1,1,1,1,1,1,0,0,0,65,0,0,0,0,0,0,0,0,0,0,1,1,1,1,1,9,1,0,0,0,0,0,0,0,0,0,0,9,0,64,64,0,0,0,0,0,0,0,0,0,9,9,9,9,1,9,9,1,0,0,0,0,0,0,0,0,0,9,9,0,0,0,0,0,0,0,0,0,0,0,0,0,0,0,0,8,0,0,0,0,0,0,0,0,0,0,0,0,0,8,0,0,0,0,0,0,0,0,0,0,0,0,0,0,0,0,0,0,0,0
1,1,1,1,1,1,0,0,1,0,0,0,0,0,0,0,0,65,64,0,0,0,0,0,0,0,0,0,1,9,9,9,9,9,9,1,0,0,0,0,0,0,0,0,0,9,0,65,65,0,0,0,0,0,0,0,0,0,0,0,0,0,0,0,0,0,0,0,0,0,0,0,0,0,0,9,0,0,0,0,0,0,0,0,0,0,0,0,0,0,0,0,8,8,0,0,0,0,0,0,0,0,0,0,0,0,0,0,0,0,0,0,0,0,0,0,0,0,0,0,0,0,0,0,0,0,0,0
0,1,1,1,1,1,1,1,9,1,0,0,0,0,0,0,0,65,65,0,0,0,0,0,0,0,0,0,1,9,9,9,9,1,9,1,0,0,0,0,0,0,0,0,0,9,0,65,65,0,0,0,0,0,0,0,0,0,0,0,0,0,0,0,0,0,0,0,0,0,0,0,0,0,0,8,0,0,0,0,0,0,0,0,0,0,0,0,0,0,0,0,0,0,0,0,0,0,0,0,0,0,0,0,0,0,0,0,0,0,0,0,0,0,0,0,0,0,0,0,0,0,0,0,0,8,8,0
1,1,1,65,1,1,1,65,1,0,0,0,0,0,0,0,0,65,65,0,0,0,0,0,0,0,0,0,1,1,0,1,1,0,0,0,0,0,0,0,0,0,0,0,0,8,0,0,64,0,0,0,0,0,0,0,0,0,0,0,0,0,0,0,0,0,0,0,0,0,0,0,0,0,0,0,0,0,0,0,0,0,0,0,0,0,0,0,0,0,0,0,0,0,0,0,0,0,0,0,0,0,0,0,0,0,0,0,0,0,0,0,0,0,0,0,0,0,0,0,0,0,0,0,0,8,8,0
0,0,0,0,0,0,0,0,0,0,0,0,0,0,0,0,0,0,0,0,0,0,0,0,0,0,0,0,0,0,0,0,0,0,0,0,0,0,0,0,0,0,0,0,0,0,0,0,0,0,0,0,0,0,0,0,0,0,0,0,0,0,0,0,0,0,0,0,0,0,0,0,0,0,0,0,0,0,0,0,0,0,0,0,0,0,0,0,0,0,0,0,0,0,0,0,0,0,0,0,0,0,0,0,0,0,0,0,0,0,0,0,0,0,0,0,0,0,0,0,0,0,0,0,0,0,0,0
0,0,0,0,0,0,0,0,0,0,0,0,0,0,0,0,0,0,0,0,0,0,0,0,0,0,0,0,0,0,0,0,0,0,0,0,0,0,0,0,0,0,0,0,0,0,0,0,0,0,0,0,0,0,0,0,0,0,0,0,0,0,0,0,0,0,0,0,0,0,0,0,0,0,0,0,0,0,0,0,0,0,0,0,0,0,0,0,0,0,0,0,0,0,0,0,0,0,0,0,0,0,0,0,0,0,0,0,0,0,0,0,0,0,0,0,0,0,0,0,0,0,0,0,0,0,0,0
SpriteSpeccyBlock,0,13,16
7,0,1,7,0,1,7,0,1,7,0,1,7,0,1,7,0,1,7,0,1,7,0,1,7,0,1,7,0,1,7,0,1,7,0,1,7,0,1,7,0,1,7,0,1,7,0,1
7,0,1,7,0,1,7,0,1,7,0,1,7,0,1,7,0,1,7,0,1,7,0,1,7,0,1,7,0,1,7,0,1,7,0,1,7,0,1,7,0,1,7,0,1,7,0,1
7,0,1,7,0,1,7,0,1,7,0,1,7,0,1,7,0,1,7,0,1,7,0,1,7,0,1,7,0,1,7,0,1,7,0,1,7,0,1,7,0,1,7,0,1,7,0,1
7,0,1,7,0,1,7,0,1,7,0,1,7,0,1,7,0,1,7,0,1,7,0,1,7,0,1,7,0,1,7,0,1,7,0,1,7,0,1,7,0,1,7,0,1,7,0,1
7,0,1,7,0,1,7,0,1,7,0,1,7,0,1,7,0,1,7,0,1,7,0,1,7,0,1,7,0,1,7,0,1,7,0,1,7,0,1,7,0,1,7,0,1,7,0,1
7,0,1,7,0,1,7,0,1,7,0,1,7,0,1,7,0,1,7,0,1,7,0,1,7,0,1,7,0,1,7,0,1,7,0,1,7,0,1,7,0,1,7,0,1,7,0,1
7,0,1,7,0,1,7,0,1,7,0,1,7,0,1,7,0,1,7,0,1,7,0,1,7,0,1,7,0,1,7,0,1,7,0,1,7,0,1,7,0,1,7,0,1,7,0,1
7,0,1,7,0,1,7,0,1,7,0,1,7,0,1,7,0,1,7,0,1,7,0,1,7,0,1,7,0,1,7,0,1,7,0,1,7,0,1,7,0,1,7,0,1,7,0,1
7,0,1,7,0,1,7,0,1,7,0,1,7,0,1,7,0,1,7,0,1,7,0,1,7,0,1,7,0,1,7,0,1,7,0,1,7,0,1,7,0,1,7,0,1,7,0,1
7,0,1,7,0,1,7,0,1,7,0,1,7,0,1,7,0,1,7,0,1,7,0,1,7,0,1,7,0,1,7,0,1,7,0,1,7,0,1,7,0,1,7,0,1,7,0,1
7,0,1,7,0,1,7,0,1,7,0,1,7,0,1,7,0,1,7,0,1,7,0,1,7,0,1,7,0,1,7,0,1,7,0,1,7,0,1,7,0,1,7,0,1,7,0,1
7,0,1,7,0,1,7,0,1,7,0,1,7,0,1,7,0,1,7,0,1,7,0,1,7,0,1,7,0,1,7,0,1,7,0,1,7,0,1,7,0,1,7,0,1,7,0,1
7,0,1,7,0,1,7,0,1,7,0,1,7,0,1,7,0,1,7,0,1,7,0,1,7,0,1,7,0,1,7,0,1,7,0,1,7,0,1,7,0,1,7,0,1,7,0,1
SpriteAttribs,0,0,0,0
SpriteDataOffSet,&180
SpriteNotes,Start
This is a free text box for your notes... it's saved with the sprites
SpriteNotes,End
eof
