(module SIL-6 (layer F.Cu) (tedit 200000)
  (descr "Connecteur 6 pins")
  (tags "CONN DEV")
  (fp_text reference RR11 (at 0 -2.54) (layer F.SilkS)
    (effects (font (size 1.72974 1.08712) (thickness 0.3048)))
  )
  (fp_text value 270 (at 0 -2.54) (layer F.SilkS) hide
    (effects (font (size 1.524 1.016) (thickness 0.3048)))
  )
  (fp_line (start -5.08 1.27) (end -5.08 -1.27) (layer F.SilkS) (width 0.3048))
  (fp_line (start 7.62 1.27) (end -7.62 1.27) (layer F.SilkS) (width 0.3048))
  (fp_line (start 7.62 -1.27) (end 7.62 1.27) (layer F.SilkS) (width 0.3048))
  (fp_line (start -7.62 -1.27) (end 7.62 -1.27) (layer F.SilkS) (width 0.3048))
  (fp_line (start -7.62 1.27) (end -7.62 -1.27) (layer F.SilkS) (width 0.3048))
  (pad 6 thru_hole circle (at 6.35 0) (size 1.397 1.397) (drill 0.8128) (layers *.Cu *.Mask F.SilkS))
  (pad 5 thru_hole circle (at 3.81 0) (size 1.397 1.397) (drill 0.8128) (layers *.Cu *.Mask F.SilkS))
  (pad 4 thru_hole circle (at 1.27 0) (size 1.397 1.397) (drill 0.8128) (layers *.Cu *.Mask F.SilkS))
  (pad 3 thru_hole circle (at -1.27 0) (size 1.397 1.397) (drill 0.8128) (layers *.Cu *.Mask F.SilkS))
  (pad 2 thru_hole circle (at -3.81 0) (size 1.397 1.397) (drill 0.8128) (layers *.Cu *.Mask F.SilkS))
  (pad 1 thru_hole rect (at -6.35 0) (size 1.397 1.397) (drill 0.8128) (layers *.Cu *.Mask F.SilkS))
)
