:20F00000C37FF0C336F1C3A1F0C3AAF0C3A1F0C3A1F0C321F1C3A1F0C3A1F0C37FF0C3FE0B
:20F02000F0C3F5F0C3A1F0C3A1F0C3A1F0C3A1F0C3A1F0C3A1F0C310F1C3A1F0C3A1F0C311
:20F04000A1F0C3A1F0C3A1F0C31FF2C3A1F0C3A1F0C33CF2C3D9F1C32AF2C3A1F0C3A1F0F6
:20F06000C3A1F0C3A1F0C3A1F0C3A1F0C3A1F0C3A1F0C3A1F0C3A1F000000000C386F03E79
:20F0800004D3D3C3A1F07AFE01CA53F2C38FF021DFF5CD1FF2C37FF021BCF5CD1FF2C37FB1
:20F0A000F021CAF5CD1FF2C37FF0DBEFCB6F2005CD50F1181EDBEFCB47CDBDF0C9DB00E623
:20F0C0000428FA79FE07280DFE00C8D301DBEFCB6F200079C93E06D3013E0FCDE4F03E070C
:20F0E000D30118EF3DC8F53E053DF5AF3D20FDF120F7F118EFDBA0CB6F3EFFC0AFC9AFF5EF
:20F10000DBA0E6042005F13D20F5C9F179D3A2C97EFE2428074FCDFEF02318F40E0DC3FECD
:20F12000F0DBEFCB6F2003C372F1DB00E602CA34F1AF3DC9AFC9DBEFCB6F2009CD72F1CA8C
:20F1400036F1C362F1DB00E60228FADB01E67FC9AFF5DBA1E6042005F13D20F5C9F179D30B
:20F16000A3C9AFF5CD72F12005F13D20F6C9F1DBA3C9DBA1E601C8AF3DC93EA14F060E21A2
:20F1800090F1EDB3C93EA04F060E21A0F1EDB3C9044403C105EA0B560C020D000E010F0094
:20F1A000044403C105EA0B560C060D000E010F00FE20C8FE2CC8FE0D37C83FC9CD36F1FEDA
:20F1C0000DC8FE03CAA1F0C54FCDAAF079C1FE40D8FE7BD0E65FC90E01210000CDBCF147EB
:20F1E000CD0FF2380829292929B56F18EFE3E578CDB0F130020DC8C24BF20D20DCC90E019D
:20F2000021000018DAE60FC69027CE40274FC9D630D8FE173FD8FE0A3FD0D607FE0AC97ECF
:20F2200023FE24C84FCDAAF018F5C50E0ACDAAF00E0DCDAAF0C1C97CCD3CF27DF50F0F0F98
:20F240000FCD45F2F1CD05F2C3AAF00E2ACDAAF0C37FF02107F4CD1FF22100003911400013
:20F26000ED52E5DDE1AFDD7700DD7701DD77022199F5CD1FF20E01CD54F0FDE1CD57F0CD92
:20F280007AF10601CD6AF32155F5CD10F1AFDD7702217AF4CD1FF2DD7E013CCD3CF221363D
:20F2A000F5CD1FF2FDE5E1CD37F2CD57F00605CD6AF3D2E0F2CDB1F30601CD6AF3D2B8F2B7
:20F2C0003E15CD99F3DD7E023CDD7702FE08DA91F2CDCAF3CA91F22122F5CD1FF2C304F488
:20F2E000FE01CAFAF2B7CA91F2FE04CA62F3CD3CF2218FF4CD1FF2C3B8F20601CD6AF3DA3F
:20F30000B5F2570601CD6AF3DAB5F22FBACA19F321A5F4CD1FF2C3B8F27ADD77000E001E7F
:20F3200080FDE5E10601CD6AF3DAB5F277231DC224F3510601CD6AF3DAB5F2BAC259F3DDA0
:20F340007E0047DD7E013CB8C24EF3DD77013E06CD99F3E5FDE1C38DF221BDF4CD1FF2C32B
:20F36000B8F23E06CD99F3C3F8F3D53E05D3A13EEAD3A1000011BBBBDBA1E601FE01CA902D
:20F38000F31DC278F315C278F305C275F3D137C9DBA3D1F5814FF1B7C9F5814FDBA1E6043E
:20F3A000FE04C29CF3F1D3A33E05D3A13EE8D3A1C921D5F4CD1FF2DD7E02CD3CF2CD57F045
:20F3C000C9F5C54FCDAAF0C1F1C9AFDD770221DEF4CD1FF2DB00E602CAD4F3DB01E67FF519
:20F3E000CD57F0F1FE52C8FE72C8FE51C2F1F3B7C9FE71C2CAF3B7C9216FF5CD10F1210E53
:20F40000F5CD1FF2C31BF00D0A47657420612046696C652066726F6D20612050430D0A5A7A
:20F42000696C6F672053434320506F727473204131482026204133482E205265717569722E
:20F440006573205254532026204354532C2033382C34303020426175642E0D0A2453434316
:20F4600020506F7274204120746F2033382C34303020426175642E0D0A2457414954494E47
:20F480004720464F5220534543544F52202324482052454345495645442C204E4F54205368
:20F4A0004F480D0A242B2B42414420534543544F52202320494E204844520D0A242B2B42A2
:20F4C000414420434B53554D204F4E20534543544F520D0A2454494D454F555420240D0A9A
:20F4E0004D554C5449504C45204552524F52532E0D0A54595045205120544F205155495485
:20F500002C205220544F2052455452593A240D0A5452414E5346455220434F4D504C4554C6
:20F5200045240D0A494E56414C4944204845414445522E0D0A24482E204966204F4B20777C
:20F54000696C6C20777269746520746F2052414D2061742024446F776E6C6F6164696E676D
:20F560002066696C6520537461727465642E24446F776E206C6F6164696E67206F66206671
:20F58000696C6520636F6D706C6574652E20204E6F204572726F7273240D0A456E746572B7
:20F5A0002052414D206C6F636174696F6E20287878787848202B4352293A20244D656E7546
:20F5C000204572726F720D0A07244E6F20524F4D20486967482050616765210D0A07240D67
:20F5E0000A496E76616C696420706172616D617465722070617373656420746F20484947C2
:20F6000048205061676520524F4D0D0A07242020456E64206F6620524F4D204849474820FB
:07F62000504147452D2D3E2E
:00000001FF
